[gd_scene load_steps=4 format=3 uid="uid://c2yrpsyi0bt68"]

[sub_resource type="Animation" id="Animation_3tola"]
length = 0.001
tracks/0/type = "value"
tracks/0/imported = false
tracks/0/enabled = true
tracks/0/path = NodePath(".:position")
tracks/0/interp = 1
tracks/0/loop_wrap = true
tracks/0/keys = {
"times": PackedFloat32Array(0),
"transitions": PackedFloat32Array(1),
"update": 0,
"values": [Vector3(0, 0, 0)]
}
tracks/1/type = "value"
tracks/1/imported = false
tracks/1/enabled = true
tracks/1/path = NodePath("BridgeAnchor:scale")
tracks/1/interp = 1
tracks/1/loop_wrap = true
tracks/1/keys = {
"times": PackedFloat32Array(0),
"transitions": PackedFloat32Array(1),
"update": 0,
"values": [Vector3(1, 1, 1)]
}
tracks/2/type = "value"
tracks/2/imported = false
tracks/2/enabled = true
tracks/2/path = NodePath("BridgeAnchor:rotation")
tracks/2/interp = 1
tracks/2/loop_wrap = true
tracks/2/keys = {
"times": PackedFloat32Array(0),
"transitions": PackedFloat32Array(1),
"update": 0,
"values": [Vector3(0, 0, 0)]
}

[sub_resource type="Animation" id="Animation_3pi3d"]
resource_name = "spawn"
length = 2.0
tracks/0/type = "value"
tracks/0/imported = false
tracks/0/enabled = true
tracks/0/path = NodePath(".:position")
tracks/0/interp = 2
tracks/0/loop_wrap = true
tracks/0/keys = {
"times": PackedFloat32Array(0, 0.7, 0.8, 0.9, 1, 1.1, 1.2),
"transitions": PackedFloat32Array(1, 1, 1, 1, 1, 1, 1),
"update": 0,
"values": [Vector3(0, 50, 0), Vector3(0, -1, 0), Vector3(0, 0, 0), Vector3(0, -0.33, 0), Vector3(0, 0, 0), Vector3(0, -0.16, 0), Vector3(0, 0, 0)]
}
tracks/1/type = "value"
tracks/1/imported = false
tracks/1/enabled = true
tracks/1/path = NodePath("BridgeAnchor:scale")
tracks/1/interp = 1
tracks/1/loop_wrap = true
tracks/1/keys = {
"times": PackedFloat32Array(0.8, 0.9, 1, 1.3),
"transitions": PackedFloat32Array(1, 1, 1, 1),
"update": 0,
"values": [Vector3(0.01, 0.01, 0.01), Vector3(1, 0.01, 0.5), Vector3(1, 1, 1), Vector3(1, 1, 1)]
}
tracks/2/type = "value"
tracks/2/imported = false
tracks/2/enabled = true
tracks/2/path = NodePath("BridgeAnchor:rotation")
tracks/2/interp = 1
tracks/2/loop_wrap = true
tracks/2/keys = {
"times": PackedFloat32Array(0.8, 1.3),
"transitions": PackedFloat32Array(1, 1),
"update": 0,
"values": [Vector3(3.142, 0, 0), Vector3(0, 0, 0)]
}

[sub_resource type="AnimationLibrary" id="AnimationLibrary_5m23e"]
_data = {
"RESET": SubResource("Animation_3tola"),
"spawn": SubResource("Animation_3pi3d")
}

[node name="AnimationPlayer" type="AnimationPlayer"]
libraries = {
"": SubResource("AnimationLibrary_5m23e")
}
speed_scale = 0.25
