<?xml version="1.0" encoding="UTF-8" standalone="no"?>
<!-- Created with Inkscape (http://www.inkscape.org/) -->

<svg
   width="32.0px"
   height="32.0px"
   viewBox="0 0 32.0 32.0"
   version="1.1"
   id="SVGRoot"
   sodipodi:docname="apple.svg"
   inkscape:version="1.2.2 (732a01da63, 2022-12-09)"
   inkscape:export-filename="moss.png"
   inkscape:export-xdpi="96"
   inkscape:export-ydpi="96"
   xml:space="preserve"
   xmlns:inkscape="http://www.inkscape.org/namespaces/inkscape"
   xmlns:sodipodi="http://sodipodi.sourceforge.net/DTD/sodipodi-0.dtd"
   xmlns="http://www.w3.org/2000/svg"
   xmlns:svg="http://www.w3.org/2000/svg"><sodipodi:namedview
     id="namedview2575"
     pagecolor="#ffffff"
     bordercolor="#000000"
     borderopacity="0.25"
     inkscape:showpageshadow="2"
     inkscape:pageopacity="0.0"
     inkscape:pagecheckerboard="0"
     inkscape:deskcolor="#d1d1d1"
     inkscape:document-units="px"
     showgrid="true"
     inkscape:zoom="14.638496"
     inkscape:cx="55.94837"
     inkscape:cy="52.396093"
     inkscape:window-width="3840"
     inkscape:window-height="2054"
     inkscape:window-x="-11"
     inkscape:window-y="-11"
     inkscape:window-maximized="1"
     inkscape:current-layer="layer1"><inkscape:grid
       type="xygrid"
       id="grid2698" /></sodipodi:namedview><defs
     id="defs2570" /><g
     inkscape:label="Layer 1"
     inkscape:groupmode="layer"
     id="layer1"><g
       inkscape:label="Layer 1"
       id="layer1-8"
       transform="matrix(0.31229373,0,0,0.26697538,-15.617956,-20.260843)"><path
         style="fill:#ff0000;stroke-width:0.264583"
         d="m 99.771178,131.87147 c 0,0 -11.278481,-10.7001 -18.508276,-10.41091 -7.229798,0.28919 -17.929893,4.04869 -17.929895,15.32717 0,5.73131 -0.210689,24.90877 5.569909,36.40203 3.720246,7.39676 16.479552,14.11427 23.349273,15.36331 12.724441,2.31353 37.323101,-2.16741 40.776051,-7.2298 14.9725,-21.95126 12.95661,-43.35885 -2.02434,-58.70594 -3.85933,-3.95364 -11.56768,-10.41091 -22.84616,-4.33788 -12.761768,6.87172 -8.386562,13.59202 -8.386562,13.59202 z"
         id="path532"
         sodipodi:nodetypes="csssssssc" /><path
         style="fill:#008000;stroke-width:0.264583"
         d="m 102.08471,142.57157 c -8.097369,-19.37586 -9.543327,-32.67868 -17.062315,-38.75171 -7.518987,-6.073025 0.578382,-7.808176 0.578382,-7.808176 0,0 -8.097369,-35.859786 5.494644,4.916256 13.592019,40.77605 10.989289,41.64363 10.989289,41.64363 z"
         id="path738" /><path
         style="fill:#008000;stroke-width:0.264583"
         d="m 95.144107,116.8335 c 4.337878,-7.51899 2.024343,-27.762422 15.616363,-28.919188 13.59201,-1.156766 15.32716,-1.156766 18.21908,-2.602727 2.89192,-1.445959 0.28919,7.808179 -2.89192,14.459593 -3.18111,6.651412 -13.30282,18.797472 -21.97858,17.929892 -8.675751,-0.86757 -8.964943,-0.86757 -8.964943,-0.86757 z"
         id="path857" /></g></g></svg>
