<?xml version="1.0" encoding="UTF-8" standalone="no"?>
<!-- Created with Inkscape (http://www.inkscape.org/) -->

<svg
   width="32.0px"
   height="32.0px"
   viewBox="0 0 32.0 32.0"
   version="1.1"
   id="SVGRoot"
   sodipodi:docname="monsterra.svg"
   inkscape:version="1.2.2 (732a01da63, 2022-12-09)"
   inkscape:export-filename="moss.png"
   inkscape:export-xdpi="96"
   inkscape:export-ydpi="96"
   xml:space="preserve"
   xmlns:inkscape="http://www.inkscape.org/namespaces/inkscape"
   xmlns:sodipodi="http://sodipodi.sourceforge.net/DTD/sodipodi-0.dtd"
   xmlns="http://www.w3.org/2000/svg"
   xmlns:svg="http://www.w3.org/2000/svg"><sodipodi:namedview
     id="namedview2575"
     pagecolor="#ffffff"
     bordercolor="#000000"
     borderopacity="0.25"
     inkscape:showpageshadow="2"
     inkscape:pageopacity="0.0"
     inkscape:pagecheckerboard="0"
     inkscape:deskcolor="#d1d1d1"
     inkscape:document-units="px"
     showgrid="true"
     inkscape:zoom="10.35098"
     inkscape:cx="15.071037"
     inkscape:cy="57.289262"
     inkscape:window-width="3840"
     inkscape:window-height="2054"
     inkscape:window-x="-11"
     inkscape:window-y="-11"
     inkscape:window-maximized="1"
     inkscape:current-layer="layer1"><inkscape:grid
       type="xygrid"
       id="grid2698" /></sodipodi:namedview><defs
     id="defs2570" /><g
     inkscape:label="Layer 1"
     inkscape:groupmode="layer"
     id="layer1"><g
       inkscape:label="Layer 1"
       id="layer1-0"
       transform="matrix(0.25067269,0,0,0.194199,-8.1933339,-19.795952)"><path
         style="fill:#008000;stroke-width:0.264583"
         d="m 100.78335,247.11441 c -24.292114,-18.36368 -26.605649,-8.96495 -35.570594,-33.40166 -8.964949,-24.4367 -9.398736,-42.94498 -7.518988,-69.69523 1.879746,-26.75024 6.362219,-54.801844 37.016552,-24.72589 30.65433,30.07594 52.05453,13.59201 45.8369,56.53699 -6.21762,42.94499 -22.41236,56.24781 -22.84615,68.53847 -0.43379,12.29065 -0.1446,16.33933 -0.1446,16.33933 z"
         id="path1991" /><path
         style="fill:#ffffff;stroke-width:0.264583"
         d="m 96.011683,118.71324 c 0,0 4.193277,4.48247 1.735152,18.50828 -2.45813,14.0258 -7.80818,14.45959 -6.073029,23.13534 1.735151,8.67576 3.904091,24.7259 8.386564,4.04869 4.48247,-20.67722 9.10954,-33.25706 5.92843,-36.87195 -3.18111,-3.6149 -9.977117,-8.82036 -9.977117,-8.82036 z"
         id="path1993"
         sodipodi:nodetypes="cssssc" /><path
         style="fill:#ffffff;stroke-width:0.264583"
         d="m 109.74829,182.48004 c 13.73662,-23.71373 26.17186,-27.18403 20.82182,-35.28141 -5.35005,-8.09737 7.66358,-5.20545 7.80817,0.28919 0.1446,5.49465 3.90409,32.38949 -12.72444,33.54626 -16.62852,1.15677 -15.90555,1.44596 -15.90555,1.44596 z"
         id="path1995"
         sodipodi:nodetypes="csssc" /><path
         style="fill:#ffffff;stroke-width:0.264583"
         d="m 57.115384,156.88656 c 10.555502,8.53116 10.02435,8.58723 12.146057,10.7001 1.054869,1.05048 13.013632,8.09737 16.339336,10.98929 3.325707,2.89192 10.26631,7.66358 -1.735151,3.4703 -12.00146,-4.19328 -25.593475,-3.18111 -27.18403,-11.85686 -1.590556,-8.67575 0.433788,-13.30283 0.433788,-13.30283 z"
         id="path1997"
         sodipodi:nodetypes="cssssc" /><path
         style="fill:#ffffff;stroke-width:0.264583"
         d="m 57.838365,195.49367 c 16.050143,3.90409 14.314995,3.18111 16.91772,3.90408 1.933546,1.12932 24.333121,-7.70167 16.050146,-0.43378 -5.205452,5.78383 -5.928432,6.07303 -15.18257,5.35005 -9.25414,-0.72298 -16.194743,-2.02435 -17.062317,-5.20545 -0.867577,-3.18111 -0.722979,-3.6149 -0.722979,-3.6149 z"
         id="path1999"
         sodipodi:nodetypes="cccssc" /></g></g></svg>
