<?xml version="1.0" encoding="UTF-8" standalone="no"?>
<!-- Created with Inkscape (http://www.inkscape.org/) -->

<svg
   width="32.0px"
   height="32.0px"
   viewBox="0 0 32.0 32.0"
   version="1.1"
   id="SVGRoot"
   sodipodi:docname="opal.svg"
   inkscape:version="1.2.2 (732a01da63, 2022-12-09)"
   inkscape:export-filename="moss.png"
   inkscape:export-xdpi="96"
   inkscape:export-ydpi="96"
   xml:space="preserve"
   xmlns:inkscape="http://www.inkscape.org/namespaces/inkscape"
   xmlns:sodipodi="http://sodipodi.sourceforge.net/DTD/sodipodi-0.dtd"
   xmlns="http://www.w3.org/2000/svg"
   xmlns:svg="http://www.w3.org/2000/svg"><sodipodi:namedview
     id="namedview2575"
     pagecolor="#ffffff"
     bordercolor="#000000"
     borderopacity="0.25"
     inkscape:showpageshadow="2"
     inkscape:pageopacity="0.0"
     inkscape:pagecheckerboard="0"
     inkscape:deskcolor="#d1d1d1"
     inkscape:document-units="px"
     showgrid="true"
     inkscape:zoom="41.403919"
     inkscape:cx="12.100304"
     inkscape:cy="19.998107"
     inkscape:window-width="3840"
     inkscape:window-height="2054"
     inkscape:window-x="-11"
     inkscape:window-y="-11"
     inkscape:window-maximized="1"
     inkscape:current-layer="layer1-6"><inkscape:grid
       type="xygrid"
       id="grid2698" /></sodipodi:namedview><defs
     id="defs2570" /><g
     inkscape:label="Layer 1"
     inkscape:groupmode="layer"
     id="layer1"><g
       inkscape:label="Layer 1"
       id="layer1-6"
       transform="matrix(-0.27166643,0,0,0.25617693,45.429428,-16.738215)"><path
         style="fill:#008000;stroke-width:0.264583"
         d="m 144.7405,152.83788 c 17.47152,-40.13208 11.62359,-70.129702 -25.88266,-76.491241 -1.26389,-0.964363 -56.922075,-8.888225 -58.561347,30.798931 -3.407961,34.85804 19.790766,61.33916 23.45766,63.74052 37.230137,13.04106 50.685147,-0.66804 60.986347,-18.04821 z"
         id="path2010"
         sodipodi:nodetypes="ccccc" /><path
         style="fill:#00ff00;stroke-width:0.199623"
         d="m 69.375166,94.46563 -7.562606,10.26005 16.666975,0.6482 -7.537976,20.86519 17.068772,-9.96891 c 0,0 -11.587507,-15.08082 -18.635165,-21.80453 z"
         id="path2066" /><path
         style="fill:#800080;stroke-width:0.199623"
         d="m 81.488752,162.73449 8.44363,-12.5103 -13.421475,-1.55407 3.450388,-13.7935 -15.547859,0.68684 c 0,0 4.002856,8.29035 7.746085,15.80166 2.533356,5.08354 5.650651,9.9821 9.329231,11.36937 z"
         id="path2066-7"
         sodipodi:nodetypes="cccccsc" /><path
         style="fill:#00ff00;stroke-width:0.199623"
         d="m 130.30315,80.333197 -8.0297,9.898778 16.61907,1.419444 -8.49627,20.493661 17.51217,-9.16765 c 0,0 -10.8766,-15.601311 -17.60527,-22.644233 z"
         id="path2066-7-1" /><path
         style="fill:#800080;stroke-width:0.181367"
         d="m 151.55765,130.75379 -7.06953,-9.14247 -0.63143,19.72284 -13.94352,8.74694 14.01371,1.447 c 0,0 2.8685,-12.55259 7.63077,-20.77431 z"
         id="path2066-7-8"
         sodipodi:nodetypes="cccccc" /><path
         style="fill:#00ff00;stroke-width:0.199623"
         d="m 132.97507,165.47833 -3.73517,-12.18649 -10.44995,13.00027 -12.26757,-18.4847 -2.16197,19.64812 c 0,0 19.01572,-0.32238 28.61466,-1.9772 z"
         id="path2066-7-8-5" /><path
         style="fill:#00ff00;stroke-width:0.199623"
         d="m 108.22475,132.74065 10.09528,7.78121 1.006,-16.64922 20.69848,7.98435 -9.60003,-17.27894 c 0,0 -15.32619,11.26097 -22.19973,18.1626 z"
         id="path2066-7-4" /><path
         style="fill:#00ff00;stroke-width:0.0526622"
         d="M 22.490425,3.6075853 21.18317,6.7633584 18.748741,3.2754052 15.014598,8.006596 14.951303,2.8497274 c 0,0 5.035832,0.244304 7.539122,0.7578579 z"
         id="path2066-7-4-3"
         transform="matrix(-3.6809848,0,0,3.9035521,167.22503,65.338495)" /><path
         style="fill:#800080;stroke-width:0.0526622"
         d="m 15.636285,15.517772 -1.18909,-3.203538 4.131044,0.834089 -0.49438,-6.0407524 3.540172,3.7002914 c 0,0 -3.822105,3.336211 -5.987746,4.70991 z"
         id="path2066-7-4-3-3"
         transform="matrix(-3.6809848,0,0,3.9035521,167.22503,65.338495)" /></g></g></svg>
