<?xml version="1.0" encoding="UTF-8" standalone="no"?>
<!-- Created with Inkscape (http://www.inkscape.org/) -->

<svg
   width="32.0px"
   height="32.0px"
   viewBox="0 0 32.0 32.0"
   version="1.1"
   id="SVGRoot"
   sodipodi:docname="peach.svg"
   inkscape:version="1.2.2 (732a01da63, 2022-12-09)"
   inkscape:export-filename="..\..\src\assets\ui\icons\opal.png"
   inkscape:export-xdpi="96"
   inkscape:export-ydpi="96"
   xmlns:inkscape="http://www.inkscape.org/namespaces/inkscape"
   xmlns:sodipodi="http://sodipodi.sourceforge.net/DTD/sodipodi-0.dtd"
   xmlns="http://www.w3.org/2000/svg"
   xmlns:svg="http://www.w3.org/2000/svg">
  <sodipodi:namedview
     id="namedview2575"
     pagecolor="#ffffff"
     bordercolor="#000000"
     borderopacity="0.25"
     inkscape:showpageshadow="2"
     inkscape:pageopacity="0.0"
     inkscape:pagecheckerboard="0"
     inkscape:deskcolor="#d1d1d1"
     inkscape:document-units="px"
     showgrid="true"
     inkscape:zoom="29.276992"
     inkscape:cx="24.456064"
     inkscape:cy="22.953178"
     inkscape:window-width="3840"
     inkscape:window-height="2054"
     inkscape:window-x="-11"
     inkscape:window-y="-11"
     inkscape:window-maximized="1"
     inkscape:current-layer="layer1">
    <inkscape:grid
       type="xygrid"
       id="grid2698" />
  </sodipodi:namedview>
  <defs
     id="defs2570" />
  <g
     inkscape:label="Layer 1"
     inkscape:groupmode="layer"
     id="layer1">
    <path
       style="fill:#ff9955;stroke-width:0.0696702"
       d="m 11.189938,29.660164 c 0,0 -16.8489609,-16.25636 -4.1749706,-25.2012407 12.6739996,-8.94489 8.2008196,9.0226607 6.4861106,9.8782607 -1.71472,0.8556 1.19284,-15.4785406 7.007969,-11.8228007 5.81513,3.6557303 8.57359,4.3557703 9.39367,9.3337907 0.82008,4.97802 -7.67895,15.86745 -12.52489,16.95639 -4.845939,1.08894 -6.187889,0.8556 -6.187889,0.8556 z"
       id="path236" />
    <path
       style="fill:#280b0b;stroke-width:0.0696702"
       d="m 15.364897,4.4589233 c 0,0 -2.534799,1.3222803 -2.534799,8.1670707 0,6.84478 2.534799,-8.1670707 2.534799,-8.1670707 z"
       id="path346" />
  </g>
</svg>
