<?xml version="1.0" encoding="UTF-8" standalone="no"?>
<!-- Created with Inkscape (http://www.inkscape.org/) -->

<svg
   width="32.0px"
   height="32.0px"
   viewBox="0 0 32.0 32.0"
   version="1.1"
   id="SVGRoot"
   sodipodi:docname="rock.svg"
   inkscape:version="1.2.2 (732a01da63, 2022-12-09)"
   inkscape:export-filename="moss.png"
   inkscape:export-xdpi="96"
   inkscape:export-ydpi="96"
   xml:space="preserve"
   xmlns:inkscape="http://www.inkscape.org/namespaces/inkscape"
   xmlns:sodipodi="http://sodipodi.sourceforge.net/DTD/sodipodi-0.dtd"
   xmlns="http://www.w3.org/2000/svg"
   xmlns:svg="http://www.w3.org/2000/svg"><sodipodi:namedview
     id="namedview2575"
     pagecolor="#ffffff"
     bordercolor="#000000"
     borderopacity="0.25"
     inkscape:showpageshadow="2"
     inkscape:pageopacity="0.0"
     inkscape:pagecheckerboard="0"
     inkscape:deskcolor="#d1d1d1"
     inkscape:document-units="px"
     showgrid="true"
     inkscape:zoom="14.638496"
     inkscape:cx="30.740863"
     inkscape:cy="28.486533"
     inkscape:window-width="3840"
     inkscape:window-height="2054"
     inkscape:window-x="-11"
     inkscape:window-y="-11"
     inkscape:window-maximized="1"
     inkscape:current-layer="layer1"><inkscape:grid
       type="xygrid"
       id="grid2698" /></sodipodi:namedview><defs
     id="defs2570" /><g
     inkscape:label="Layer 1"
     inkscape:groupmode="layer"
     id="layer1"><g
       inkscape:label="Layer 1"
       id="layer1-6"
       transform="matrix(0.30053528,0,0,0.30667707,-11.979427,-47.350269)"><path
         style="fill:#808080;stroke-width:0.264583"
         d="m 45.403116,248.70496 c 5.494644,-10.4109 12.146055,-48.58422 10.121712,-56.68159 -2.024343,-8.09737 60.730282,-42.5112 69.116842,-12.72444 8.38657,29.78675 26.89484,55.81402 7.51899,63.6222 -19.37585,7.80817 -86.757544,5.78383 -86.757544,5.78383 z"
         id="path1220" /><path
         style="fill:#ffffff;stroke-width:0.264583"
         d="m 72.338159,208.52816 c 0,0 -0.894641,4.11535 1.482548,3.68081 2.377191,-0.43454 4.575453,-2.27494 1.584793,-2.93953 -2.990657,-0.66459 -3.067341,-0.74128 -3.067341,-0.74128 z"
         id="path1276" /><path
         style="fill:#ffffff;stroke-width:0.264583"
         d="m 114.07982,230.94295 c 0,0 -0.89464,4.11535 1.48255,3.68081 2.37719,-0.43454 4.57545,-2.27494 1.58479,-2.93953 -2.99066,-0.66459 -3.06734,-0.74128 -3.06734,-0.74128 z"
         id="path1276-9" /><path
         style="fill:#ffffff;stroke-width:0.264583"
         d="m 110.03113,185.25063 c 0,0 -0.89464,4.11535 1.48255,3.68081 2.37719,-0.43454 4.57545,-2.27494 1.58479,-2.93953 -2.99065,-0.66459 -3.06734,-0.74128 -3.06734,-0.74128 z"
         id="path1276-6" /><path
         style="fill:#ffffff;stroke-width:0.264583"
         d="m 86.172807,233.40107 c 0,0 -0.89464,4.11535 1.48255,3.68081 2.37719,-0.43454 4.57545,-2.27494 1.58479,-2.93953 -2.99065,-0.66459 -3.06734,-0.74128 -3.06734,-0.74128 z"
         id="path1276-0" /><path
         style="fill:#ffffff;stroke-width:0.264583"
         d="m 96.728311,207.08461 c 0,0 -0.894641,4.11535 1.482548,3.68081 2.377191,-0.43454 4.575451,-2.27494 1.584793,-2.93953 -2.990657,-0.66459 -3.067341,-0.74128 -3.067341,-0.74128 z"
         id="path1276-93" /><path
         style="fill:#ffffff;stroke-width:0.264583"
         d="m 83.714679,185.10604 c 0,0 -0.894641,4.11535 1.482552,3.68081 2.37719,-0.43454 4.57545,-2.27494 1.58479,-2.93953 -2.990658,-0.66459 -3.067342,-0.74128 -3.067342,-0.74128 z"
         id="path1276-8" /><path
         style="fill:#ffffff;stroke-width:0.264583"
         d="m 60.145546,236.43759 c 0,0 -0.894641,4.11535 1.482548,3.68081 2.377191,-0.43454 4.575453,-2.27494 1.584793,-2.93953 -2.990657,-0.66459 -3.067341,-0.74128 -3.067341,-0.74128 z"
         id="path1276-4" /><path
         style="fill:#ffffff;stroke-width:0.264583"
         d="m 121.888,210.55492 c 0,0 -0.89464,4.11535 1.48255,3.68081 2.37719,-0.43454 4.57545,-2.27494 1.58479,-2.93953 -2.99066,-0.66459 -3.06734,-0.74128 -3.06734,-0.74128 z"
         id="path1276-08" /></g></g></svg>
