[gd_scene load_steps=3 format=3 uid="uid://clyf71aljgpfc"]

[ext_resource type="Script" path="res://components/fail_dialog/fail_dialog.gd" id="1_4pjph"]

[sub_resource type="StyleBoxFlat" id="StyleBoxFlat_oru2p"]
content_margin_left = 16.0
content_margin_top = 16.0
content_margin_right = 16.0
content_margin_bottom = 16.0
bg_color = Color(0.168627, 0.168627, 0.168627, 0.784314)
border_width_left = 2
border_width_top = 2
border_width_right = 2
border_width_bottom = 2
border_color = Color(0.784314, 0.196078, 0.196078, 1)

[node name="FailDialog" type="PanelContainer"]
anchors_preset = 15
anchor_right = 1.0
anchor_bottom = 1.0
grow_horizontal = 2
grow_vertical = 2
size_flags_horizontal = 3
size_flags_vertical = 3
script = ExtResource("1_4pjph")

[node name="CenterContainer" type="CenterContainer" parent="."]
layout_mode = 2

[node name="PanelContainer" type="PanelContainer" parent="CenterContainer"]
layout_mode = 2
theme_override_styles/panel = SubResource("StyleBoxFlat_oru2p")

[node name="VBoxContainer" type="VBoxContainer" parent="CenterContainer/PanelContainer"]
layout_mode = 2

[node name="TextLabel" type="Label" parent="CenterContainer/PanelContainer/VBoxContainer"]
unique_name_in_owner = true
layout_mode = 2
text = "This is an error"

[node name="OkayButton" type="Button" parent="CenterContainer/PanelContainer/VBoxContainer"]
unique_name_in_owner = true
layout_mode = 2
size_flags_horizontal = 4
size_flags_vertical = 4
text = "okay"
