# MagicaVoxel @ Ephtracy

# group
o 

# material
mtllib nebulabee.mtl
usemtl palette

# normals
vn -1 0 0
vn 1 0 0
vn 0 0 1
vn 0 0 -1
vn 0 -1 0
vn 0 1 0

# texcoords
vt 0.818359 0.5
vt 0.822266 0.5
vt 0.849609 0.5
vt 0.880859 0.5
vt 0.884766 0.5
vt 0.888672 0.5

# verts
v -0.6 1.4 0.3
v -0.6 1.4 -0.2
v -0.6 1.5 0.4
v -0.6 1.5 0.3
v -0.6 1.5 0.2
v -0.6 1.5 0.1
v -0.6 1.5 -0.1
v -0.6 1.5 -0.2
v -0.6 1.5 -0.3
v -0.6 1.6 0.4
v -0.6 1.6 0.2
v -0.6 1.6 0.1
v -0.6 1.6 -0.1
v -0.6 1.6 -0.2
v -0.6 1.6 -0.3
v -0.5 1.3 0.3
v -0.5 1.3 0.1
v -0.5 1.3 -0.1
v -0.5 1.3 -0.2
v -0.5 1.4 0.4
v -0.5 1.4 0.3
v -0.5 1.4 0.1
v -0.5 1.4 -0.1
v -0.5 1.4 -0.2
v -0.5 1.4 -0.3
v -0.5 1.5 0.4
v -0.5 1.5 0.3
v -0.5 1.5 -0.2
v -0.5 1.5 -0.3
v -0.4 0.8 0.3
v -0.4 0.8 -0.3
v -0.4 1.1 0.3
v -0.4 1.1 0.2
v -0.4 1.1 0.1
v -0.4 1.1 0
v -0.4 1.1 -0.1
v -0.4 1.1 -0.3
v -0.4 1.2 0.2
v -0.4 1.2 0.1
v -0.4 1.2 0
v -0.4 1.2 -0.1
v -0.4 1.3 0.2
v -0.4 1.3 0.1
v -0.4 1.3 -0.1
v -0.3 0.7 0.3
v -0.3 0.7 -0.3
v -0.3 0.8 0.4
v -0.3 0.8 0.3
v -0.3 0.8 -0.3
v -0.3 0.8 -0.4
v -0.3 1 0.4
v -0.3 1 0.3
v -0.3 1.1 -0.1
v -0.3 1.1 -0.2
v -0.3 1.1 -0.3
v -0.3 1.1 -0.4
v -0.3 1.2 -0.1
v -0.3 1.2 -0.2
v -0.2 0.6 0.2
v -0.2 0.6 -0.2
v -0.2 0.7 0.4
v -0.2 0.7 0.3
v -0.2 0.7 0.2
v -0.2 0.7 -0.2
v -0.2 0.8 0.4
v -0.2 0.8 0.3
v -0.2 1 0.4
v -0.2 1 0.3
v -0.2 1.1 0.4
v -0.2 1.1 0.3
v -0.2 1.1 -0.1
v -0.2 1.1 -0.2
v -0.2 1.1 -0.3
v -0.2 1.2 0.3
v -0.2 1.2 0.2
v -0.2 1.2 -0.1
v -0.2 1.2 -0.2
v -0.2 1.2 -0.3
v -0.2 1.3 0.2
v -0.2 1.3 -0.2
v -0.1 0.6 0.3
v -0.1 0.6 0.2
v -0.1 0.7 0.3
v -0.1 0.7 0.2
v -0.1 1.3 0.1
v -0.1 1.3 -0.1
v -0.1 1.4 0.1
v -0.1 1.4 -0.1
v 0.2 1.1 0.2
v 0.2 1.1 0.1
v 0.2 1.1 0
v 0.2 1.2 0.2
v 0.2 1.2 0.1
v 0.2 1.2 0
v 0.2 1.2 -0.1
v 0.2 1.3 0.3
v 0.2 1.3 0.2
v 0.2 1.3 -0.1
v 0.2 1.3 -0.2
v 0.2 1.4 0.3
v 0.2 1.4 -0.2
v 0.3 1.4 0.4
v 0.3 1.4 0.3
v 0.3 1.4 -0.2
v 0.3 1.4 -0.3
v 0.3 1.5 0.4
v 0.3 1.5 0.3
v 0.3 1.5 0.2
v 0.3 1.5 0.1
v 0.3 1.5 -0.2
v 0.3 1.5 -0.3
v 0.3 1.6 0.3
v 0.3 1.6 0.2
v 0.3 1.6 0.1
v 0.3 1.6 -0.2
v 0.3 1.6 -0.3
v 0.4 1.5 0.4
v 0.4 1.5 0.3
v 0.4 1.6 0.4
v 0.4 1.6 0.3
v -0.5 1.5 0.4
v -0.5 1.5 0.3
v -0.5 1.6 0.4
v -0.5 1.6 0.3
v -0.4 1.4 0.4
v -0.4 1.4 0.3
v -0.4 1.4 0.2
v -0.4 1.4 0.1
v -0.4 1.4 -0.1
v -0.4 1.4 -0.2
v -0.4 1.4 -0.3
v -0.4 1.5 0.4
v -0.4 1.5 0.3
v -0.4 1.5 0.1
v -0.4 1.5 0
v -0.4 1.6 0.3
v -0.4 1.6 0.1
v -0.4 1.6 0
v -0.4 1.6 -0.3
v -0.3 1.1 0.2
v -0.3 1.1 0.1
v -0.3 1.1 0
v -0.3 1.1 -0.1
v -0.3 1.2 0.2
v -0.3 1.2 0.1
v -0.3 1.2 0
v -0.3 1.2 -0.1
v -0.3 1.3 0.3
v -0.3 1.3 0.2
v -0.3 1.3 0.1
v -0.3 1.3 -0.1
v -0.3 1.3 -0.2
v -0.3 1.4 0.3
v -0.3 1.4 0.2
v -0.3 1.4 0.1
v -0.3 1.4 -0.1
v -0.3 1.4 -0.2
v 0 0.6 0.3
v 0 0.6 0.2
v 0 0.7 0.3
v 0 0.7 0.2
v 0 1.3 0.1
v 0 1.3 -0.1
v 0 1.4 0.1
v 0 1.4 -0.1
v 0.1 0.6 0.2
v 0.1 0.6 -0.2
v 0.1 0.7 0.4
v 0.1 0.7 0.3
v 0.1 0.7 0.2
v 0.1 0.7 -0.2
v 0.1 0.8 0.4
v 0.1 0.8 0.3
v 0.1 1 0.4
v 0.1 1 0.3
v 0.1 1.1 0.4
v 0.1 1.1 0.3
v 0.1 1.1 0
v 0.1 1.2 0.3
v 0.1 1.2 0.2
v 0.1 1.2 0
v 0.1 1.2 -0.2
v 0.1 1.3 0.2
v 0.1 1.3 -0.2
v 0.2 0.7 0.3
v 0.2 0.7 -0.3
v 0.2 0.8 0.4
v 0.2 0.8 0.3
v 0.2 0.8 -0.3
v 0.2 0.8 -0.4
v 0.2 1 0.4
v 0.2 1 0.3
v 0.2 1.1 -0.1
v 0.2 1.1 -0.3
v 0.2 1.1 -0.4
v 0.2 1.2 -0.1
v 0.2 1.2 -0.3
v 0.3 0.8 0.3
v 0.3 0.8 -0.3
v 0.3 1.1 0.3
v 0.3 1.1 0.2
v 0.3 1.1 0.1
v 0.3 1.1 -0.1
v 0.3 1.1 -0.3
v 0.3 1.2 0.2
v 0.3 1.2 0.1
v 0.3 1.3 0.2
v 0.3 1.3 0.1
v 0.3 1.3 0
v 0.3 1.3 -0.1
v 0.4 1.3 0.3
v 0.4 1.3 0.1
v 0.4 1.3 0
v 0.4 1.3 -0.1
v 0.4 1.3 -0.2
v 0.4 1.4 0.4
v 0.4 1.4 0.3
v 0.4 1.4 0.2
v 0.4 1.4 0.1
v 0.4 1.4 0
v 0.4 1.4 -0.1
v 0.4 1.4 -0.2
v 0.4 1.4 -0.3
v 0.4 1.5 0.4
v 0.4 1.5 0.3
v 0.4 1.5 -0.2
v 0.4 1.5 -0.3
v 0.5 1.4 0.3
v 0.5 1.4 0.2
v 0.5 1.4 -0.2
v 0.5 1.5 0.4
v 0.5 1.5 0.3
v 0.5 1.5 0.2
v 0.5 1.5 0
v 0.5 1.5 -0.1
v 0.5 1.5 -0.2
v 0.5 1.5 -0.3
v 0.5 1.6 0.4
v 0.5 1.6 0
v 0.5 1.6 -0.1
v 0.5 1.6 -0.3
v -0.6 1.5 0.4
v -0.6 1.6 0.4
v -0.5 1.4 0.4
v -0.5 1.5 0.4
v -0.5 1.6 0.4
v -0.4 1.4 0.4
v -0.4 1.5 0.4
v -0.3 0.8 0.4
v -0.3 1 0.4
v -0.2 0.7 0.4
v -0.2 0.8 0.4
v -0.2 0.9 0.4
v -0.2 1 0.4
v -0.2 1.1 0.4
v -0.1 0.9 0.4
v -0.1 1 0.4
v 0 0.9 0.4
v 0 1 0.4
v 0.1 0.7 0.4
v 0.1 0.8 0.4
v 0.1 0.9 0.4
v 0.1 1 0.4
v 0.1 1.1 0.4
v 0.2 0.8 0.4
v 0.2 1 0.4
v 0.3 1.4 0.4
v 0.3 1.5 0.4
v 0.4 1.4 0.4
v 0.4 1.5 0.4
v 0.4 1.6 0.4
v 0.5 1.5 0.4
v 0.5 1.6 0.4
v -0.6 1.4 0.3
v -0.6 1.5 0.3
v -0.5 1.3 0.3
v -0.5 1.4 0.3
v -0.5 1.5 0.3
v -0.5 1.6 0.3
v -0.4 0.8 0.3
v -0.4 1.1 0.3
v -0.4 1.3 0.3
v -0.4 1.4 0.3
v -0.4 1.5 0.3
v -0.4 1.6 0.3
v -0.3 0.7 0.3
v -0.3 0.8 0.3
v -0.3 1 0.3
v -0.3 1.3 0.3
v -0.3 1.4 0.3
v -0.2 0.7 0.3
v -0.2 0.8 0.3
v -0.2 1 0.3
v -0.2 1.1 0.3
v -0.2 1.2 0.3
v -0.1 0.6 0.3
v -0.1 0.7 0.3
v 0 0.6 0.3
v 0 0.7 0.3
v 0.1 0.7 0.3
v 0.1 0.8 0.3
v 0.1 1 0.3
v 0.1 1.1 0.3
v 0.1 1.2 0.3
v 0.2 0.7 0.3
v 0.2 0.8 0.3
v 0.2 1 0.3
v 0.2 1.3 0.3
v 0.2 1.4 0.3
v 0.3 0.8 0.3
v 0.3 1.1 0.3
v 0.3 1.4 0.3
v 0.3 1.5 0.3
v 0.3 1.6 0.3
v 0.4 1.3 0.3
v 0.4 1.4 0.3
v 0.4 1.5 0.3
v 0.4 1.6 0.3
v 0.5 1.4 0.3
v 0.5 1.5 0.3
v -0.4 1.1 0.2
v -0.4 1.2 0.2
v -0.4 1.3 0.2
v -0.3 1.1 0.2
v -0.3 1.2 0.2
v -0.3 1.3 0.2
v -0.2 0.6 0.2
v -0.2 0.7 0.2
v -0.2 1.2 0.2
v -0.2 1.3 0.2
v -0.1 0.6 0.2
v -0.1 0.7 0.2
v 0 0.6 0.2
v 0 0.7 0.2
v 0.1 0.6 0.2
v 0.1 0.7 0.2
v 0.1 1.2 0.2
v 0.1 1.3 0.2
v 0.2 1.1 0.2
v 0.2 1.2 0.2
v 0.2 1.3 0.2
v 0.3 1.1 0.2
v 0.3 1.2 0.2
v 0.3 1.3 0.2
v -0.1 1.3 0.1
v -0.1 1.4 0.1
v 0 1.3 0.1
v 0 1.4 0.1
v 0.1 1.1 0
v 0.1 1.2 0
v 0.2 1.1 0
v 0.2 1.2 0
v -0.3 1.1 -0.1
v -0.3 1.2 -0.1
v -0.2 1.1 -0.1
v -0.2 1.2 -0.1
v -0.4 1.1 -0.1
v -0.4 1.2 -0.1
v -0.4 1.3 -0.1
v -0.3 1.1 -0.1
v -0.3 1.2 -0.1
v -0.3 1.3 -0.1
v -0.1 1.3 -0.1
v -0.1 1.4 -0.1
v 0 1.3 -0.1
v 0 1.4 -0.1
v 0.2 1.1 -0.1
v 0.2 1.2 -0.1
v 0.2 1.3 -0.1
v 0.3 1.1 -0.1
v 0.3 1.3 -0.1
v -0.6 1.4 -0.2
v -0.6 1.5 -0.2
v -0.5 1.3 -0.2
v -0.5 1.4 -0.2
v -0.5 1.5 -0.2
v -0.4 1.4 -0.2
v -0.3 1.1 -0.2
v -0.3 1.2 -0.2
v -0.3 1.3 -0.2
v -0.3 1.4 -0.2
v -0.2 0.6 -0.2
v -0.2 0.7 -0.2
v -0.2 1.1 -0.2
v -0.2 1.2 -0.2
v -0.2 1.3 -0.2
v 0.1 0.6 -0.2
v 0.1 0.7 -0.2
v 0.1 1.2 -0.2
v 0.1 1.3 -0.2
v 0.2 1.3 -0.2
v 0.2 1.4 -0.2
v 0.3 1.3 -0.2
v 0.3 1.4 -0.2
v 0.4 1.3 -0.2
v 0.4 1.4 -0.2
v 0.4 1.5 -0.2
v 0.5 1.4 -0.2
v 0.5 1.5 -0.2
v -0.6 1.5 -0.3
v -0.6 1.6 -0.3
v -0.5 1.4 -0.3
v -0.5 1.5 -0.3
v -0.4 0.8 -0.3
v -0.4 1.1 -0.3
v -0.4 1.4 -0.3
v -0.4 1.6 -0.3
v -0.3 0.7 -0.3
v -0.3 0.8 -0.3
v -0.3 1.1 -0.3
v -0.2 1.1 -0.3
v -0.2 1.2 -0.3
v 0.2 0.7 -0.3
v 0.2 0.8 -0.3
v 0.2 1.1 -0.3
v 0.2 1.2 -0.3
v 0.3 0.8 -0.3
v 0.3 1.1 -0.3
v 0.3 1.4 -0.3
v 0.3 1.5 -0.3
v 0.3 1.6 -0.3
v 0.4 1.4 -0.3
v 0.4 1.5 -0.3
v 0.4 1.6 -0.3
v 0.5 1.5 -0.3
v 0.5 1.6 -0.3
v -0.3 0.8 -0.4
v -0.3 1.1 -0.4
v 0.2 0.8 -0.4
v 0.2 1.1 -0.4
v -0.1 0.6 0.3
v 0 0.6 0.3
v -0.2 0.6 0.2
v -0.1 0.6 0.2
v 0 0.6 0.2
v 0.1 0.6 0.2
v -0.2 0.6 -0.2
v 0.1 0.6 -0.2
v -0.2 0.7 0.4
v 0.1 0.7 0.4
v -0.3 0.7 0.3
v -0.2 0.7 0.3
v -0.1 0.7 0.3
v 0 0.7 0.3
v 0.1 0.7 0.3
v 0.2 0.7 0.3
v -0.2 0.7 0.2
v -0.1 0.7 0.2
v 0 0.7 0.2
v 0.1 0.7 0.2
v -0.2 0.7 -0.2
v 0.1 0.7 -0.2
v -0.3 0.7 -0.3
v 0.2 0.7 -0.3
v -0.3 0.8 0.4
v -0.2 0.8 0.4
v 0.1 0.8 0.4
v 0.2 0.8 0.4
v -0.4 0.8 0.3
v -0.3 0.8 0.3
v -0.2 0.8 0.3
v 0.1 0.8 0.3
v 0.2 0.8 0.3
v 0.3 0.8 0.3
v -0.4 0.8 -0.3
v -0.3 0.8 -0.3
v 0.2 0.8 -0.3
v 0.3 0.8 -0.3
v -0.3 0.8 -0.4
v 0.2 0.8 -0.4
v -0.5 1.3 0.3
v -0.4 1.3 0.3
v -0.3 1.3 0.3
v 0.2 1.3 0.3
v 0.4 1.3 0.3
v -0.4 1.3 0.2
v -0.3 1.3 0.2
v 0.2 1.3 0.2
v 0.3 1.3 0.2
v -0.5 1.3 0.1
v -0.4 1.3 0.1
v 0.3 1.3 0.1
v 0.4 1.3 0.1
v 0.3 1.3 0
v 0.4 1.3 0
v -0.5 1.3 -0.1
v -0.4 1.3 -0.1
v -0.3 1.3 -0.1
v 0.2 1.3 -0.1
v 0.3 1.3 -0.1
v 0.4 1.3 -0.1
v -0.5 1.3 -0.2
v -0.3 1.3 -0.2
v 0.2 1.3 -0.2
v 0.3 1.3 -0.2
v 0.4 1.3 -0.2
v -0.5 1.4 0.4
v -0.4 1.4 0.4
v 0.3 1.4 0.4
v 0.4 1.4 0.4
v -0.6 1.4 0.3
v -0.5 1.4 0.3
v -0.4 1.4 0.3
v 0.3 1.4 0.3
v 0.4 1.4 0.3
v 0.5 1.4 0.3
v 0.4 1.4 0.2
v 0.5 1.4 0.2
v -0.5 1.4 0.1
v 0.4 1.4 0.1
v 0.4 1.4 0
v -0.5 1.4 -0.1
v 0.4 1.4 -0.1
v -0.6 1.4 -0.2
v -0.5 1.4 -0.2
v -0.4 1.4 -0.2
v 0.3 1.4 -0.2
v 0.4 1.4 -0.2
v 0.5 1.4 -0.2
v -0.5 1.4 -0.3
v -0.4 1.4 -0.3
v 0.3 1.4 -0.3
v 0.4 1.4 -0.3
v -0.6 1.5 0.4
v -0.5 1.5 0.4
v 0.4 1.5 0.4
v 0.5 1.5 0.4
v -0.6 1.5 0.3
v -0.5 1.5 0.3
v 0.4 1.5 0.3
v 0.5 1.5 0.3
v -0.6 1.5 -0.2
v -0.5 1.5 -0.2
v 0.4 1.5 -0.2
v 0.5 1.5 -0.2
v -0.6 1.5 -0.3
v -0.5 1.5 -0.3
v 0.4 1.5 -0.3
v 0.5 1.5 -0.3
v -0.3 1 0.4
v -0.2 1 0.4
v 0.1 1 0.4
v 0.2 1 0.4
v -0.3 1 0.3
v -0.2 1 0.3
v 0.1 1 0.3
v 0.2 1 0.3
v -0.2 1.1 0.4
v 0.1 1.1 0.4
v -0.4 1.1 0.3
v -0.2 1.1 0.3
v 0.1 1.1 0.3
v 0.3 1.1 0.3
v -0.4 1.1 0.2
v -0.3 1.1 0.2
v 0.2 1.1 0.2
v 0.3 1.1 0.2
v -0.3 1.1 0.1
v 0.2 1.1 0.1
v -0.3 1.1 0
v 0.1 1.1 0
v 0.2 1.1 0
v -0.4 1.1 -0.1
v -0.3 1.1 -0.1
v -0.2 1.1 -0.1
v 0.2 1.1 -0.1
v 0.3 1.1 -0.1
v -0.3 1.1 -0.2
v -0.2 1.1 -0.2
v -0.4 1.1 -0.3
v -0.3 1.1 -0.3
v -0.2 1.1 -0.3
v 0.2 1.1 -0.3
v 0.3 1.1 -0.3
v -0.3 1.1 -0.4
v 0.2 1.1 -0.4
v -0.2 1.2 0.3
v 0.1 1.2 0.3
v -0.2 1.2 0.2
v 0.1 1.2 0.2
v 0.1 1.2 0
v 0.2 1.2 0
v -0.3 1.2 -0.1
v -0.2 1.2 -0.1
v 0.2 1.2 -0.1
v -0.3 1.2 -0.2
v -0.2 1.2 -0.2
v 0.1 1.2 -0.2
v -0.2 1.2 -0.3
v 0.2 1.2 -0.3
v -0.2 1.3 0.2
v 0.1 1.3 0.2
v -0.1 1.3 0.1
v 0 1.3 0.1
v -0.1 1.3 -0.1
v 0 1.3 -0.1
v -0.2 1.3 -0.2
v 0.1 1.3 -0.2
v -0.4 1.4 0.3
v -0.3 1.4 0.3
v 0.2 1.4 0.3
v 0.3 1.4 0.3
v -0.4 1.4 0.2
v -0.3 1.4 0.2
v -0.4 1.4 0.1
v -0.3 1.4 0.1
v -0.1 1.4 0.1
v 0 1.4 0.1
v -0.4 1.4 -0.1
v -0.3 1.4 -0.1
v -0.1 1.4 -0.1
v 0 1.4 -0.1
v -0.4 1.4 -0.2
v -0.3 1.4 -0.2
v 0.2 1.4 -0.2
v 0.3 1.4 -0.2
v -0.5 1.5 0.4
v -0.4 1.5 0.4
v 0.3 1.5 0.4
v 0.4 1.5 0.4
v -0.5 1.5 0.3
v -0.4 1.5 0.3
v 0.3 1.5 0.3
v 0.4 1.5 0.3
v -0.6 1.6 0.4
v -0.5 1.6 0.4
v 0.4 1.6 0.4
v 0.5 1.6 0.4
v -0.5 1.6 0.3
v -0.4 1.6 0.3
v 0.3 1.6 0.3
v 0.4 1.6 0.3
v -0.6 1.6 0.2
v -0.5 1.6 0.2
v 0.3 1.6 0.2
v 0.4 1.6 0.2
v -0.6 1.6 0.1
v -0.5 1.6 0.1
v -0.4 1.6 0.1
v 0.3 1.6 0.1
v 0.4 1.6 0.1
v -0.5 1.6 0
v -0.4 1.6 0
v 0.4 1.6 0
v 0.5 1.6 0
v -0.6 1.6 -0.1
v -0.5 1.6 -0.1
v 0.4 1.6 -0.1
v 0.5 1.6 -0.1
v -0.6 1.6 -0.2
v -0.5 1.6 -0.2
v 0.3 1.6 -0.2
v 0.4 1.6 -0.2
v -0.6 1.6 -0.3
v -0.4 1.6 -0.3
v 0.3 1.6 -0.3
v 0.4 1.6 -0.3
v 0.5 1.6 -0.3

# faces
f 4/5/1 2/5/1 1/5/1
f 5/5/1 2/5/1 4/5/1
f 6/5/1 2/5/1 5/5/1
f 7/5/1 2/5/1 6/5/1
f 8/5/1 2/5/1 7/5/1
f 10/5/1 4/5/1 3/5/1
f 10/5/1 5/5/1 4/5/1
f 11/1/1 6/1/1 5/1/1
f 11/5/1 5/5/1 10/5/1
f 12/5/1 7/5/1 6/5/1
f 12/1/1 6/1/1 11/1/1
f 13/1/1 8/1/1 7/1/1
f 13/5/1 7/5/1 12/5/1
f 14/5/1 9/5/1 8/5/1
f 14/1/1 8/1/1 13/1/1
f 15/5/1 9/5/1 14/5/1
f 21/1/1 17/1/1 16/1/1
f 22/5/1 18/5/1 17/5/1
f 22/1/1 17/1/1 21/1/1
f 23/1/1 19/1/1 18/1/1
f 23/5/1 18/5/1 22/5/1
f 24/1/1 19/1/1 23/1/1
f 26/5/1 21/5/1 20/5/1
f 27/5/1 21/5/1 26/5/1
f 28/5/1 25/5/1 24/5/1
f 29/5/1 25/5/1 28/5/1
f 32/6/1 31/6/1 30/6/1
f 33/6/1 31/6/1 32/6/1
f 34/6/1 31/6/1 33/6/1
f 35/6/1 31/6/1 34/6/1
f 36/6/1 31/6/1 35/6/1
f 37/6/1 31/6/1 36/6/1
f 38/1/1 34/1/1 33/1/1
f 39/5/1 35/5/1 34/5/1
f 39/1/1 34/1/1 38/1/1
f 40/1/1 36/1/1 35/1/1
f 40/5/1 35/5/1 39/5/1
f 41/1/1 36/1/1 40/1/1
f 42/5/1 39/5/1 38/5/1
f 42/5/1 40/5/1 39/5/1
f 42/5/1 41/5/1 40/5/1
f 43/5/1 41/5/1 42/5/1
f 44/5/1 41/5/1 43/5/1
f 48/6/1 46/6/1 45/6/1
f 49/6/1 46/6/1 48/6/1
f 51/4/1 48/4/1 47/4/1
f 52/4/1 48/4/1 51/4/1
f 55/6/1 50/6/1 49/6/1
f 56/6/1 50/6/1 55/6/1
f 57/6/1 54/6/1 53/6/1
f 58/6/1 54/6/1 57/6/1
f 63/6/1 60/6/1 59/6/1
f 64/6/1 60/6/1 63/6/1
f 65/4/1 62/4/1 61/4/1
f 66/4/1 62/4/1 65/4/1
f 69/4/1 68/4/1 67/4/1
f 70/4/1 68/4/1 69/4/1
f 74/6/1 71/6/1 70/6/1
f 75/6/1 71/6/1 74/6/1
f 76/6/1 71/6/1 75/6/1
f 77/6/1 73/6/1 72/6/1
f 78/6/1 73/6/1 77/6/1
f 79/6/1 76/6/1 75/6/1
f 79/6/1 77/6/1 76/6/1
f 80/6/1 77/6/1 79/6/1
f 83/6/1 82/6/1 81/6/1
f 84/6/1 82/6/1 83/6/1
f 87/6/1 86/6/1 85/6/1
f 88/6/1 86/6/1 87/6/1
f 92/1/1 90/1/1 89/1/1
f 93/5/1 91/5/1 90/5/1
f 93/1/1 90/1/1 92/1/1
f 94/5/1 91/5/1 93/5/1
f 97/5/1 93/5/1 92/5/1
f 97/5/1 95/5/1 94/5/1
f 97/5/1 94/5/1 93/5/1
f 98/5/1 95/5/1 97/5/1
f 100/5/1 97/5/1 96/5/1
f 100/5/1 99/5/1 98/5/1
f 100/5/1 98/5/1 97/5/1
f 101/5/1 99/5/1 100/5/1
f 106/1/1 103/1/1 102/1/1
f 107/5/1 105/5/1 104/5/1
f 107/1/1 103/1/1 106/1/1
f 107/5/1 104/5/1 103/5/1
f 108/5/1 105/5/1 107/5/1
f 109/5/1 105/5/1 108/5/1
f 110/5/1 105/5/1 109/5/1
f 111/5/1 105/5/1 110/5/1
f 112/5/1 108/5/1 107/5/1
f 113/1/1 109/1/1 108/1/1
f 113/5/1 108/5/1 112/5/1
f 114/5/1 110/5/1 109/5/1
f 114/1/1 109/1/1 113/1/1
f 115/1/1 111/1/1 110/1/1
f 115/5/1 110/5/1 114/5/1
f 116/1/1 111/1/1 115/1/1
f 119/5/1 118/5/1 117/5/1
f 120/5/1 118/5/1 119/5/1
f 121/5/2 122/5/2 123/5/2
f 123/5/2 122/5/2 124/5/2
f 125/5/2 126/5/2 132/5/2
f 130/5/2 131/5/2 132/5/2
f 129/5/2 130/5/2 132/5/2
f 128/5/2 129/5/2 132/5/2
f 127/5/2 128/5/2 132/5/2
f 126/5/2 127/5/2 132/5/2
f 132/5/2 131/5/2 133/5/2
f 133/5/2 131/5/2 134/5/2
f 134/5/2 131/5/2 135/5/2
f 133/5/2 134/5/2 136/5/2
f 134/1/2 135/1/2 137/1/2
f 136/5/2 134/5/2 137/5/2
f 135/5/2 131/5/2 138/5/2
f 137/1/2 135/1/2 138/1/2
f 138/5/2 131/5/2 139/5/2
f 140/1/2 141/1/2 144/1/2
f 141/5/2 142/5/2 145/5/2
f 144/1/2 141/1/2 145/1/2
f 142/1/2 143/1/2 146/1/2
f 145/5/2 142/5/2 146/5/2
f 146/1/2 143/1/2 147/1/2
f 144/5/2 145/5/2 149/5/2
f 145/5/2 146/5/2 149/5/2
f 146/5/2 147/5/2 149/5/2
f 149/5/2 147/5/2 150/5/2
f 150/5/2 147/5/2 151/5/2
f 148/5/2 149/5/2 153/5/2
f 149/1/2 150/1/2 154/1/2
f 153/5/2 149/5/2 154/5/2
f 150/5/2 151/5/2 155/5/2
f 154/1/2 150/1/2 155/1/2
f 151/1/2 152/1/2 156/1/2
f 155/5/2 151/5/2 156/5/2
f 156/1/2 152/1/2 157/1/2
f 158/6/2 159/6/2 160/6/2
f 160/6/2 159/6/2 161/6/2
f 162/6/2 163/6/2 164/6/2
f 164/6/2 163/6/2 165/6/2
f 166/6/2 167/6/2 170/6/2
f 170/6/2 167/6/2 171/6/2
f 168/4/2 169/4/2 172/4/2
f 172/4/2 169/4/2 173/4/2
f 174/4/2 175/4/2 176/4/2
f 176/4/2 175/4/2 177/4/2
f 177/6/2 178/6/2 179/6/2
f 179/6/2 178/6/2 180/6/2
f 180/6/2 178/6/2 181/6/2
f 181/6/2 182/6/2 183/6/2
f 180/6/2 181/6/2 183/6/2
f 183/6/2 182/6/2 184/6/2
f 185/6/2 186/6/2 188/6/2
f 188/6/2 186/6/2 189/6/2
f 187/4/2 188/4/2 191/4/2
f 191/4/2 188/4/2 192/4/2
f 189/6/2 190/6/2 194/6/2
f 194/6/2 190/6/2 195/6/2
f 193/6/2 194/6/2 196/6/2
f 196/6/2 194/6/2 197/6/2
f 198/6/2 199/6/2 200/6/2
f 200/6/2 199/6/2 201/6/2
f 201/6/2 199/6/2 202/6/2
f 202/6/2 199/6/2 203/6/2
f 203/6/2 199/6/2 204/6/2
f 201/1/2 202/1/2 205/1/2
f 202/5/2 203/5/2 206/5/2
f 205/1/2 202/1/2 206/1/2
f 205/5/2 206/5/2 207/5/2
f 206/5/2 203/5/2 208/5/2
f 207/5/2 206/5/2 208/5/2
f 208/5/2 203/5/2 209/5/2
f 209/5/2 203/5/2 210/5/2
f 211/5/2 212/5/2 217/5/2
f 217/5/2 212/5/2 218/5/2
f 212/1/2 213/1/2 219/1/2
f 218/5/2 212/5/2 219/5/2
f 213/5/2 214/5/2 220/5/2
f 219/1/2 213/1/2 220/1/2
f 214/1/2 215/1/2 221/1/2
f 220/5/2 214/5/2 221/5/2
f 221/1/2 215/1/2 222/1/2
f 216/1/2 217/1/2 224/1/2
f 224/1/2 217/1/2 225/1/2
f 222/5/2 223/5/2 226/5/2
f 226/5/2 223/5/2 227/5/2
f 228/1/2 229/1/2 232/1/2
f 229/5/2 230/5/2 233/5/2
f 232/1/2 229/1/2 233/1/2
f 233/5/2 230/5/2 234/5/2
f 234/5/2 230/5/2 235/5/2
f 235/5/2 230/5/2 236/5/2
f 231/5/2 232/5/2 238/5/2
f 232/5/2 233/5/2 238/5/2
f 233/5/2 234/5/2 238/5/2
f 234/1/2 235/1/2 239/1/2
f 238/5/2 234/5/2 239/5/2
f 236/5/2 237/5/2 240/5/2
f 239/1/2 235/1/2 240/1/2
f 235/5/2 236/5/2 240/5/2
f 240/5/2 237/5/2 241/5/2
f 245/5/3 243/5/3 242/5/3
f 246/5/3 243/5/3 245/5/3
f 247/5/3 245/5/3 244/5/3
f 248/5/3 245/5/3 247/5/3
f 252/4/3 250/4/3 249/4/3
f 253/4/3 250/4/3 252/4/3
f 254/4/3 250/4/3 253/4/3
f 256/4/3 252/4/3 251/4/3
f 256/4/3 253/4/3 252/4/3
f 256/2/3 254/2/3 253/2/3
f 257/4/3 255/4/3 254/4/3
f 257/2/3 254/2/3 256/2/3
f 258/4/3 256/4/3 251/4/3
f 258/4/3 257/4/3 256/4/3
f 259/4/3 255/4/3 257/4/3
f 259/4/3 257/4/3 258/4/3
f 260/4/3 258/4/3 251/4/3
f 261/4/3 258/4/3 260/4/3
f 262/2/3 259/2/3 258/2/3
f 262/4/3 258/4/3 261/4/3
f 263/4/3 255/4/3 259/4/3
f 263/2/3 259/2/3 262/2/3
f 264/4/3 255/4/3 263/4/3
f 265/4/3 262/4/3 261/4/3
f 265/4/3 263/4/3 262/4/3
f 266/4/3 263/4/3 265/4/3
f 269/1/3 268/1/3 267/1/3
f 270/1/3 268/1/3 269/1/3
f 272/5/3 271/5/3 270/5/3
f 273/5/3 271/5/3 272/5/3
f 277/5/3 275/5/3 274/5/3
f 278/5/3 275/5/3 277/5/3
f 282/1/3 277/1/3 276/1/3
f 283/1/3 277/1/3 282/1/3
f 284/5/3 279/5/3 278/5/3
f 285/5/3 279/5/3 284/5/3
f 287/6/3 281/6/3 280/6/3
f 288/6/3 281/6/3 287/6/3
f 289/5/3 283/5/3 282/5/3
f 290/5/3 283/5/3 289/5/3
f 291/6/3 287/6/3 286/6/3
f 292/6/3 287/6/3 291/6/3
f 293/6/3 281/6/3 288/6/3
f 294/6/3 281/6/3 293/6/3
f 298/6/3 297/6/3 296/6/3
f 299/6/3 297/6/3 298/6/3
f 303/6/3 295/6/3 294/6/3
f 304/6/3 295/6/3 303/6/3
f 305/6/3 301/6/3 300/6/3
f 306/6/3 301/6/3 305/6/3
f 307/6/3 303/6/3 302/6/3
f 310/6/3 307/6/3 306/6/3
f 311/6/3 303/6/3 307/6/3
f 311/6/3 307/6/3 310/6/3
f 312/5/3 309/5/3 308/5/3
f 315/5/3 312/5/3 308/5/3
f 316/5/3 312/5/3 315/5/3
f 317/5/3 314/5/3 313/5/3
f 318/5/3 314/5/3 317/5/3
f 319/1/3 317/1/3 316/1/3
f 320/1/3 317/1/3 319/1/3
f 324/1/3 322/1/3 321/1/3
f 325/5/3 323/5/3 322/5/3
f 325/1/3 322/1/3 324/1/3
f 326/5/3 323/5/3 325/5/3
f 331/6/3 328/6/3 327/6/3
f 332/6/3 328/6/3 331/6/3
f 335/6/3 334/6/3 333/6/3
f 336/6/3 334/6/3 335/6/3
f 337/6/3 330/6/3 329/6/3
f 338/6/3 330/6/3 337/6/3
f 342/1/3 340/1/3 339/1/3
f 343/5/3 341/5/3 340/5/3
f 343/1/3 340/1/3 342/1/3
f 344/5/3 341/5/3 343/5/3
f 347/6/3 346/6/3 345/6/3
f 348/6/3 346/6/3 347/6/3
f 351/6/3 350/6/3 349/6/3
f 352/6/3 350/6/3 351/6/3
f 355/6/3 354/6/3 353/6/3
f 356/6/3 354/6/3 355/6/3
f 357/1/4 358/1/4 360/1/4
f 358/5/4 359/5/4 361/5/4
f 360/1/4 358/1/4 361/1/4
f 361/5/4 359/5/4 362/5/4
f 363/6/4 364/6/4 365/6/4
f 365/6/4 364/6/4 366/6/4
f 367/5/4 368/5/4 370/5/4
f 368/5/4 369/5/4 370/5/4
f 370/5/4 369/5/4 371/5/4
f 372/5/4 373/5/4 375/5/4
f 375/5/4 373/5/4 376/5/4
f 374/1/4 375/1/4 377/1/4
f 374/1/4 377/1/4 380/1/4
f 380/1/4 377/1/4 381/1/4
f 378/6/4 379/6/4 384/6/4
f 384/6/4 379/6/4 385/6/4
f 382/6/4 383/6/4 387/6/4
f 387/6/4 383/6/4 388/6/4
f 385/6/4 386/6/4 389/6/4
f 389/6/4 386/6/4 390/6/4
f 391/5/4 392/5/4 393/5/4
f 393/5/4 392/5/4 394/5/4
f 393/1/4 394/1/4 395/1/4
f 395/1/4 394/1/4 396/1/4
f 396/5/4 397/5/4 398/5/4
f 398/5/4 397/5/4 399/5/4
f 400/5/4 401/5/4 403/5/4
f 402/5/4 403/5/4 406/5/4
f 403/5/4 401/5/4 407/5/4
f 406/5/4 403/5/4 407/5/4
f 404/6/4 405/6/4 409/6/4
f 409/6/4 405/6/4 410/6/4
f 408/6/4 409/6/4 413/6/4
f 413/6/4 409/6/4 414/6/4
f 411/6/4 412/6/4 415/6/4
f 415/6/4 412/6/4 416/6/4
f 414/6/4 415/6/4 417/6/4
f 417/6/4 415/6/4 418/6/4
f 419/5/4 420/5/4 422/5/4
f 420/1/4 421/1/4 423/1/4
f 422/5/4 420/5/4 423/5/4
f 423/1/4 421/1/4 424/1/4
f 423/5/4 424/5/4 425/5/4
f 425/5/4 424/5/4 426/5/4
f 427/6/4 428/6/4 429/6/4
f 429/6/4 428/6/4 430/6/4
f 434/6/5 432/6/5 431/6/5
f 435/6/5 432/6/5 434/6/5
f 437/6/5 434/6/5 433/6/5
f 437/6/5 436/6/5 435/6/5
f 437/6/5 435/6/5 434/6/5
f 438/6/5 436/6/5 437/6/5
f 442/4/5 440/4/5 439/4/5
f 443/4/5 440/4/5 442/4/5
f 444/4/5 440/4/5 443/4/5
f 445/4/5 440/4/5 444/4/5
f 447/6/5 442/6/5 441/6/5
f 447/6/5 443/6/5 442/6/5
f 448/6/5 443/6/5 447/6/5
f 449/6/5 446/6/5 445/6/5
f 449/6/5 445/6/5 444/6/5
f 450/6/5 446/6/5 449/6/5
f 451/6/5 447/6/5 441/6/5
f 452/6/5 446/6/5 450/6/5
f 453/6/5 451/6/5 441/6/5
f 453/6/5 452/6/5 451/6/5
f 454/6/5 446/6/5 452/6/5
f 454/6/5 452/6/5 453/6/5
f 460/4/5 456/4/5 455/4/5
f 461/4/5 456/4/5 460/4/5
f 462/4/5 458/4/5 457/4/5
f 463/4/5 458/4/5 462/4/5
f 465/6/5 460/6/5 459/6/5
f 466/6/5 460/6/5 465/6/5
f 467/6/5 464/6/5 463/6/5
f 468/6/5 464/6/5 467/6/5
f 469/6/5 467/6/5 466/6/5
f 470/6/5 467/6/5 469/6/5
f 476/1/5 472/1/5 471/1/5
f 476/5/5 473/5/5 472/5/5
f 477/5/5 473/5/5 476/5/5
f 478/5/5 475/5/5 474/5/5
f 479/5/5 475/5/5 478/5/5
f 480/1/5 476/1/5 471/1/5
f 481/1/5 476/1/5 480/1/5
f 482/5/5 475/5/5 479/5/5
f 483/5/5 475/5/5 482/5/5
f 484/1/5 483/1/5 482/1/5
f 485/1/5 483/1/5 484/1/5
f 486/5/5 481/5/5 480/5/5
f 487/5/5 481/5/5 486/5/5
f 490/5/5 485/5/5 484/5/5
f 491/5/5 485/5/5 490/5/5
f 492/1/5 488/1/5 487/1/5
f 492/1/5 487/1/5 486/1/5
f 493/1/5 488/1/5 492/1/5
f 494/5/5 490/5/5 489/5/5
f 495/1/5 491/1/5 490/1/5
f 495/5/5 490/5/5 494/5/5
f 496/1/5 491/1/5 495/1/5
f 502/5/5 498/5/5 497/5/5
f 503/5/5 498/5/5 502/5/5
f 504/1/5 500/1/5 499/1/5
f 505/1/5 500/1/5 504/1/5
f 507/1/5 506/1/5 505/1/5
f 508/1/5 506/1/5 507/1/5
f 509/5/5 502/5/5 501/5/5
f 510/5/5 508/5/5 507/5/5
f 511/5/5 508/5/5 510/5/5
f 512/5/5 509/5/5 501/5/5
f 513/5/5 508/5/5 511/5/5
f 514/5/5 512/5/5 501/5/5
f 515/5/5 512/5/5 514/5/5
f 518/5/5 508/5/5 513/5/5
f 519/5/5 508/5/5 518/5/5
f 520/5/5 516/5/5 515/5/5
f 521/5/5 516/5/5 520/5/5
f 522/5/5 518/5/5 517/5/5
f 523/5/5 518/5/5 522/5/5
f 528/5/5 525/5/5 524/5/5
f 529/5/5 525/5/5 528/5/5
f 530/5/5 527/5/5 526/5/5
f 531/5/5 527/5/5 530/5/5
f 536/5/5 533/5/5 532/5/5
f 537/5/5 533/5/5 536/5/5
f 538/5/5 535/5/5 534/5/5
f 539/5/5 535/5/5 538/5/5
f 540/4/6 541/4/6 544/4/6
f 544/4/6 541/4/6 545/4/6
f 542/4/6 543/4/6 546/4/6
f 546/4/6 543/4/6 547/4/6
f 548/4/6 549/4/6 551/4/6
f 551/4/6 549/4/6 552/4/6
f 550/6/6 551/6/6 554/6/6
f 554/6/6 551/6/6 555/6/6
f 552/6/6 553/6/6 556/6/6
f 556/6/6 553/6/6 557/6/6
f 555/6/6 551/6/6 558/6/6
f 552/6/6 556/6/6 559/6/6
f 558/6/6 551/6/6 560/6/6
f 552/6/6 559/6/6 561/6/6
f 561/6/6 559/6/6 562/6/6
f 560/6/6 551/6/6 564/6/6
f 564/6/6 551/6/6 565/6/6
f 563/6/6 564/6/6 568/6/6
f 563/6/6 568/6/6 570/6/6
f 568/6/6 569/6/6 570/6/6
f 570/6/6 569/6/6 571/6/6
f 571/6/6 569/6/6 572/6/6
f 566/6/6 567/6/6 573/6/6
f 573/6/6 567/6/6 574/6/6
f 571/6/6 572/6/6 575/6/6
f 572/6/6 573/6/6 575/6/6
f 575/6/6 573/6/6 576/6/6
f 577/6/6 578/6/6 579/6/6
f 579/6/6 578/6/6 580/6/6
f 581/6/6 582/6/6 585/6/6
f 583/6/6 584/6/6 586/6/6
f 586/6/6 584/6/6 587/6/6
f 581/6/6 585/6/6 588/6/6
f 587/6/6 588/6/6 589/6/6
f 588/6/6 585/6/6 590/6/6
f 589/6/6 588/6/6 590/6/6
f 591/6/6 592/6/6 593/6/6
f 593/6/6 592/6/6 594/6/6
f 591/6/6 593/6/6 595/6/6
f 594/6/6 592/6/6 596/6/6
f 591/6/6 595/6/6 597/6/6
f 595/6/6 596/6/6 597/6/6
f 596/6/6 592/6/6 598/6/6
f 597/6/6 596/6/6 598/6/6
f 599/5/6 600/5/6 603/5/6
f 603/5/6 600/5/6 604/5/6
f 603/1/6 604/1/6 605/1/6
f 605/1/6 604/1/6 606/1/6
f 605/5/6 606/5/6 609/5/6
f 609/5/6 606/5/6 610/5/6
f 607/6/6 608/6/6 611/6/6
f 611/6/6 608/6/6 612/6/6
f 609/1/6 610/1/6 613/1/6
f 613/1/6 610/1/6 614/1/6
f 601/5/6 602/5/6 615/5/6
f 615/5/6 602/5/6 616/5/6
f 617/5/6 618/5/6 621/5/6
f 621/5/6 618/5/6 622/5/6
f 619/1/6 620/1/6 623/1/6
f 623/1/6 620/1/6 624/1/6
f 625/5/6 626/5/6 629/5/6
f 627/5/6 628/5/6 632/5/6
f 629/5/6 630/5/6 633/5/6
f 625/5/6 629/5/6 633/5/6
f 633/5/6 630/5/6 634/5/6
f 631/5/6 632/5/6 635/5/6
f 632/5/6 628/5/6 636/5/6
f 635/5/6 632/5/6 636/5/6
f 633/1/6 634/1/6 637/1/6
f 634/5/6 630/5/6 638/5/6
f 637/1/6 634/1/6 638/1/6
f 638/5/6 630/5/6 639/5/6
f 635/1/6 636/1/6 640/1/6
f 636/5/6 628/5/6 641/5/6
f 640/1/6 636/1/6 641/1/6
f 638/1/6 639/1/6 642/1/6
f 637/5/6 638/5/6 642/5/6
f 642/1/6 639/1/6 643/1/6
f 641/5/6 628/5/6 644/5/6
f 640/5/6 641/5/6 644/5/6
f 644/5/6 628/5/6 645/5/6
f 642/5/6 643/5/6 646/5/6
f 637/5/6 642/5/6 646/5/6
f 646/5/6 643/5/6 647/5/6
f 644/1/6 645/1/6 648/1/6
f 640/5/6 644/5/6 648/5/6
f 648/1/6 645/1/6 649/1/6
f 646/1/6 647/1/6 650/1/6
f 647/5/6 643/5/6 651/5/6
f 650/1/6 647/1/6 651/1/6
f 640/5/6 648/5/6 652/5/6
f 648/5/6 649/5/6 652/5/6
f 652/5/6 649/5/6 653/5/6
f 650/5/6 651/5/6 654/5/6
f 651/5/6 643/5/6 655/5/6
f 654/5/6 651/5/6 655/5/6
f 652/1/6 653/1/6 656/1/6
f 653/5/6 649/5/6 657/5/6
f 656/1/6 653/1/6 657/1/6
f 657/5/6 649/5/6 658/5/6
