[gd_scene load_steps=2 format=3 uid="uid://ji2g77xcoler"]

[ext_resource type="Script" path="res://components/_debug/values/value_label.gd" id="1_v0gny"]

[node name="ValueLabel" type="HBoxContainer"]
anchors_preset = 10
anchor_right = 1.0
offset_bottom = 26.0
grow_horizontal = 2
theme_override_constants/separation = 0
script = ExtResource("1_v0gny")

[node name="LabelLabel" type="Label" parent="."]
unique_name_in_owner = true
layout_mode = 2
theme_override_colors/font_color = Color(1, 1, 1, 1)
text = "foo"

[node name="SeparatorLabel" type="Label" parent="."]
layout_mode = 2
text = ": "

[node name="ValueLabel" type="Label" parent="."]
unique_name_in_owner = true
layout_mode = 2
size_flags_horizontal = 3
theme_override_colors/font_color = Color(0.917647, 0.917647, 0.917647, 1)
text = "bar"
