[gd_resource type="Resource" script_class="Island" load_steps=2 format=3 uid="uid://dbhkhtmcqpwyb"]

[ext_resource type="Script" path="res://autoloads/data/classes/island.gd" id="1_84kq5"]

[resource]
script = ExtResource("1_84kq5")
id = 3
label = "Desert Island"
has_items = Array[int]([6, 5])
