[gd_resource type="Resource" script_class="Island" load_steps=2 format=3 uid="uid://bbem65hcpn24f"]

[ext_resource type="Script" path="res://autoloads/data/classes/island.gd" id="1_81nqo"]

[resource]
script = ExtResource("1_81nqo")
id = 6
label = "Final Island"
