[gd_resource type="Resource" script_class="Island" load_steps=2 format=3 uid="uid://htuojo8oxuxn"]

[ext_resource type="Script" path="res://autoloads/data/classes/island.gd" id="1_vfx6d"]

[resource]
script = ExtResource("1_vfx6d")
id = 4
label = "Juicy Island"
has_items = Array[int]([7, 8])
