# MagicaVoxel @ Ephtracy

# group
o 

# material
mtllib redpanda.mtl
usemtl palette

# normals
vn -1 0 0
vn 1 0 0
vn 0 0 1
vn 0 0 -1
vn 0 -1 0
vn 0 1 0

# texcoords
vt 0.306641 0.5
vt 0.876953 0.5
vt 0.908203 0.5
vt 0.912109 0.5
vt 0.939453 0.5
vt 0.943359 0.5
vt 0.970703 0.5
vt 0.974609 0.5

# verts
v -0.5 0 0.5
v -0.5 0 0.1
v -0.5 0 -0.6
v -0.5 0 -0.7
v -0.5 0.5 0.1
v -0.5 0.5 -0.6
v -0.5 0.7 -0.7
v -0.5 0.7 -0.9
v -0.5 0.8 0.6
v -0.5 0.8 0.5
v -0.5 0.8 -0.9
v -0.5 0.9 0.6
v -0.5 0.9 -0.9
v -0.5 1.4 -1.2
v -0.5 1.4 -1.4
v -0.5 1.5 -1.2
v -0.5 1.5 -1.4
v -0.4 0 0.6
v -0.4 0 0.5
v -0.4 0 0.1
v -0.4 0 0
v -0.4 0 -0.5
v -0.4 0 -0.6
v -0.4 0 -0.7
v -0.4 0 -0.8
v -0.4 0.4 0.6
v -0.4 0.4 0.5
v -0.4 0.4 0
v -0.4 0.4 -0.5
v -0.4 0.5 0.1
v -0.4 0.5 -0.6
v -0.4 0.6 -0.8
v -0.4 0.6 -0.9
v -0.4 0.7 0.7
v -0.4 0.7 0.5
v -0.4 0.7 -0.7
v -0.4 0.7 -0.9
v -0.4 0.8 0.7
v -0.4 0.8 0.6
v -0.4 0.8 0.5
v -0.4 0.8 -0.9
v -0.4 0.8 -1
v -0.4 0.9 0.6
v -0.4 0.9 0.5
v -0.4 0.9 -0.9
v -0.4 0.9 -1
v -0.4 1 0.6
v -0.4 1 0.5
v -0.4 1 -1
v -0.4 1.1 -1
v -0.4 1.1 -1.6
v -0.4 1.4 -1
v -0.4 1.4 -1.2
v -0.4 1.4 -1.4
v -0.4 1.4 -1.5
v -0.4 1.4 -1.6
v -0.4 1.5 -1.2
v -0.4 1.5 -1.4
v -0.4 1.5 -1.5
v -0.4 1.7 -1.2
v -0.4 1.7 -1.4
v -0.3 0.4 0.6
v -0.3 0.4 0.5
v -0.3 0.6 0.7
v -0.3 0.6 0.6
v -0.3 0.6 0.5
v -0.3 0.7 0.8
v -0.3 0.7 0.7
v -0.3 0.7 0.5
v -0.3 0.8 0.8
v -0.3 0.8 0.7
v -0.3 0.8 0.6
v -0.3 0.9 0.7
v -0.3 0.9 0.6
v -0.3 1 0.6
v -0.3 1 0.5
v -0.3 1 -1
v -0.3 1 -1.6
v -0.3 1.1 0.6
v -0.3 1.1 -1
v -0.3 1.1 -1.6
v -0.3 1.1 -1.7
v -0.3 1.1 -1.8
v -0.3 1.2 -1.6
v -0.3 1.2 -1.7
v -0.3 1.2 -1.8
v -0.3 1.4 -1
v -0.3 1.4 -1.2
v -0.3 1.4 -1.5
v -0.3 1.4 -1.6
v -0.3 1.5 -1
v -0.3 1.5 -1.2
v -0.3 1.5 -1.4
v -0.3 1.5 -1.5
v -0.3 1.5 -1.6
v -0.3 1.6 -1.4
v -0.3 1.6 -1.5
v -0.3 1.7 -1.2
v -0.3 1.7 -1.4
v -0.3 1.8 -1.2
v -0.3 1.8 -1.4
v -0.2 0.5 0.7
v -0.2 0.5 0.6
v -0.2 0.6 2.7
v -0.2 0.6 2.5
v -0.2 0.6 0.8
v -0.2 0.6 0.7
v -0.2 0.6 0.6
v -0.2 0.7 2.7
v -0.2 0.7 2.6
v -0.2 0.7 2.5
v -0.2 0.7 1.9
v -0.2 0.7 1.7
v -0.2 0.7 1.2
v -0.2 0.7 1
v -0.2 0.7 0.8
v -0.2 0.7 0.7
v -0.2 0.7 0.6
v -0.2 0.8 2.6
v -0.2 0.8 2.5
v -0.2 0.8 0.8
v -0.2 0.8 0.7
v -0.2 0.8 0.6
v -0.2 0.9 2.5
v -0.2 0.9 1.9
v -0.2 0.9 1.7
v -0.2 0.9 1.2
v -0.2 0.9 1
v -0.2 0.9 0.7
v -0.2 0.9 0.6
v -0.2 0.9 -1
v -0.2 0.9 -1.6
v -0.2 1 -1
v -0.2 1 -1.6
v -0.2 1 -1.8
v -0.2 1 -1.9
v -0.2 1.1 0.7
v -0.2 1.1 0.6
v -0.2 1.1 0.5
v -0.2 1.1 -0.9
v -0.2 1.1 -1.6
v -0.2 1.1 -1.7
v -0.2 1.1 -1.8
v -0.2 1.2 0.6
v -0.2 1.2 0.5
v -0.2 1.2 -0.9
v -0.2 1.2 -1.6
v -0.2 1.2 -1.7
v -0.2 1.2 -1.8
v -0.2 1.2 -1.9
v -0.2 1.3 -1.6
v -0.2 1.3 -1.7
v -0.2 1.4 -1.6
v -0.2 1.4 -1.7
v -0.2 1.6 -1.4
v -0.2 1.6 -1.5
v -0.2 1.7 -1.4
v -0.2 1.7 -1.5
v -0.2 1.8 -1.2
v -0.2 1.8 -1.4
v -0.2 1.9 -1.2
v -0.2 1.9 -1.4
v -0.1 0.4 2.8
v -0.1 0.4 2.6
v -0.1 0.4 0.7
v -0.1 0.4 0.6
v -0.1 0.5 2.8
v -0.1 0.5 2.6
v -0.1 0.5 2.5
v -0.1 0.5 0.8
v -0.1 0.5 0.7
v -0.1 0.5 0.6
v -0.1 0.6 2.8
v -0.1 0.6 2.7
v -0.1 0.6 2.5
v -0.1 0.6 1.9
v -0.1 0.6 1.7
v -0.1 0.6 1.2
v -0.1 0.6 1
v -0.1 0.6 0.8
v -0.1 0.6 0.7
v -0.1 0.7 2.5
v -0.1 0.7 1.9
v -0.1 0.7 1.7
v -0.1 0.7 1.2
v -0.1 0.7 1
v -0.1 0.7 0.8
v -0.1 0.8 -1
v -0.1 0.8 -1.6
v -0.1 0.9 2.4
v -0.1 0.9 1.9
v -0.1 0.9 1.7
v -0.1 0.9 1.2
v -0.1 0.9 1
v -0.1 0.9 0.7
v -0.1 0.9 -1
v -0.1 0.9 -1.6
v -0.1 0.9 -1.8
v -0.1 0.9 -1.9
v -0.1 1 2.4
v -0.1 1 1.9
v -0.1 1 1.7
v -0.1 1 1.2
v -0.1 1 1
v -0.1 1 0.8
v -0.1 1 -1.6
v -0.1 1 -1.8
v -0.1 1 -1.9
v -0.1 1 -2
v -0.1 1.1 0.8
v -0.1 1.1 0.7
v -0.1 1.1 0.6
v -0.1 1.2 0.7
v -0.1 1.2 0.6
v -0.1 1.2 0.4
v -0.1 1.2 -0.8
v -0.1 1.2 -1.9
v -0.1 1.2 -2
v -0.1 1.3 0.4
v -0.1 1.3 -0.8
v 0 0.4 0.8
v 0 0.4 0.7
v 0 0.5 2.5
v 0 0.5 2
v 0 0.5 1.9
v 0 0.5 1.7
v 0 0.5 1.2
v 0 0.5 1
v 0 0.5 0.8
v 0 0.5 0.7
v 0 0.6 2.5
v 0 0.6 2
v 0 0.6 1.9
v 0 0.6 1.7
v 0 0.6 1.2
v 0 0.6 1
v 0 0.6 0.8
v 0 0.8 -1.6
v 0 0.8 -1.8
v 0 0.8 -1.9
v 0 0.9 -1.6
v 0 0.9 -1.8
v 0 0.9 -1.9
v 0 0.9 -2
v 0 1 2.3
v 0 1 1.9
v 0 1 1.7
v 0 1 1.2
v 0 1 1
v 0 1 0.8
v 0 1 -1.9
v 0 1 -2
v 0 1.1 2.3
v 0 1.1 1.9
v 0 1.1 1.7
v 0 1.1 1.2
v 0 1.1 1
v 0 1.1 0.8
v 0 1.1 0.7
v 0 1.2 0.8
v 0 1.2 0.7
v 0.1 0.1 2.6
v 0.1 0.1 2.3
v 0.1 0.2 2.8
v 0.1 0.2 2.6
v 0.1 0.2 2.3
v 0.1 0.2 2.2
v 0.1 0.3 2.8
v 0.1 0.3 2.2
v 0.1 0.3 2.1
v 0.1 0.4 2.8
v 0.1 0.4 2.6
v 0.1 0.4 2.1
v 0.1 0.4 1.9
v 0.1 0.4 1.7
v 0.1 0.4 1.2
v 0.1 0.4 1
v 0.1 0.4 0.8
v 0.1 0.4 0.7
v 0.1 0.4 0.6
v 0.1 0.5 2.6
v 0.1 0.5 2
v 0.1 0.5 1.9
v 0.1 0.5 1.7
v 0.1 0.5 1.2
v 0.1 0.5 1
v 0.1 0.5 0.8
v 0.1 0.5 0.7
v 0.1 0.5 0.6
v 0.1 1.1 2.2
v 0.1 1.1 1.9
v 0.1 1.1 1.7
v 0.1 1.1 1.2
v 0.1 1.1 1
v 0.1 1.1 0.8
v 0.1 1.2 2.2
v 0.1 1.2 1.9
v 0.1 1.2 1.7
v 0.1 1.2 1.2
v 0.1 1.2 1
v 0.1 1.2 0.8
v 0.2 0.1 2.7
v 0.2 0.1 2.6
v 0.2 0.1 2.3
v 0.2 0.1 2.2
v 0.2 0.2 2.7
v 0.2 0.2 2.6
v 0.2 0.2 2.3
v 0.2 0.2 2.2
v 0.2 0.2 2.1
v 0.2 0.3 2.2
v 0.2 0.3 2.1
v 0.2 0.3 2
v 0.2 0.4 2.1
v 0.2 0.4 2
v 0.2 0.9 -1.6
v 0.2 0.9 -1.8
v 0.2 1 -1.6
v 0.2 1 -1.8
v 0.2 1.1 -1.6
v 0.2 1.1 -1.7
v 0.2 1.1 -1.8
v 0.2 1.2 -1.6
v 0.2 1.2 -1.7
v 0.2 1.3 -1.6
v 0.2 1.3 -1.7
v 0.2 1.4 -1.6
v 0.2 1.4 -1.7
v 0.3 0.1 2.2
v 0.3 0.1 2.1
v 0.3 0.2 2.2
v 0.3 0.2 2.1
v 0.3 0.2 2
v 0.3 0.3 2.1
v 0.3 0.3 2
v 0.3 0.3 1.9
v 0.3 0.4 1.9
v 0.3 0.4 1.7
v 0.3 0.4 1.2
v 0.3 0.4 1
v 0.3 0.4 0.6
v 0.3 0.5 2
v 0.3 0.5 1.9
v 0.3 0.5 1.7
v 0.3 0.5 1.2
v 0.3 0.5 1
v 0.3 0.5 0.6
v 0.3 1.6 -1.2
v 0.3 1.6 -1.3
v 0.3 1.6 -1.4
v 0.3 1.6 -1.5
v 0.3 1.7 -1.3
v 0.3 1.7 -1.4
v 0.3 1.7 -1.5
v 0.3 1.8 -1.3
v 0.3 1.8 -1.4
v 0.3 1.9 -1.2
v 0.3 1.9 -1.4
v 0.4 0 -0.6
v 0.4 0 -0.7
v 0.4 0.4 -0.6
v 0.4 0.4 -0.7
v 0.5 0 0.4
v 0.5 0 0
v 0.5 0 -0.5
v 0.5 0 -0.6
v 0.5 0 -0.7
v 0.5 0 -0.8
v 0.5 0.4 0.4
v 0.5 0.4 0
v 0.5 0.4 -0.5
v 0.5 0.4 -0.6
v 0.5 0.5 -0.7
v 0.5 0.5 -0.8
v 0.5 0.7 -0.8
v 0.5 0.7 -0.9
v 0.5 0.8 -0.8
v 0.5 0.8 -0.9
v 0.6 0 0.5
v 0.6 0 0.4
v 0.6 0 0
v 0.6 0 -0.0999999
v 0.6 0.4 0.5
v 0.6 0.4 0.4
v 0.6 0.4 0
v 0.6 0.4 -0.0999999
v 0.6 0.8 -0.8
v 0.6 0.8 -0.9
v 0.6 0.9 -0.8
v 0.6 0.9 -0.9
v 0.6 1 -0.8
v 0.6 1 -0.9
v 0.7 0.4 0.3
v 0.7 0.4 0.2
v 0.7 0.6 0.3
v 0.7 0.6 0.2
v 0.7 0.7 -0.9
v 0.7 0.7 -1
v 0.7 0.8 -0.9
v 0.7 0.8 -1
v -0.3 0 0.6
v -0.3 0 0.5
v -0.3 0 0.1
v -0.3 0 0
v -0.3 0.4 0.6
v -0.3 0.4 0.5
v -0.3 0.4 0.1
v -0.3 0.4 0
v -0.3 0.7 0.7
v -0.3 0.7 0.6
v -0.3 0.8 0.7
v -0.3 0.8 0.6
v -0.2 0 0.5
v -0.2 0 0.1
v -0.2 0 -0.5
v -0.2 0 -0.6
v -0.2 0 -0.7
v -0.2 0 -0.8
v -0.2 0.4 0.5
v -0.2 0.4 0.1
v -0.2 0.4 -0.5
v -0.2 0.4 -0.6
v -0.2 0.5 -0.7
v -0.2 0.5 -0.8
v -0.1 0 -0.6
v -0.1 0 -0.7
v -0.1 0.4 -0.6
v -0.1 0.4 -0.7
v -0.1 1 -1.6
v -0.1 1 -1.8
v -0.1 1.1 -1.6
v -0.1 1.1 -1.7
v -0.1 1.1 -1.8
v -0.1 1.6 -1.2
v -0.1 1.6 -1.4
v -0.1 1.6 -1.5
v -0.1 1.7 -1.3
v -0.1 1.7 -1.4
v -0.1 1.7 -1.5
v -0.1 1.8 -1.3
v -0.1 1.8 -1.4
v -0.1 1.9 -1.2
v -0.1 1.9 -1.4
v 0 0.4 0.7
v 0 0.4 0.6
v 0 0.5 0.7
v 0 0.5 0.6
v 0 0.9 -1.6
v 0 0.9 -1.8
v 0 1 -1.6
v 0 1 -1.8
v 0 1.2 -1.6
v 0 1.2 -1.7
v 0 1.4 -1.6
v 0 1.4 -1.7
v 0.2 0.4 2
v 0.2 0.4 1.9
v 0.2 0.4 1.7
v 0.2 0.4 1.2
v 0.2 0.4 1
v 0.2 0.4 0.6
v 0.2 0.5 2
v 0.2 0.5 1.9
v 0.2 0.5 1.7
v 0.2 0.5 1.2
v 0.2 0.5 1
v 0.2 0.5 0.6
v 0.2 0.8 -1.6
v 0.2 0.8 -1.8
v 0.2 0.8 -1.9
v 0.2 0.9 -1.6
v 0.2 0.9 -1.8
v 0.2 0.9 -1.9
v 0.2 0.9 -2
v 0.2 1 -1.9
v 0.2 1 -2
v 0.3 0.7 -0.8
v 0.3 0.7 -0.9
v 0.3 0.8 -0.8
v 0.3 0.8 -0.9
v 0.3 0.8 -1.6
v 0.3 0.9 -0.8
v 0.3 0.9 -0.9
v 0.3 0.9 -1.6
v 0.3 0.9 -1.8
v 0.3 0.9 -1.9
v 0.3 1 -1.6
v 0.3 1 -1.8
v 0.3 1 -1.9
v 0.3 1 -2
v 0.3 1.1 2.2
v 0.3 1.1 1.9
v 0.3 1.1 1.7
v 0.3 1.1 1.2
v 0.3 1.1 1
v 0.3 1.1 0.7
v 0.3 1.2 2.2
v 0.3 1.2 1.9
v 0.3 1.2 1.7
v 0.3 1.2 1.2
v 0.3 1.2 1
v 0.3 1.2 0.7
v 0.3 1.2 -1.9
v 0.3 1.2 -2
v 0.4 0.1 2.7
v 0.4 0.1 2.6
v 0.4 0.2 2.8
v 0.4 0.2 2.7
v 0.4 0.2 2.6
v 0.4 0.2 2.1
v 0.4 0.2 2
v 0.4 0.3 2.8
v 0.4 0.3 2.7
v 0.4 0.3 2.6
v 0.4 0.3 2
v 0.4 0.4 2.8
v 0.4 0.4 2.7
v 0.4 0.4 2.6
v 0.4 0.4 2
v 0.4 0.4 1.9
v 0.4 0.4 1.7
v 0.4 0.4 1.2
v 0.4 0.4 1
v 0.4 0.4 0.5
v 0.4 0.5 2.8
v 0.4 0.5 2.7
v 0.4 0.5 2.6
v 0.4 0.5 2
v 0.4 0.5 1.9
v 0.4 0.5 1.7
v 0.4 0.5 1.2
v 0.4 0.5 1
v 0.4 0.5 0.5
v 0.4 0.6 2.8
v 0.4 0.6 2.7
v 0.4 0.9 -0.8
v 0.4 0.9 -1.6
v 0.4 1 2.3
v 0.4 1 1.9
v 0.4 1 1.7
v 0.4 1 1.2
v 0.4 1 1
v 0.4 1 0.7
v 0.4 1 -0.8
v 0.4 1 -0.9
v 0.4 1 -1.6
v 0.4 1 -1.8
v 0.4 1 -1.9
v 0.4 1.1 2.3
v 0.4 1.1 1.9
v 0.4 1.1 1.7
v 0.4 1.1 1.2
v 0.4 1.1 1
v 0.4 1.1 0.7
v 0.4 1.1 -1.6
v 0.4 1.1 -1.7
v 0.4 1.1 -1.8
v 0.4 1.2 -1.6
v 0.4 1.2 -1.7
v 0.4 1.2 -1.8
v 0.4 1.2 -1.9
v 0.4 1.3 -1.6
v 0.4 1.4 -1.6
v 0.4 1.4 -1.7
v 0.4 1.6 -1.4
v 0.4 1.6 -1.5
v 0.4 1.7 -1.4
v 0.4 1.7 -1.5
v 0.4 1.8 -1.2
v 0.4 1.8 -1.4
v 0.4 1.9 -1.2
v 0.4 1.9 -1.4
v 0.5 0.1 2.6
v 0.5 0.1 2.1
v 0.5 0.2 2.7
v 0.5 0.2 2.6
v 0.5 0.2 2.1
v 0.5 0.3 2.7
v 0.5 0.3 2.6
v 0.5 0.3 2
v 0.5 0.3 1.9
v 0.5 0.4 2.7
v 0.5 0.4 2.6
v 0.5 0.4 2
v 0.5 0.4 1.9
v 0.5 0.5 2.7
v 0.5 0.5 2.6
v 0.5 0.5 2
v 0.5 0.5 1.9
v 0.5 0.5 1.7
v 0.5 0.5 1.2
v 0.5 0.5 1
v 0.5 0.5 0.5
v 0.5 0.6 2.7
v 0.5 0.6 2.6
v 0.5 0.6 2
v 0.5 0.6 1.9
v 0.5 0.6 1.7
v 0.5 0.6 1.2
v 0.5 0.6 1
v 0.5 0.6 0.5
v 0.5 0.7 2.7
v 0.5 0.7 2.6
v 0.5 0.9 2.4
v 0.5 0.9 1.9
v 0.5 0.9 1.7
v 0.5 0.9 1.2
v 0.5 0.9 1
v 0.5 0.9 0.7
v 0.5 1 2.4
v 0.5 1 1.9
v 0.5 1 1.7
v 0.5 1 1.2
v 0.5 1 1
v 0.5 1 0.7
v 0.5 1 0.6
v 0.5 1 -0.8
v 0.5 1 -0.9
v 0.5 1 -1.6
v 0.5 1.1 0.6
v 0.5 1.1 0.5
v 0.5 1.1 -0.8
v 0.5 1.1 -0.9
v 0.5 1.1 -1
v 0.5 1.1 -1.6
v 0.5 1.1 -1.7
v 0.5 1.1 -1.8
v 0.5 1.2 0.7
v 0.5 1.2 0.5
v 0.5 1.2 0.4
v 0.5 1.2 -0.8
v 0.5 1.2 -1.6
v 0.5 1.2 -1.7
v 0.5 1.2 -1.8
v 0.5 1.3 0.4
v 0.5 1.3 -0.8
v 0.5 1.4 -1
v 0.5 1.4 -1.2
v 0.5 1.4 -1.5
v 0.5 1.4 -1.6
v 0.5 1.5 -1
v 0.5 1.5 -1.2
v 0.5 1.5 -1.4
v 0.5 1.5 -1.5
v 0.5 1.5 -1.6
v 0.5 1.6 -1.4
v 0.5 1.6 -1.5
v 0.5 1.7 -1.2
v 0.5 1.7 -1.4
v 0.5 1.8 -1.2
v 0.5 1.8 -1.4
v 0.6 0.4 0.3
v 0.6 0.4 0.2
v 0.6 0.4 -0.0999999
v 0.6 0.4 -0.5
v 0.6 0.6 2.6
v 0.6 0.6 1.9
v 0.6 0.6 1.7
v 0.6 0.6 1.2
v 0.6 0.6 1
v 0.6 0.6 0.5
v 0.6 0.6 0.3
v 0.6 0.6 0.2
v 0.6 0.6 -0.0999999
v 0.6 0.6 -0.5
v 0.6 0.7 0.7
v 0.6 0.7 0.5
v 0.6 0.8 2.6
v 0.6 0.8 2.5
v 0.6 0.8 0.7
v 0.6 0.8 0.6
v 0.6 0.9 2.5
v 0.6 0.9 1.9
v 0.6 0.9 1.7
v 0.6 0.9 1.2
v 0.6 0.9 1
v 0.6 0.9 0.7
v 0.6 0.9 0.6
v 0.6 1 0.6
v 0.6 1 0.5
v 0.6 1 -0.8
v 0.6 1.1 0.6
v 0.6 1.1 0.5
v 0.6 1.1 -0.8
v 0.6 1.1 -0.9
v 0.6 1.1 -1
v 0.6 1.1 -1.6
v 0.6 1.2 0.5
v 0.6 1.2 -0.9
v 0.6 1.4 -1
v 0.6 1.4 -1.2
v 0.6 1.4 -1.4
v 0.6 1.4 -1.5
v 0.6 1.4 -1.6
v 0.6 1.5 -1.2
v 0.6 1.5 -1.3
v 0.6 1.5 -1.4
v 0.6 1.5 -1.5
v 0.6 1.6 -1.3
v 0.6 1.6 -1.4
v 0.6 1.7 -1.2
v 0.6 1.7 -1.4
v 0.7 0 0.5
v 0.7 0 0.4
v 0.7 0 0
v 0.7 0 -0.0999999
v 0.7 0 -0.5
v 0.7 0 -0.6
v 0.7 0 -0.7
v 0.7 0 -0.8
v 0.7 0.5 0.5
v 0.7 0.5 0.4
v 0.7 0.6 0
v 0.7 0.6 -0.0999999
v 0.7 0.6 -0.5
v 0.7 0.6 -0.6
v 0.7 0.6 -0.7
v 0.7 0.6 -0.8
v 0.7 0.6 -0.9
v 0.7 0.7 0.7
v 0.7 0.7 0.5
v 0.7 0.7 -0.8
v 0.7 0.7 -0.9
v 0.7 0.8 0.7
v 0.7 0.8 0.6
v 0.7 0.8 0.5
v 0.7 0.9 0.7
v 0.7 0.9 0.6
v 0.7 0.9 0.5
v 0.7 0.9 -0.9
v 0.7 1 0.7
v 0.7 1 0.5
v 0.7 1 -0.9
v 0.7 1.4 -1.2
v 0.7 1.4 -1.4
v 0.7 1.5 -1.2
v 0.7 1.5 -1.4
v 0.8 0 0.4
v 0.8 0 0
v 0.8 0 -0.6
v 0.8 0 -0.7
v 0.8 0.5 0.5
v 0.8 0.5 0.4
v 0.8 0.6 0
v 0.8 0.6 -0.6
v 0.8 0.6 -0.7
v 0.8 0.6 -0.8
v 0.8 0.7 -0.8
v 0.8 0.7 -1
v 0.8 0.8 0.6
v 0.8 0.8 0.5
v 0.8 0.8 -0.9
v 0.8 0.8 -1
v 0.8 0.9 0.6
v 0.8 0.9 -0.9
v -0.1 0.4 2.8
v -0.1 0.5 2.8
v -0.1 0.6 2.8
v 0.1 0.2 2.8
v 0.1 0.3 2.8
v 0.1 0.4 2.8
v 0.4 0.2 2.8
v 0.4 0.3 2.8
v 0.4 0.4 2.8
v 0.4 0.5 2.8
v 0.4 0.6 2.8
v -0.2 0.6 2.7
v -0.2 0.7 2.7
v -0.1 0.6 2.7
v 0.2 0.1 2.7
v 0.2 0.2 2.7
v 0.4 0.1 2.7
v 0.4 0.2 2.7
v 0.4 0.3 2.7
v 0.4 0.4 2.7
v 0.4 0.5 2.7
v 0.4 0.6 2.7
v 0.5 0.2 2.7
v 0.5 0.3 2.7
v 0.5 0.4 2.7
v 0.5 0.5 2.7
v 0.5 0.6 2.7
v 0.5 0.7 2.7
v -0.2 0.7 2.6
v -0.2 0.8 2.6
v 0.1 0.1 2.6
v 0.1 0.2 2.6
v 0.2 0.1 2.6
v 0.2 0.2 2.6
v 0.4 0.1 2.6
v 0.4 0.2 2.6
v 0.5 0.1 2.6
v 0.5 0.2 2.6
v 0.5 0.6 2.6
v 0.5 0.7 2.6
v 0.6 0.6 2.6
v 0.6 0.8 2.6
v -0.2 0.8 2.5
v -0.2 0.9 2.5
v 0.6 0.8 2.5
v 0.6 0.9 2.5
v -0.1 0.9 2.4
v -0.1 1 2.4
v 0.5 0.9 2.4
v 0.5 1 2.4
v 0 1 2.3
v 0 1.1 2.3
v 0.4 1 2.3
v 0.4 1.1 2.3
v 0.1 1.1 2.2
v 0.1 1.2 2.2
v 0.3 1.1 2.2
v 0.3 1.2 2.2
v -0.3 0.7 0.8
v -0.3 0.8 0.8
v -0.2 0.6 0.8
v -0.2 0.7 0.8
v -0.2 0.8 0.8
v -0.1 0.5 0.8
v -0.1 0.6 0.8
v -0.1 0.7 0.8
v -0.1 1 0.8
v -0.1 1.1 0.8
v 0 0.4 0.8
v 0 0.5 0.8
v 0 0.6 0.8
v 0 1 0.8
v 0 1.1 0.8
v 0 1.2 0.8
v 0.1 0.4 0.8
v 0.1 0.5 0.8
v 0.1 1.1 0.8
v 0.1 1.2 0.8
v -0.4 0.7 0.7
v -0.4 0.8 0.7
v -0.3 0.6 0.7
v -0.3 0.7 0.7
v -0.3 0.8 0.7
v -0.3 0.9 0.7
v -0.2 0.5 0.7
v -0.2 0.6 0.7
v -0.2 0.7 0.7
v -0.2 0.8 0.7
v -0.2 0.9 0.7
v -0.2 1.1 0.7
v -0.1 0.4 0.7
v -0.1 0.5 0.7
v -0.1 0.6 0.7
v -0.1 0.9 0.7
v -0.1 1.1 0.7
v -0.1 1.2 0.7
v 0 0.4 0.7
v 0 0.5 0.7
v 0 1.1 0.7
v 0 1.2 0.7
v 0.3 1.1 0.7
v 0.3 1.2 0.7
v 0.4 1 0.7
v 0.4 1.1 0.7
v 0.5 0.9 0.7
v 0.5 1 0.7
v 0.5 1.2 0.7
v 0.6 0.7 0.7
v 0.6 0.8 0.7
v 0.6 0.9 0.7
v 0.7 0.7 0.7
v 0.7 0.8 0.7
v 0.7 0.9 0.7
v 0.7 1 0.7
v -0.5 0.8 0.6
v -0.5 0.9 0.6
v -0.4 0 0.6
v -0.4 0.4 0.6
v -0.4 0.8 0.6
v -0.4 0.9 0.6
v -0.4 1 0.6
v -0.3 0 0.6
v -0.3 0.4 0.6
v -0.3 0.6 0.6
v -0.3 0.7 0.6
v -0.3 0.8 0.6
v -0.3 0.9 0.6
v -0.3 1 0.6
v -0.3 1.1 0.6
v -0.2 0.5 0.6
v -0.2 0.6 0.6
v -0.2 0.7 0.6
v -0.2 0.8 0.6
v -0.2 0.9 0.6
v -0.2 1.1 0.6
v -0.2 1.2 0.6
v -0.1 0.4 0.6
v -0.1 0.5 0.6
v -0.1 1.1 0.6
v -0.1 1.2 0.6
v 0 0.4 0.6
v 0 0.5 0.6
v 0.1 0.4 0.6
v 0.1 0.5 0.6
v 0.2 0.4 0.6
v 0.2 0.5 0.6
v 0.3 0.4 0.6
v 0.3 0.5 0.6
v 0.5 1 0.6
v 0.5 1.1 0.6
v 0.6 0.8 0.6
v 0.6 0.9 0.6
v 0.6 1 0.6
v 0.6 1.1 0.6
v 0.7 0.8 0.6
v 0.7 0.9 0.6
v 0.8 0.8 0.6
v 0.8 0.9 0.6
v -0.5 0 0.5
v -0.5 0.8 0.5
v -0.4 0 0.5
v -0.4 0.4 0.5
v -0.4 0.6 0.5
v -0.4 0.7 0.5
v -0.4 0.8 0.5
v -0.3 0 0.5
v -0.3 0.4 0.5
v -0.3 0.6 0.5
v -0.3 0.7 0.5
v -0.2 0 0.5
v -0.2 0.4 0.5
v 0.4 0.4 0.5
v 0.4 0.5 0.5
v 0.5 0.5 0.5
v 0.5 0.6 0.5
v 0.5 1.1 0.5
v 0.5 1.2 0.5
v 0.6 0 0.5
v 0.6 0.4 0.5
v 0.6 0.6 0.5
v 0.6 0.7 0.5
v 0.6 1.1 0.5
v 0.6 1.2 0.5
v 0.7 0 0.5
v 0.7 0.5 0.5
v 0.7 0.7 0.5
v 0.7 0.8 0.5
v 0.8 0.5 0.5
v 0.8 0.8 0.5
v -0.1 1.2 0.4
v -0.1 1.3 0.4
v 0.5 0 0.4
v 0.5 0.4 0.4
v 0.5 1.2 0.4
v 0.5 1.3 0.4
v 0.6 0 0.4
v 0.6 0.4 0.4
v 0.7 0 0.4
v 0.7 0.5 0.4
v 0.8 0 0.4
v 0.8 0.5 0.4
v 0.6 0.4 0.2
v 0.6 0.6 0.2
v 0.7 0.4 0.2
v 0.7 0.6 0.2
v -0.4 0 -0.5
v -0.4 0.4 -0.5
v -0.2 0 -0.5
v -0.2 0.4 -0.5
v 0.5 0 -0.5
v 0.5 0.4 -0.5
v 0.6 0.4 -0.5
v 0.6 0.6 -0.5
v 0.7 0 -0.5
v 0.7 0.6 -0.5
v -0.5 0 -0.6
v -0.5 0.5 -0.6
v -0.4 0 -0.6
v -0.4 0.5 -0.6
v -0.2 0 -0.6
v -0.2 0.4 -0.6
v -0.1 0 -0.6
v -0.1 0.4 -0.6
v 0.4 0 -0.6
v 0.4 0.4 -0.6
v 0.5 0 -0.6
v 0.5 0.4 -0.6
v 0.7 0 -0.6
v 0.7 0.6 -0.6
v 0.8 0 -0.6
v 0.8 0.6 -0.6
v -0.4 1.1 -1
v -0.4 1.4 -1
v -0.3 1.1 -1
v -0.3 1.4 -1
v -0.3 1.5 -1
v 0.3 1.1 -1
v 0.5 1.1 -1
v 0.5 1.4 -1
v 0.5 1.5 -1
v 0.6 1.1 -1
v 0.6 1.4 -1
v -0.5 1.4 -1.2
v -0.5 1.5 -1.2
v -0.4 1.4 -1.2
v -0.4 1.5 -1.2
v -0.4 1.7 -1.2
v -0.3 1.4 -1.2
v -0.3 1.5 -1.2
v -0.3 1.7 -1.2
v -0.3 1.8 -1.2
v -0.2 1.8 -1.2
v -0.2 1.9 -1.2
v -0.1 1.5 -1.2
v -0.1 1.6 -1.2
v -0.1 1.9 -1.2
v 0.3 1.5 -1.2
v 0.3 1.6 -1.2
v 0.3 1.9 -1.2
v 0.4 1.8 -1.2
v 0.4 1.9 -1.2
v 0.5 1.4 -1.2
v 0.5 1.5 -1.2
v 0.5 1.7 -1.2
v 0.5 1.8 -1.2
v 0.6 1.4 -1.2
v 0.6 1.5 -1.2
v 0.6 1.7 -1.2
v 0.7 1.4 -1.2
v 0.7 1.5 -1.2
v -0.1 1 -1.8
v -0.1 1.1 -1.8
v 0 0.9 -1.8
v 0 1 -1.8
v 0.2 0.9 -1.8
v 0.2 1 -1.8
v 0.2 1.1 -1.8
v -0.1 0.4 2.6
v -0.1 0.5 2.6
v 0.1 0.4 2.6
v 0.1 0.5 2.6
v 0.4 0.2 2.6
v 0.4 0.3 2.6
v 0.4 0.4 2.6
v 0.4 0.5 2.6
v 0.5 0.2 2.6
v 0.5 0.3 2.6
v 0.5 0.4 2.6
v 0.5 0.5 2.6
v -0.2 0.6 2.5
v -0.2 0.7 2.5
v -0.1 0.5 2.5
v -0.1 0.6 2.5
v -0.1 0.7 2.5
v 0 0.5 2.5
v 0 0.6 2.5
v 0.1 0.1 2.3
v 0.1 0.2 2.3
v 0.2 0.1 2.3
v 0.2 0.2 2.3
v 0.1 0.2 2.2
v 0.1 0.3 2.2
v 0.2 0.1 2.2
v 0.2 0.2 2.2
v 0.2 0.3 2.2
v 0.3 0.1 2.2
v 0.3 0.2 2.2
v 0.1 0.3 2.1
v 0.1 0.4 2.1
v 0.2 0.2 2.1
v 0.2 0.3 2.1
v 0.2 0.4 2.1
v 0.3 0.1 2.1
v 0.3 0.2 2.1
v 0.3 0.3 2.1
v 0.4 0.2 2.1
v 0.5 0.1 2.1
v 0.5 0.2 2.1
v 0.2 0.3 2
v 0.2 0.4 2
v 0.2 0.5 2
v 0.3 0.2 2
v 0.3 0.3 2
v 0.3 0.5 2
v 0.4 0.2 2
v 0.4 0.3 2
v 0.3 0.3 1.9
v 0.3 0.4 1.9
v 0.4 0.4 1.9
v 0.5 0.3 1.9
v 0.5 0.4 1.9
v -0.3 0.7 0.7
v -0.3 0.8 0.7
v -0.2 0.7 0.7
v -0.2 0.8 0.7
v 0 0.4 0.7
v 0 0.5 0.7
v 0.1 0.4 0.7
v 0.1 0.5 0.7
v 0.6 0.4 0.3
v 0.6 0.6 0.3
v 0.7 0.4 0.3
v 0.7 0.6 0.3
v -0.5 0 0.1
v -0.5 0.5 0.1
v -0.4 0 0.1
v -0.4 0.5 0.1
v -0.3 0 0.1
v -0.3 0.4 0.1
v -0.2 0 0.1
v -0.2 0.4 0.1
v -0.4 0 0
v -0.4 0.4 0
v -0.3 0 0
v -0.3 0.4 0
v 0.5 0 0
v 0.5 0.4 0
v 0.6 0 0
v 0.6 0.4 0
v 0.7 0 0
v 0.7 0.6 0
v 0.8 0 0
v 0.8 0.6 0
v 0.6 0 -0.0999999
v 0.6 0.4 -0.0999999
v 0.6 0.6 -0.0999999
v 0.7 0 -0.0999999
v 0.7 0.6 -0.0999999
v -0.5 0 -0.7
v -0.5 0.7 -0.7
v -0.4 0 -0.7
v -0.4 0.7 -0.7
v -0.2 0 -0.7
v -0.2 0.5 -0.7
v -0.1 0 -0.7
v -0.1 0.4 -0.7
v 0.4 0 -0.7
v 0.4 0.4 -0.7
v 0.5 0 -0.7
v 0.5 0.5 -0.7
v 0.7 0 -0.7
v 0.7 0.6 -0.7
v 0.8 0 -0.7
v 0.8 0.6 -0.7
v -0.4 0 -0.8
v -0.4 0.6 -0.8
v -0.2 0 -0.8
v -0.2 0.5 -0.8
v -0.1 1.2 -0.8
v -0.1 1.3 -0.8
v 0.3 0.7 -0.8
v 0.3 0.8 -0.8
v 0.3 0.9 -0.8
v 0.4 0.9 -0.8
v 0.4 1 -0.8
v 0.5 0 -0.8
v 0.5 0.5 -0.8
v 0.5 0.7 -0.8
v 0.5 0.8 -0.8
v 0.5 1 -0.8
v 0.5 1.1 -0.8
v 0.5 1.2 -0.8
v 0.5 1.3 -0.8
v 0.6 0.8 -0.8
v 0.6 0.9 -0.8
v 0.6 1 -0.8
v 0.6 1.1 -0.8
v 0.7 0 -0.8
v 0.7 0.6 -0.8
v 0.7 0.7 -0.8
v 0.8 0.6 -0.8
v 0.8 0.7 -0.8
v -0.5 0.7 -0.9
v -0.5 0.8 -0.9
v -0.5 0.9 -0.9
v -0.4 0.6 -0.9
v -0.4 0.7 -0.9
v -0.4 0.8 -0.9
v -0.4 0.9 -0.9
v -0.3 0.8 -0.9
v -0.2 0.8 -0.9
v -0.2 1.1 -0.9
v -0.2 1.2 -0.9
v -0.1 0.8 -0.9
v -0.1 1.1 -0.9
v -0.1 1.2 -0.9
v 0 0.8 -0.9
v 0.2 0.8 -0.9
v 0.3 0.7 -0.9
v 0.3 0.8 -0.9
v 0.3 1.1 -0.9
v 0.5 0.7 -0.9
v 0.5 0.8 -0.9
v 0.5 1.1 -0.9
v 0.5 1.2 -0.9
v 0.6 0.8 -0.9
v 0.6 0.9 -0.9
v 0.6 1 -0.9
v 0.6 1.1 -0.9
v 0.6 1.2 -0.9
v 0.7 0.6 -0.9
v 0.7 0.7 -0.9
v 0.7 0.8 -0.9
v 0.7 0.9 -0.9
v 0.7 1 -0.9
v 0.8 0.8 -0.9
v 0.8 0.9 -0.9
v -0.4 0.8 -1
v -0.4 0.9 -1
v -0.4 1 -1
v -0.3 0.8 -1
v -0.3 0.9 -1
v -0.3 1 -1
v -0.2 0.8 -1
v -0.2 0.9 -1
v -0.2 1 -1
v -0.1 0.8 -1
v -0.1 0.9 -1
v 0.7 0.7 -1
v 0.7 0.8 -1
v 0.8 0.7 -1
v 0.8 0.8 -1
v -0.5 1.4 -1.4
v -0.5 1.5 -1.4
v -0.4 1.4 -1.4
v -0.4 1.5 -1.4
v -0.4 1.7 -1.4
v -0.3 1.5 -1.4
v -0.3 1.6 -1.4
v -0.3 1.7 -1.4
v -0.3 1.8 -1.4
v -0.2 1.6 -1.4
v -0.2 1.7 -1.4
v -0.2 1.8 -1.4
v -0.2 1.9 -1.4
v -0.1 1.7 -1.4
v -0.1 1.8 -1.4
v -0.1 1.9 -1.4
v 0.3 1.7 -1.4
v 0.3 1.8 -1.4
v 0.3 1.9 -1.4
v 0.4 1.6 -1.4
v 0.4 1.7 -1.4
v 0.4 1.8 -1.4
v 0.4 1.9 -1.4
v 0.5 1.5 -1.4
v 0.5 1.6 -1.4
v 0.5 1.7 -1.4
v 0.5 1.8 -1.4
v 0.6 1.4 -1.4
v 0.6 1.5 -1.4
v 0.6 1.6 -1.4
v 0.6 1.7 -1.4
v 0.7 1.4 -1.4
v 0.7 1.5 -1.4
v -0.4 1.4 -1.5
v -0.4 1.5 -1.5
v -0.3 1.4 -1.5
v -0.3 1.5 -1.5
v -0.3 1.6 -1.5
v -0.2 1.5 -1.5
v -0.2 1.6 -1.5
v -0.2 1.7 -1.5
v -0.1 1.6 -1.5
v -0.1 1.7 -1.5
v 0 1.5 -1.5
v 0.2 1.5 -1.5
v 0.3 1.6 -1.5
v 0.3 1.7 -1.5
v 0.4 1.5 -1.5
v 0.4 1.6 -1.5
v 0.4 1.7 -1.5
v 0.5 1.4 -1.5
v 0.5 1.5 -1.5
v 0.5 1.6 -1.5
v 0.6 1.4 -1.5
v 0.6 1.5 -1.5
v -0.4 1.1 -1.6
v -0.4 1.4 -1.6
v -0.3 1 -1.6
v -0.3 1.1 -1.6
v -0.3 1.2 -1.6
v -0.3 1.3 -1.6
v -0.3 1.4 -1.6
v -0.3 1.5 -1.6
v -0.2 0.9 -1.6
v -0.2 1 -1.6
v -0.2 1.1 -1.6
v -0.2 1.2 -1.6
v -0.2 1.3 -1.6
v -0.2 1.4 -1.6
v -0.2 1.5 -1.6
v -0.1 0.8 -1.6
v -0.1 0.9 -1.6
v -0.1 1 -1.6
v -0.1 1.1 -1.6
v -0.1 1.4 -1.6
v 0 0.8 -1.6
v 0 0.9 -1.6
v 0 1 -1.6
v 0 1.1 -1.6
v 0 1.2 -1.6
v 0 1.4 -1.6
v 0 1.5 -1.6
v 0.1 1 -1.6
v 0.1 1.1 -1.6
v 0.2 0.8 -1.6
v 0.2 0.9 -1.6
v 0.2 1 -1.6
v 0.2 1.1 -1.6
v 0.2 1.2 -1.6
v 0.2 1.3 -1.6
v 0.2 1.4 -1.6
v 0.2 1.5 -1.6
v 0.3 0.8 -1.6
v 0.3 0.9 -1.6
v 0.3 1 -1.6
v 0.3 1.4 -1.6
v 0.4 0.9 -1.6
v 0.4 1 -1.6
v 0.4 1.1 -1.6
v 0.4 1.2 -1.6
v 0.4 1.3 -1.6
v 0.4 1.4 -1.6
v 0.4 1.5 -1.6
v 0.5 1 -1.6
v 0.5 1.1 -1.6
v 0.5 1.2 -1.6
v 0.5 1.3 -1.6
v 0.5 1.4 -1.6
v 0.5 1.5 -1.6
v 0.6 1.1 -1.6
v 0.6 1.4 -1.6
v -0.2 1.2 -1.7
v -0.2 1.3 -1.7
v -0.2 1.4 -1.7
v -0.1 1.3 -1.7
v -0.1 1.4 -1.7
v 0 1.2 -1.7
v 0 1.4 -1.7
v 0.2 1.2 -1.7
v 0.2 1.3 -1.7
v 0.2 1.4 -1.7
v 0.3 1.3 -1.7
v 0.3 1.4 -1.7
v 0.4 1.2 -1.7
v 0.4 1.4 -1.7
v -0.3 1.1 -1.8
v -0.3 1.2 -1.8
v -0.2 1.1 -1.8
v -0.2 1.2 -1.8
v 0.4 1.1 -1.8
v 0.4 1.2 -1.8
v 0.5 1.1 -1.8
v 0.5 1.2 -1.8
v -0.2 1 -1.9
v -0.2 1.2 -1.9
v -0.1 0.9 -1.9
v -0.1 1 -1.9
v -0.1 1.2 -1.9
v 0 0.8 -1.9
v 0 0.9 -1.9
v 0 1 -1.9
v 0.2 0.8 -1.9
v 0.2 0.9 -1.9
v 0.2 1 -1.9
v 0.3 0.9 -1.9
v 0.3 1 -1.9
v 0.3 1.2 -1.9
v 0.4 1 -1.9
v 0.4 1.2 -1.9
v -0.1 1 -2
v -0.1 1.2 -2
v 0 0.9 -2
v 0 1 -2
v 0 1.2 -2
v 0.2 0.9 -2
v 0.2 1 -2
v 0.2 1.2 -2
v 0.3 1 -2
v 0.3 1.2 -2
v -0.4 0 0.6
v -0.3 0 0.6
v -0.5 0 0.5
v -0.4 0 0.5
v -0.3 0 0.5
v -0.2 0 0.5
v 0.6 0 0.5
v 0.7 0 0.5
v 0.5 0 0.4
v 0.6 0 0.4
v 0.7 0 0.4
v 0.8 0 0.4
v -0.4 0 0.3
v -0.3 0 0.3
v -0.4 0 0.2
v -0.3 0 0.2
v 0.6 0 0.2
v 0.7 0 0.2
v -0.5 0 0.1
v -0.4 0 0.1
v -0.3 0 0.1
v -0.2 0 0.1
v 0.6 0 0.1
v 0.7 0 0.1
v -0.4 0 0
v -0.3 0 0
v 0.5 0 0
v 0.6 0 0
v 0.7 0 0
v 0.8 0 0
v 0.6 0 -0.0999999
v 0.7 0 -0.0999999
v -0.4 0 -0.5
v -0.2 0 -0.5
v 0.5 0 -0.5
v 0.7 0 -0.5
v -0.5 0 -0.6
v -0.4 0 -0.6
v -0.3 0 -0.6
v -0.2 0 -0.6
v -0.1 0 -0.6
v 0.4 0 -0.6
v 0.5 0 -0.6
v 0.6 0 -0.6
v 0.7 0 -0.6
v 0.8 0 -0.6
v -0.5 0 -0.7
v -0.4 0 -0.7
v -0.3 0 -0.7
v -0.2 0 -0.7
v -0.1 0 -0.7
v 0.4 0 -0.7
v 0.5 0 -0.7
v 0.6 0 -0.7
v 0.7 0 -0.7
v 0.8 0 -0.7
v -0.4 0 -0.8
v -0.2 0 -0.8
v 0.5 0 -0.8
v 0.7 0 -0.8
v 0.2 0.1 2.7
v 0.4 0.1 2.7
v 0.1 0.1 2.6
v 0.2 0.1 2.6
v 0.4 0.1 2.6
v 0.5 0.1 2.6
v 0.1 0.1 2.3
v 0.2 0.1 2.3
v 0.2 0.1 2.2
v 0.3 0.1 2.2
v 0.3 0.1 2.1
v 0.5 0.1 2.1
v 0.1 0.2 2.8
v 0.4 0.2 2.8
v 0.2 0.2 2.7
v 0.4 0.2 2.7
v 0.5 0.2 2.7
v 0.1 0.2 2.6
v 0.2 0.2 2.6
v 0.4 0.2 2.6
v 0.5 0.2 2.6
v 0.1 0.2 2.3
v 0.2 0.2 2.3
v 0.1 0.2 2.2
v 0.2 0.2 2.2
v 0.3 0.2 2.2
v 0.2 0.2 2.1
v 0.3 0.2 2.1
v 0.4 0.2 2.1
v 0.3 0.2 2
v 0.4 0.2 2
v 0.4 0.3 2.6
v 0.5 0.3 2.6
v 0.1 0.3 2.2
v 0.2 0.3 2.2
v 0.1 0.3 2.1
v 0.2 0.3 2.1
v 0.3 0.3 2.1
v 0.2 0.3 2
v 0.3 0.3 2
v 0.4 0.3 2
v 0.5 0.3 2
v 0.3 0.3 1.9
v 0.5 0.3 1.9
v -0.1 0.4 2.8
v 0.1 0.4 2.8
v -0.1 0.4 2.6
v 0.1 0.4 2.6
v 0.1 0.4 2.1
v 0.2 0.4 2.1
v 0.2 0.4 2
v 0.1 0.4 1.9
v 0.2 0.4 1.9
v 0.3 0.4 1.9
v 0.4 0.4 1.9
v 0.1 0.4 1.7
v 0.2 0.4 1.7
v 0.3 0.4 1.7
v 0.4 0.4 1.7
v 0.1 0.4 1.2
v 0.2 0.4 1.2
v 0.3 0.4 1.2
v 0.4 0.4 1.2
v 0.1 0.4 1
v 0.2 0.4 1
v 0.3 0.4 1
v 0.4 0.4 1
v 0 0.4 0.8
v 0.1 0.4 0.8
v -0.1 0.4 0.7
v 0 0.4 0.7
v 0.1 0.4 0.7
v -0.3 0.4 0.6
v -0.1 0.4 0.6
v 0 0.4 0.6
v 0.1 0.4 0.6
v 0.2 0.4 0.6
v 0.3 0.4 0.6
v -0.3 0.4 0.5
v -0.2 0.4 0.5
v 0.4 0.4 0.5
v 0.6 0.4 0.5
v 0.5 0.4 0.4
v 0.6 0.4 0.4
v -0.3 0.4 0.1
v -0.2 0.4 0.1
v -0.4 0.4 0
v -0.3 0.4 0
v 0.5 0.4 0
v 0.6 0.4 0
v 0.6 0.4 -0.0999999
v -0.4 0.4 -0.5
v -0.2 0.4 -0.5
v 0.5 0.4 -0.5
v 0.6 0.4 -0.5
v -0.2 0.4 -0.6
v -0.1 0.4 -0.6
v 0.4 0.4 -0.6
v 0.5 0.4 -0.6
v -0.1 0.4 -0.7
v 0.4 0.4 -0.7
v -0.1 0.5 2.6
v 0.1 0.5 2.6
v 0.4 0.5 2.6
v 0.5 0.5 2.6
v -0.1 0.5 2.5
v 0 0.5 2.5
v 0 0.5 2
v 0.1 0.5 2
v 0.2 0.5 2
v 0.3 0.5 2
v 0.4 0.5 2
v 0.5 0.5 2
v 0 0.5 1.9
v 0.1 0.5 1.9
v 0.2 0.5 1.9
v 0.3 0.5 1.9
v 0.4 0.5 1.9
v 0.5 0.5 1.9
v 0 0.5 1.7
v 0.1 0.5 1.7
v 0.2 0.5 1.7
v 0.3 0.5 1.7
v 0.4 0.5 1.7
v 0.5 0.5 1.7
v 0 0.5 1.2
v 0.1 0.5 1.2
v 0.2 0.5 1.2
v 0.3 0.5 1.2
v 0.4 0.5 1.2
v 0.5 0.5 1.2
v 0 0.5 1
v 0.1 0.5 1
v 0.2 0.5 1
v 0.3 0.5 1
v 0.4 0.5 1
v 0.5 0.5 1
v -0.1 0.5 0.8
v 0 0.5 0.8
v 0.1 0.5 0.8
v -0.2 0.5 0.7
v -0.1 0.5 0.7
v 0 0.5 0.7
v 0.1 0.5 0.7
v -0.2 0.5 0.6
v -0.1 0.5 0.6
v 0 0.5 0.6
v 0.1 0.5 0.6
v 0.2 0.5 0.6
v 0.3 0.5 0.6
v 0.4 0.5 0.5
v 0.5 0.5 0.5
v 0.7 0.5 0.5
v 0.8 0.5 0.5
v 0.7 0.5 0.4
v 0.8 0.5 0.4
v -0.5 0.5 0.1
v -0.4 0.5 0.1
v -0.5 0.5 -0.6
v -0.4 0.5 -0.6
v -0.2 0.5 -0.7
v 0.5 0.5 -0.7
v -0.2 0.5 -0.8
v 0.5 0.5 -0.8
v -0.2 0.6 2.7
v -0.1 0.6 2.7
v 0.5 0.6 2.6
v 0.6 0.6 2.6
v -0.2 0.6 2.5
v -0.1 0.6 2.5
v 0 0.6 2.5
v 0 0.6 2
v 0.5 0.6 2
v -0.1 0.6 1.9
v 0 0.6 1.9
v 0.5 0.6 1.9
v 0.6 0.6 1.9
v -0.1 0.6 1.7
v 0 0.6 1.7
v 0.5 0.6 1.7
v 0.6 0.6 1.7
v -0.1 0.6 1.2
v 0 0.6 1.2
v 0.5 0.6 1.2
v 0.6 0.6 1.2
v -0.1 0.6 1
v 0 0.6 1
v 0.5 0.6 1
v 0.6 0.6 1
v -0.2 0.6 0.8
v -0.1 0.6 0.8
v 0 0.6 0.8
v -0.3 0.6 0.7
v -0.2 0.6 0.7
v -0.1 0.6 0.7
v -0.3 0.6 0.6
v -0.2 0.6 0.6
v 0.5 0.6 0.5
v 0.6 0.6 0.5
v 0.6 0.6 0.3
v 0.7 0.6 0.3
v 0.6 0.6 0.2
v 0.7 0.6 0.2
v 0.7 0.6 0
v 0.8 0.6 0
v 0.6 0.6 -0.0999999
v 0.7 0.6 -0.0999999
v 0.6 0.6 -0.5
v 0.7 0.6 -0.5
v 0.7 0.6 -0.6
v 0.8 0.6 -0.6
v 0.7 0.6 -0.7
v 0.8 0.6 -0.7
v -0.4 0.6 -0.8
v 0.7 0.6 -0.8
v 0.8 0.6 -0.8
v -0.4 0.6 -0.9
v 0.7 0.6 -0.9
v -0.2 0.7 2.5
v -0.1 0.7 2.5
v -0.2 0.7 1.9
v -0.1 0.7 1.9
v -0.2 0.7 1.7
v -0.1 0.7 1.7
v -0.2 0.7 1.2
v -0.1 0.7 1.2
v -0.2 0.7 1
v -0.1 0.7 1
v -0.3 0.7 0.8
v -0.2 0.7 0.8
v -0.1 0.7 0.8
v -0.4 0.7 0.7
v -0.3 0.7 0.7
v -0.2 0.7 0.7
v 0.6 0.7 0.7
v 0.7 0.7 0.7
v -0.4 0.7 0.5
v -0.3 0.7 0.5
v 0.6 0.7 0.5
v 0.7 0.7 0.5
v -0.5 0.7 -0.7
v -0.4 0.7 -0.7
v 0.7 0.7 -0.8
v 0.8 0.7 -0.8
v -0.5 0.7 -0.9
v -0.4 0.7 -0.9
v 0.7 0.7 -0.9
v 0.7 0.7 -1
v 0.8 0.7 -1
v -0.3 0.8 0.7
v -0.2 0.8 0.7
v -0.5 0.8 0.6
v -0.4 0.8 0.6
v -0.3 0.8 0.6
v -0.2 0.8 0.6
v 0.7 0.8 0.6
v 0.8 0.8 0.6
v -0.5 0.8 0.5
v -0.4 0.8 0.5
v 0.7 0.8 0.5
v 0.8 0.8 0.5
v -0.4 0.8 -0.9
v -0.3 0.8 -0.9
v -0.2 0.8 -0.9
v -0.1 0.8 -0.9
v 0 0.8 -0.9
v 0.2 0.8 -0.9
v 0.3 0.8 -0.9
v -0.4 0.8 -1
v -0.3 0.8 -1
v -0.2 0.8 -1
v -0.1 0.8 -1
v -0.1 0.8 -1.6
v 0 0.8 -1.6
v 0.2 0.8 -1.6
v 0.3 0.8 -1.6
v 0 0.8 -1.8
v 0.2 0.8 -1.8
v 0 0.8 -1.9
v 0.2 0.8 -1.9
v 0.6 0.9 0.7
v 0.7 0.9 0.7
v 0.6 0.9 0.6
v 0.7 0.9 0.6
v 0.3 0.9 -0.8
v 0.4 0.9 -0.8
v 0.3 0.9 -0.9
v -0.2 0.9 -1
v -0.1 0.9 -1
v -0.2 0.9 -1.6
v -0.1 0.9 -1.6
v 0 0.9 -1.6
v 0.2 0.9 -1.6
v 0.3 0.9 -1.6
v 0.4 0.9 -1.6
v -0.1 0.9 -1.8
v 0 0.9 -1.8
v 0.2 0.9 -1.8
v 0.3 0.9 -1.8
v -0.1 0.9 -1.9
v 0 0.9 -1.9
v 0.2 0.9 -1.9
v 0.3 0.9 -1.9
v 0 0.9 -2
v 0.2 0.9 -2
v 0.4 1 -0.8
v 0.5 1 -0.8
v 0.4 1 -0.9
v 0.5 1 -0.9
v -0.3 1 -1
v -0.2 1 -1
v -0.3 1 -1.6
v -0.2 1 -1.6
v -0.1 1 -1.6
v 0.3 1 -1.6
v 0.4 1 -1.6
v 0.5 1 -1.6
v -0.2 1 -1.8
v -0.1 1 -1.8
v 0.3 1 -1.8
v 0.4 1 -1.8
v -0.2 1 -1.9
v -0.1 1 -1.9
v 0 1 -1.9
v 0.2 1 -1.9
v 0.3 1 -1.9
v 0.4 1 -1.9
v -0.1 1 -2
v 0 1 -2
v 0.2 1 -2
v 0.3 1 -2
v 0.5 1.1 -0.8
v 0.6 1.1 -0.8
v 0.5 1.1 -0.9
v 0.6 1.1 -0.9
v -0.4 1.1 -1
v -0.3 1.1 -1
v 0.5 1.1 -1
v 0.6 1.1 -1
v -0.4 1.1 -1.6
v -0.3 1.1 -1.6
v -0.2 1.1 -1.6
v -0.1 1.1 -1.6
v 0 1.1 -1.6
v 0.1 1.1 -1.6
v 0.2 1.1 -1.6
v 0.4 1.1 -1.6
v 0.5 1.1 -1.6
v 0.6 1.1 -1.6
v -0.3 1.1 -1.7
v -0.2 1.1 -1.7
v -0.1 1.1 -1.7
v 0 1.1 -1.7
v 0.2 1.1 -1.7
v 0.4 1.1 -1.7
v 0.5 1.1 -1.7
v -0.3 1.1 -1.8
v -0.2 1.1 -1.8
v -0.1 1.1 -1.8
v 0.2 1.1 -1.8
v 0.4 1.1 -1.8
v 0.5 1.1 -1.8
v -0.5 1.4 -1.2
v -0.4 1.4 -1.2
v 0.6 1.4 -1.2
v 0.7 1.4 -1.2
v -0.5 1.4 -1.4
v -0.4 1.4 -1.4
v 0.6 1.4 -1.4
v 0.7 1.4 -1.4
v 0.4 0.2 2.6
v 0.5 0.2 2.6
v 0.4 0.2 2.1
v 0.5 0.2 2.1
v 0.4 0.4 2.6
v 0.5 0.4 2.6
v 0.4 0.4 2
v 0.5 0.4 2
v 0.4 0.4 1.9
v 0.5 0.4 1.9
v -0.4 0.4 0.6
v -0.3 0.4 0.6
v -0.4 0.4 0.5
v -0.3 0.4 0.5
v 0.6 0.4 0.3
v 0.7 0.4 0.3
v 0.6 0.4 0.2
v 0.7 0.4 0.2
v -0.1 0.6 2.8
v 0.4 0.6 2.8
v -0.1 0.6 2.7
v 0.4 0.6 2.7
v -0.2 0.7 2.7
v 0.5 0.7 2.7
v -0.2 0.7 2.6
v 0.5 0.7 2.6
v -0.3 0.7 0.7
v -0.2 0.7 0.7
v -0.3 0.7 0.6
v -0.2 0.7 0.6
v 0.3 0.7 -0.8
v 0.5 0.7 -0.8
v 0.3 0.7 -0.9
v 0.5 0.7 -0.9
v -0.2 0.8 2.6
v 0.6 0.8 2.6
v -0.2 0.8 2.5
v 0.6 0.8 2.5
v -0.3 0.8 0.8
v -0.2 0.8 0.8
v -0.4 0.8 0.7
v -0.3 0.8 0.7
v -0.2 0.8 0.7
v 0.6 0.8 0.7
v 0.7 0.8 0.7
v -0.4 0.8 0.6
v -0.3 0.8 0.6
v 0.6 0.8 0.6
v 0.7 0.8 0.6
v 0.5 0.8 -0.8
v 0.6 0.8 -0.8
v 0.5 0.8 -0.9
v 0.6 0.8 -0.9
v 0.7 0.8 -0.9
v 0.8 0.8 -0.9
v 0.7 0.8 -1
v 0.8 0.8 -1
v -0.2 0.9 2.5
v 0.6 0.9 2.5
v -0.1 0.9 2.4
v 0.5 0.9 2.4
v -0.2 0.9 1.9
v -0.1 0.9 1.9
v 0.5 0.9 1.9
v 0.6 0.9 1.9
v -0.2 0.9 1.7
v -0.1 0.9 1.7
v 0.5 0.9 1.7
v 0.6 0.9 1.7
v -0.2 0.9 1.2
v -0.1 0.9 1.2
v 0.5 0.9 1.2
v 0.6 0.9 1.2
v -0.2 0.9 1
v -0.1 0.9 1
v 0.5 0.9 1
v 0.6 0.9 1
v -0.3 0.9 0.7
v -0.2 0.9 0.7
v -0.1 0.9 0.7
v 0.5 0.9 0.7
v 0.6 0.9 0.7
v -0.5 0.9 0.6
v -0.4 0.9 0.6
v -0.3 0.9 0.6
v -0.2 0.9 0.6
v 0.7 0.9 0.6
v 0.8 0.9 0.6
v -0.4 0.9 0.5
v 0.7 0.9 0.5
v -0.5 0.9 -0.9
v -0.4 0.9 -0.9
v 0.7 0.9 -0.9
v 0.8 0.9 -0.9
v 0 0.9 -1.6
v 0.2 0.9 -1.6
v 0 0.9 -1.8
v 0.2 0.9 -1.8
v -0.1 1 2.4
v 0.5 1 2.4
v 0 1 2.3
v 0.4 1 2.3
v -0.1 1 1.9
v 0 1 1.9
v 0.4 1 1.9
v 0.5 1 1.9
v -0.1 1 1.7
v 0 1 1.7
v 0.4 1 1.7
v 0.5 1 1.7
v -0.1 1 1.2
v 0 1 1.2
v 0.4 1 1.2
v 0.5 1 1.2
v -0.1 1 1
v 0 1 1
v 0.4 1 1
v 0.5 1 1
v -0.1 1 0.8
v 0 1 0.8
v 0.4 1 0.7
v 0.5 1 0.7
v 0.7 1 0.7
v -0.4 1 0.6
v -0.3 1 0.6
v 0.5 1 0.6
v 0.6 1 0.6
v -0.4 1 0.5
v -0.3 1 0.5
v 0.6 1 0.5
v 0.7 1 0.5
v 0.6 1 -0.8
v 0.6 1 -0.9
v 0.7 1 -0.9
v -0.4 1 -1
v -0.3 1 -1
v -0.1 1 -1.6
v 0 1 -1.6
v -0.1 1 -1.8
v 0 1 -1.8
v 0 1.1 2.3
v 0.4 1.1 2.3
v 0.1 1.1 2.2
v 0.3 1.1 2.2
v 0 1.1 1.9
v 0.1 1.1 1.9
v 0.3 1.1 1.9
v 0.4 1.1 1.9
v 0 1.1 1.7
v 0.1 1.1 1.7
v 0.3 1.1 1.7
v 0.4 1.1 1.7
v 0 1.1 1.2
v 0.1 1.1 1.2
v 0.3 1.1 1.2
v 0.4 1.1 1.2
v 0 1.1 1
v 0.1 1.1 1
v 0.3 1.1 1
v 0.4 1.1 1
v -0.1 1.1 0.8
v 0 1.1 0.8
v 0.1 1.1 0.8
v -0.2 1.1 0.7
v -0.1 1.1 0.7
v 0 1.1 0.7
v 0.3 1.1 0.7
v 0.4 1.1 0.7
v -0.3 1.1 0.6
v -0.2 1.1 0.6
v -0.1 1.1 0.6
v 0.5 1.1 0.6
v 0.6 1.1 0.6
v -0.2 1.1 0.5
v 0.5 1.1 0.5
v 0.6 1.1 0.5
v -0.2 1.1 -0.9
v -0.1 1.1 -0.9
v 0.3 1.1 -0.9
v 0.5 1.1 -0.9
v -0.3 1.1 -1
v 0.3 1.1 -1
v 0.5 1.1 -1
v 0.1 1.2 2.2
v 0.3 1.2 2.2
v 0.1 1.2 1.9
v 0.3 1.2 1.9
v 0.1 1.2 1.7
v 0.3 1.2 1.7
v 0.1 1.2 1.2
v 0.3 1.2 1.2
v 0.1 1.2 1
v 0.3 1.2 1
v 0 1.2 0.8
v 0.1 1.2 0.8
v -0.1 1.2 0.7
v 0 1.2 0.7
v 0.3 1.2 0.7
v 0.5 1.2 0.7
v -0.2 1.2 0.6
v -0.1 1.2 0.6
v -0.2 1.2 0.5
v -0.1 1.2 0.5
v 0.5 1.2 0.5
v 0.6 1.2 0.5
v -0.1 1.2 0.4
v 0.5 1.2 0.4
v -0.1 1.2 -0.8
v 0.5 1.2 -0.8
v -0.2 1.2 -0.9
v -0.1 1.2 -0.9
v 0.5 1.2 -0.9
v 0.6 1.2 -0.9
v -0.3 1.2 -1.6
v -0.2 1.2 -1.6
v 0 1.2 -1.6
v 0.2 1.2 -1.6
v 0.4 1.2 -1.6
v 0.5 1.2 -1.6
v -0.3 1.2 -1.7
v -0.2 1.2 -1.7
v 0 1.2 -1.7
v 0.2 1.2 -1.7
v 0.4 1.2 -1.7
v 0.5 1.2 -1.7
v -0.3 1.2 -1.8
v -0.2 1.2 -1.8
v 0.4 1.2 -1.8
v 0.5 1.2 -1.8
v -0.2 1.2 -1.9
v -0.1 1.2 -1.9
v 0 1.2 -1.9
v 0.2 1.2 -1.9
v 0.3 1.2 -1.9
v 0.4 1.2 -1.9
v -0.1 1.2 -2
v 0 1.2 -2
v 0.2 1.2 -2
v 0.3 1.2 -2
v -0.1 1.3 0.4
v 0.5 1.3 0.4
v -0.1 1.3 -0.8
v 0.5 1.3 -0.8
v -0.4 1.4 -1
v -0.3 1.4 -1
v 0.5 1.4 -1
v 0.6 1.4 -1
v -0.4 1.4 -1.2
v -0.3 1.4 -1.2
v 0.5 1.4 -1.2
v 0.6 1.4 -1.2
v -0.4 1.4 -1.5
v -0.3 1.4 -1.5
v 0.5 1.4 -1.5
v 0.6 1.4 -1.5
v -0.4 1.4 -1.6
v -0.3 1.4 -1.6
v -0.2 1.4 -1.6
v -0.1 1.4 -1.6
v 0 1.4 -1.6
v 0.2 1.4 -1.6
v 0.3 1.4 -1.6
v 0.4 1.4 -1.6
v 0.5 1.4 -1.6
v 0.6 1.4 -1.6
v -0.2 1.4 -1.7
v -0.1 1.4 -1.7
v 0 1.4 -1.7
v 0.2 1.4 -1.7
v 0.3 1.4 -1.7
v 0.4 1.4 -1.7
v -0.3 1.5 -1
v 0.5 1.5 -1
v -0.5 1.5 -1.2
v -0.4 1.5 -1.2
v -0.3 1.5 -1.2
v -0.1 1.5 -1.2
v 0.3 1.5 -1.2
v 0.5 1.5 -1.2
v 0.6 1.5 -1.2
v 0.7 1.5 -1.2
v 0.6 1.5 -1.3
v -0.5 1.5 -1.4
v -0.4 1.5 -1.4
v -0.3 1.5 -1.4
v 0.5 1.5 -1.4
v 0.6 1.5 -1.4
v 0.7 1.5 -1.4
v -0.4 1.5 -1.5
v -0.3 1.5 -1.5
v -0.2 1.5 -1.5
v 0 1.5 -1.5
v 0.2 1.5 -1.5
v 0.4 1.5 -1.5
v 0.5 1.5 -1.5
v 0.6 1.5 -1.5
v -0.3 1.5 -1.6
v -0.2 1.5 -1.6
v 0 1.5 -1.6
v 0.2 1.5 -1.6
v 0.4 1.5 -1.6
v 0.5 1.5 -1.6
v -0.1 1.6 -1.2
v 0.3 1.6 -1.2
v 0.3 1.6 -1.3
v -0.3 1.6 -1.4
v -0.2 1.6 -1.4
v -0.1 1.6 -1.4
v 0.3 1.6 -1.4
v 0.4 1.6 -1.4
v 0.5 1.6 -1.4
v -0.3 1.6 -1.5
v -0.2 1.6 -1.5
v -0.1 1.6 -1.5
v 0.3 1.6 -1.5
v 0.4 1.6 -1.5
v 0.5 1.6 -1.5
v -0.4 1.7 -1.2
v -0.3 1.7 -1.2
v 0.5 1.7 -1.2
v 0.6 1.7 -1.2
v -0.4 1.7 -1.4
v -0.3 1.7 -1.4
v -0.2 1.7 -1.4
v -0.1 1.7 -1.4
v 0.3 1.7 -1.4
v 0.4 1.7 -1.4
v 0.5 1.7 -1.4
v 0.6 1.7 -1.4
v -0.2 1.7 -1.5
v -0.1 1.7 -1.5
v 0.3 1.7 -1.5
v 0.4 1.7 -1.5
v -0.3 1.8 -1.2
v -0.2 1.8 -1.2
v 0.4 1.8 -1.2
v 0.5 1.8 -1.2
v -0.3 1.8 -1.4
v -0.2 1.8 -1.4
v 0.4 1.8 -1.4
v 0.5 1.8 -1.4
v -0.2 1.9 -1.2
v -0.1 1.9 -1.2
v 0.3 1.9 -1.2
v 0.4 1.9 -1.2
v -0.2 1.9 -1.4
v -0.1 1.9 -1.4
v 0.3 1.9 -1.4
v 0.4 1.9 -1.4

# faces
f 5/4/1 2/4/1 1/4/1
f 6/4/1 4/4/1 3/4/1
f 7/4/1 4/4/1 6/4/1
f 7/4/1 6/4/1 5/4/1
f 10/4/1 5/4/1 1/4/1
f 10/4/1 8/4/1 7/4/1
f 10/4/1 7/4/1 5/4/1
f 11/4/1 8/4/1 10/4/1
f 12/5/1 10/5/1 9/5/1
f 12/5/1 11/5/1 10/5/1
f 13/5/1 11/5/1 12/5/1
f 16/7/1 15/7/1 14/7/1
f 17/7/1 15/7/1 16/7/1
f 26/4/1 19/4/1 18/4/1
f 27/4/1 19/4/1 26/4/1
f 28/4/1 21/4/1 20/4/1
f 29/4/1 23/4/1 22/4/1
f 30/4/1 29/4/1 28/4/1
f 30/4/1 28/4/1 20/4/1
f 31/4/1 23/4/1 29/4/1
f 31/4/1 29/4/1 30/4/1
f 32/4/1 25/4/1 24/4/1
f 36/4/1 32/4/1 24/4/1
f 36/4/1 33/4/1 32/4/1
f 37/4/1 33/4/1 36/4/1
f 38/5/1 35/5/1 34/5/1
f 39/5/1 35/5/1 38/5/1
f 40/5/1 35/5/1 39/5/1
f 45/5/1 42/5/1 41/5/1
f 46/5/1 42/5/1 45/5/1
f 47/5/1 44/5/1 43/5/1
f 48/6/1 45/6/1 44/6/1
f 48/5/1 44/5/1 47/5/1
f 48/6/1 46/6/1 45/6/1
f 49/6/1 46/6/1 48/6/1
f 52/5/1 51/5/1 50/5/1
f 53/5/1 51/5/1 52/5/1
f 54/5/1 51/5/1 53/5/1
f 55/5/1 51/5/1 54/5/1
f 56/5/1 51/5/1 55/5/1
f 58/7/1 55/7/1 54/7/1
f 59/7/1 55/7/1 58/7/1
f 60/7/1 58/7/1 57/7/1
f 61/7/1 58/7/1 60/7/1
f 65/5/1 63/5/1 62/5/1
f 66/5/1 63/5/1 65/5/1
f 68/5/1 65/5/1 64/5/1
f 68/5/1 66/5/1 65/5/1
f 69/5/1 66/5/1 68/5/1
f 70/5/1 68/5/1 67/5/1
f 71/5/1 68/5/1 70/5/1
f 73/5/1 72/5/1 71/5/1
f 74/5/1 72/5/1 73/5/1
f 79/5/1 76/5/1 75/5/1
f 79/5/1 77/5/1 76/5/1
f 80/6/1 78/6/1 77/6/1
f 80/5/1 77/5/1 79/5/1
f 81/6/1 78/6/1 80/6/1
f 84/5/1 82/5/1 81/5/1
f 85/7/1 83/7/1 82/7/1
f 85/5/1 82/5/1 84/5/1
f 86/7/1 83/7/1 85/7/1
f 91/5/1 88/5/1 87/5/1
f 92/5/1 88/5/1 91/5/1
f 94/5/1 90/5/1 89/5/1
f 95/5/1 90/5/1 94/5/1
f 96/7/1 94/7/1 93/7/1
f 97/7/1 94/7/1 96/7/1
f 100/7/1 99/7/1 98/7/1
f 101/7/1 99/7/1 100/7/1
f 107/5/1 103/5/1 102/5/1
f 108/5/1 103/5/1 107/5/1
f 109/5/1 105/5/1 104/5/1
f 110/5/1 105/5/1 109/5/1
f 111/5/1 105/5/1 110/5/1
f 116/5/1 107/5/1 106/5/1
f 117/5/1 107/5/1 116/5/1
f 119/5/1 111/5/1 110/5/1
f 119/5/1 112/5/1 111/5/1
f 120/5/1 112/5/1 119/5/1
f 121/5/1 116/5/1 115/5/1
f 122/5/1 118/5/1 117/5/1
f 123/5/1 118/5/1 122/5/1
f 124/5/1 112/5/1 120/5/1
f 125/6/1 113/6/1 112/6/1
f 125/5/1 112/5/1 124/5/1
f 126/5/1 114/5/1 113/5/1
f 126/6/1 113/6/1 125/6/1
f 127/6/1 115/6/1 114/6/1
f 127/5/1 114/5/1 126/5/1
f 128/5/1 121/5/1 115/5/1
f 128/6/1 115/6/1 127/6/1
f 128/5/1 122/5/1 121/5/1
f 129/5/1 122/5/1 128/5/1
f 133/5/1 132/5/1 131/5/1
f 134/5/1 132/5/1 133/5/1
f 137/5/1 130/5/1 129/5/1
f 138/5/1 130/5/1 137/5/1
f 141/5/1 135/5/1 134/5/1
f 142/5/1 135/5/1 141/5/1
f 143/7/1 136/7/1 135/7/1
f 143/5/1 135/5/1 142/5/1
f 144/5/1 139/5/1 138/5/1
f 145/6/1 140/6/1 139/6/1
f 145/5/1 139/5/1 144/5/1
f 146/6/1 140/6/1 145/6/1
f 149/7/1 136/7/1 143/7/1
f 150/7/1 136/7/1 149/7/1
f 151/3/1 148/3/1 147/3/1
f 152/3/1 148/3/1 151/3/1
f 153/7/1 152/7/1 151/7/1
f 154/7/1 152/7/1 153/7/1
f 157/7/1 156/7/1 155/7/1
f 158/7/1 156/7/1 157/7/1
f 161/7/1 160/7/1 159/7/1
f 162/7/1 160/7/1 161/7/1
f 167/5/1 164/5/1 163/5/1
f 168/5/1 164/5/1 167/5/1
f 171/5/1 166/5/1 165/5/1
f 172/5/1 166/5/1 171/5/1
f 173/4/1 169/4/1 168/4/1
f 173/4/1 168/4/1 167/4/1
f 174/4/1 169/4/1 173/4/1
f 175/4/1 169/4/1 174/4/1
f 180/5/1 171/5/1 170/5/1
f 181/5/1 171/5/1 180/5/1
f 182/5/1 176/5/1 175/5/1
f 183/6/1 177/6/1 176/6/1
f 183/5/1 176/5/1 182/5/1
f 184/5/1 178/5/1 177/5/1
f 184/6/1 177/6/1 183/6/1
f 185/6/1 179/6/1 178/6/1
f 185/5/1 178/5/1 184/5/1
f 186/5/1 180/5/1 179/5/1
f 186/6/1 179/6/1 185/6/1
f 187/5/1 180/5/1 186/5/1
f 196/6/1 189/6/1 188/6/1
f 197/6/1 189/6/1 196/6/1
f 200/5/1 191/5/1 190/5/1
f 201/6/1 192/6/1 191/6/1
f 201/5/1 191/5/1 200/5/1
f 202/5/1 193/5/1 192/5/1
f 202/6/1 192/6/1 201/6/1
f 203/6/1 194/6/1 193/6/1
f 203/5/1 193/5/1 202/5/1
f 204/5/1 195/5/1 194/5/1
f 204/6/1 194/6/1 203/6/1
f 205/5/1 195/5/1 204/5/1
f 206/6/1 198/6/1 197/6/1
f 207/7/1 199/7/1 198/7/1
f 207/6/1 198/6/1 206/6/1
f 208/7/1 199/7/1 207/7/1
f 210/5/1 195/5/1 205/5/1
f 211/5/1 195/5/1 210/5/1
f 213/5/1 212/5/1 211/5/1
f 214/5/1 212/5/1 213/5/1
f 217/7/1 209/7/1 208/7/1
f 218/7/1 209/7/1 217/7/1
f 219/5/1 216/5/1 215/5/1
f 220/5/1 216/5/1 219/5/1
f 229/5/1 222/5/1 221/5/1
f 230/5/1 222/5/1 229/5/1
f 231/4/1 224/4/1 223/4/1
f 232/5/1 225/5/1 224/5/1
f 232/4/1 224/4/1 231/4/1
f 233/6/1 226/6/1 225/6/1
f 233/5/1 225/5/1 232/5/1
f 234/5/1 227/5/1 226/5/1
f 234/6/1 226/6/1 233/6/1
f 235/6/1 228/6/1 227/6/1
f 235/5/1 227/5/1 234/5/1
f 236/5/1 229/5/1 228/5/1
f 236/6/1 228/6/1 235/6/1
f 237/5/1 229/5/1 236/5/1
f 241/5/1 239/5/1 238/5/1
f 242/7/1 240/7/1 239/7/1
f 242/5/1 239/5/1 241/5/1
f 243/7/1 240/7/1 242/7/1
f 251/7/1 244/7/1 243/7/1
f 252/7/1 244/7/1 251/7/1
f 253/5/1 246/5/1 245/5/1
f 254/6/1 247/6/1 246/6/1
f 254/5/1 246/5/1 253/5/1
f 255/5/1 248/5/1 247/5/1
f 255/6/1 247/6/1 254/6/1
f 256/6/1 249/6/1 248/6/1
f 256/5/1 248/5/1 255/5/1
f 257/5/1 250/5/1 249/5/1
f 257/6/1 249/6/1 256/6/1
f 258/5/1 250/5/1 257/5/1
f 260/5/1 259/5/1 258/5/1
f 261/5/1 259/5/1 260/5/1
f 265/5/1 263/5/1 262/5/1
f 266/5/1 263/5/1 265/5/1
f 268/5/1 265/5/1 264/5/1
f 268/5/1 267/5/1 266/5/1
f 268/5/1 266/5/1 265/5/1
f 269/5/1 267/5/1 268/5/1
f 271/4/1 269/4/1 268/4/1
f 271/4/1 270/4/1 269/4/1
f 272/4/1 270/4/1 271/4/1
f 273/4/1 270/4/1 272/4/1
f 281/5/1 273/5/1 272/5/1
f 281/5/1 274/5/1 273/5/1
f 282/5/1 274/5/1 281/5/1
f 283/6/1 275/6/1 274/6/1
f 283/5/1 274/5/1 282/5/1
f 284/5/1 276/5/1 275/5/1
f 284/6/1 275/6/1 283/6/1
f 285/6/1 277/6/1 276/6/1
f 285/5/1 276/5/1 284/5/1
f 286/5/1 278/5/1 277/5/1
f 286/6/1 277/6/1 285/6/1
f 287/5/1 278/5/1 286/5/1
f 288/5/1 280/5/1 279/5/1
f 289/5/1 280/5/1 288/5/1
f 296/5/1 291/5/1 290/5/1
f 297/6/1 292/6/1 291/6/1
f 297/5/1 291/5/1 296/5/1
f 298/5/1 293/5/1 292/5/1
f 298/6/1 292/6/1 297/6/1
f 299/6/1 294/6/1 293/6/1
f 299/5/1 293/5/1 298/5/1
f 300/5/1 295/5/1 294/5/1
f 300/6/1 294/6/1 299/6/1
f 301/5/1 295/5/1 300/5/1
f 306/5/1 303/5/1 302/5/1
f 307/5/1 303/5/1 306/5/1
f 308/5/1 305/5/1 304/5/1
f 309/5/1 305/5/1 308/5/1
f 311/5/1 310/5/1 309/5/1
f 312/5/1 310/5/1 311/5/1
f 314/5/1 313/5/1 312/5/1
f 315/5/1 313/5/1 314/5/1
f 318/6/1 317/6/1 316/6/1
f 319/6/1 317/6/1 318/6/1
f 320/5/1 319/5/1 318/5/1
f 321/5/1 319/5/1 320/5/1
f 322/5/1 319/5/1 321/5/1
f 325/3/1 324/3/1 323/3/1
f 326/3/1 324/3/1 325/3/1
f 327/7/1 326/7/1 325/7/1
f 328/7/1 326/7/1 327/7/1
f 331/5/1 330/5/1 329/5/1
f 332/5/1 330/5/1 331/5/1
f 334/5/1 333/5/1 332/5/1
f 335/5/1 333/5/1 334/5/1
f 337/5/1 336/5/1 335/5/1
f 342/5/1 337/5/1 335/5/1
f 343/6/1 338/6/1 337/6/1
f 343/5/1 337/5/1 342/5/1
f 344/5/1 339/5/1 338/5/1
f 344/6/1 338/6/1 343/6/1
f 345/6/1 340/6/1 339/6/1
f 345/5/1 339/5/1 344/5/1
f 346/5/1 341/5/1 340/5/1
f 346/6/1 340/6/1 345/6/1
f 347/5/1 341/5/1 346/5/1
f 352/7/1 349/7/1 348/7/1
f 352/5/1 350/5/1 349/5/1
f 353/7/1 351/7/1 350/7/1
f 353/5/1 350/5/1 352/5/1
f 354/7/1 351/7/1 353/7/1
f 355/7/1 352/7/1 348/7/1
f 355/4/1 353/4/1 352/4/1
f 356/4/1 353/4/1 355/4/1
f 357/7/1 355/7/1 348/7/1
f 357/7/1 356/7/1 355/7/1
f 358/7/1 356/7/1 357/7/1
f 361/4/1 360/4/1 359/4/1
f 362/4/1 360/4/1 361/4/1
f 369/4/1 364/4/1 363/4/1
f 370/4/1 364/4/1 369/4/1
f 371/4/1 366/4/1 365/4/1
f 372/4/1 366/4/1 371/4/1
f 373/4/1 368/4/1 367/4/1
f 374/4/1 368/4/1 373/4/1
f 377/4/1 376/4/1 375/4/1
f 378/4/1 376/4/1 377/4/1
f 383/4/1 380/4/1 379/4/1
f 384/4/1 380/4/1 383/4/1
f 385/4/1 382/4/1 381/4/1
f 386/4/1 382/4/1 385/4/1
f 389/5/1 388/5/1 387/5/1
f 390/5/1 388/5/1 389/5/1
f 391/6/1 390/6/1 389/6/1
f 392/6/1 390/6/1 391/6/1
f 395/4/1 394/4/1 393/4/1
f 396/4/1 394/4/1 395/4/1
f 399/4/1 398/4/1 397/4/1
f 400/4/1 398/4/1 399/4/1
f 401/4/2 402/4/2 405/4/2
f 405/4/2 402/4/2 406/4/2
f 403/4/2 404/4/2 407/4/2
f 407/4/2 404/4/2 408/4/2
f 409/5/2 410/5/2 411/5/2
f 411/5/2 410/5/2 412/5/2
f 413/4/2 414/4/2 419/4/2
f 419/4/2 414/4/2 420/4/2
f 415/4/2 416/4/2 421/4/2
f 421/4/2 416/4/2 422/4/2
f 417/4/2 418/4/2 423/4/2
f 423/4/2 418/4/2 424/4/2
f 425/4/2 426/4/2 427/4/2
f 427/4/2 426/4/2 428/4/2
f 429/5/2 430/5/2 431/5/2
f 431/5/2 430/5/2 432/5/2
f 432/5/2 430/5/2 433/5/2
f 434/7/2 435/7/2 437/7/2
f 435/7/2 436/7/2 437/7/2
f 437/7/2 436/7/2 438/7/2
f 438/7/2 436/7/2 439/7/2
f 434/7/2 437/7/2 440/7/2
f 437/4/2 438/4/2 440/4/2
f 440/4/2 438/4/2 441/4/2
f 434/7/2 440/7/2 442/7/2
f 440/7/2 441/7/2 442/7/2
f 442/7/2 441/7/2 443/7/2
f 444/5/2 445/5/2 446/5/2
f 446/5/2 445/5/2 447/5/2
f 448/6/2 449/6/2 450/6/2
f 450/6/2 449/6/2 451/6/2
f 452/3/2 453/3/2 454/3/2
f 454/3/2 453/3/2 455/3/2
f 456/5/2 457/5/2 462/5/2
f 457/6/2 458/6/2 463/6/2
f 462/5/2 457/5/2 463/5/2
f 458/5/2 459/5/2 464/5/2
f 463/6/2 458/6/2 464/6/2
f 459/6/2 460/6/2 465/6/2
f 464/5/2 459/5/2 465/5/2
f 460/5/2 461/5/2 466/5/2
f 465/6/2 460/6/2 466/6/2
f 466/5/2 461/5/2 467/5/2
f 468/5/2 469/5/2 471/5/2
f 469/7/2 470/7/2 472/7/2
f 471/5/2 469/5/2 472/5/2
f 472/7/2 470/7/2 473/7/2
f 473/7/2 474/7/2 475/7/2
f 475/7/2 474/7/2 476/7/2
f 477/4/2 478/4/2 479/4/2
f 479/4/2 478/4/2 480/4/2
f 479/5/2 480/5/2 482/5/2
f 480/6/2 481/6/2 483/6/2
f 482/5/2 480/5/2 483/5/2
f 483/6/2 481/6/2 484/6/2
f 484/6/2 485/6/2 487/6/2
f 485/7/2 486/7/2 488/7/2
f 487/6/2 485/6/2 488/6/2
f 488/7/2 486/7/2 489/7/2
f 491/5/2 492/5/2 497/5/2
f 492/6/2 493/6/2 498/6/2
f 497/5/2 492/5/2 498/5/2
f 493/5/2 494/5/2 499/5/2
f 498/6/2 493/6/2 499/6/2
f 494/6/2 495/6/2 500/6/2
f 499/5/2 494/5/2 500/5/2
f 495/5/2 496/5/2 501/5/2
f 500/6/2 495/6/2 501/6/2
f 501/5/2 496/5/2 502/5/2
f 489/7/2 490/7/2 503/7/2
f 503/7/2 490/7/2 504/7/2
f 505/5/2 506/5/2 508/5/2
f 508/5/2 506/5/2 509/5/2
f 507/5/2 508/5/2 512/5/2
f 512/5/2 508/5/2 513/5/2
f 510/5/2 511/5/2 514/5/2
f 509/5/2 510/5/2 514/5/2
f 514/5/2 511/5/2 515/5/2
f 512/4/2 513/4/2 516/4/2
f 516/4/2 513/4/2 517/4/2
f 516/5/2 517/5/2 525/5/2
f 525/5/2 517/5/2 526/5/2
f 518/5/2 519/5/2 527/5/2
f 519/5/2 520/5/2 527/5/2
f 527/5/2 520/5/2 528/5/2
f 520/6/2 521/6/2 529/6/2
f 528/5/2 520/5/2 529/5/2
f 521/5/2 522/5/2 530/5/2
f 529/6/2 521/6/2 530/6/2
f 522/6/2 523/6/2 531/6/2
f 530/5/2 522/5/2 531/5/2
f 523/5/2 524/5/2 532/5/2
f 531/6/2 523/6/2 532/6/2
f 532/5/2 524/5/2 533/5/2
f 525/4/2 526/4/2 534/4/2
f 534/4/2 526/4/2 535/4/2
f 536/5/2 537/5/2 544/5/2
f 544/5/2 537/5/2 545/5/2
f 545/5/2 537/5/2 546/5/2
f 538/5/2 539/5/2 549/5/2
f 539/6/2 540/6/2 550/6/2
f 549/5/2 539/5/2 550/5/2
f 540/5/2 541/5/2 551/5/2
f 550/6/2 540/6/2 551/6/2
f 541/6/2 542/6/2 552/6/2
f 551/5/2 541/5/2 552/5/2
f 542/5/2 543/5/2 553/5/2
f 552/6/2 542/6/2 553/6/2
f 553/5/2 543/5/2 554/5/2
f 546/6/2 547/6/2 555/6/2
f 555/6/2 547/6/2 556/6/2
f 547/7/2 548/7/2 557/7/2
f 556/6/2 547/6/2 557/6/2
f 557/7/2 548/7/2 560/7/2
f 560/7/2 548/7/2 561/7/2
f 558/3/2 559/3/2 562/3/2
f 562/3/2 559/3/2 563/3/2
f 563/3/2 559/3/2 564/3/2
f 565/7/2 566/7/2 567/7/2
f 567/7/2 566/7/2 568/7/2
f 569/7/2 570/7/2 571/7/2
f 571/7/2 570/7/2 572/7/2
f 573/5/2 574/5/2 576/5/2
f 576/5/2 574/5/2 577/5/2
f 575/5/2 576/5/2 578/5/2
f 578/5/2 576/5/2 579/5/2
f 578/4/2 579/4/2 582/4/2
f 579/4/2 580/4/2 582/4/2
f 582/4/2 580/4/2 583/4/2
f 580/5/2 581/5/2 584/5/2
f 583/4/2 580/4/2 584/4/2
f 584/5/2 581/5/2 585/5/2
f 582/5/2 583/5/2 586/5/2
f 586/5/2 583/5/2 587/5/2
f 586/4/2 587/4/2 594/4/2
f 587/4/2 588/4/2 594/4/2
f 594/4/2 588/4/2 595/4/2
f 588/5/2 589/5/2 596/5/2
f 595/4/2 588/4/2 596/4/2
f 589/6/2 590/6/2 597/6/2
f 596/5/2 589/5/2 597/5/2
f 590/5/2 591/5/2 598/5/2
f 597/6/2 590/6/2 598/6/2
f 591/6/2 592/6/2 599/6/2
f 598/5/2 591/5/2 599/5/2
f 592/5/2 593/5/2 600/5/2
f 599/6/2 592/6/2 600/6/2
f 600/5/2 593/5/2 601/5/2
f 594/5/2 595/5/2 602/5/2
f 602/5/2 595/5/2 603/5/2
f 604/5/2 605/5/2 610/5/2
f 605/6/2 606/6/2 611/6/2
f 610/5/2 605/5/2 611/5/2
f 606/5/2 607/5/2 612/5/2
f 611/6/2 606/6/2 612/6/2
f 607/6/2 608/6/2 613/6/2
f 612/5/2 607/5/2 613/5/2
f 608/5/2 609/5/2 614/5/2
f 613/6/2 608/6/2 614/6/2
f 614/5/2 609/5/2 615/5/2
f 615/5/2 616/5/2 620/5/2
f 617/5/2 618/5/2 622/5/2
f 618/6/2 619/6/2 623/6/2
f 622/5/2 618/5/2 623/5/2
f 623/6/2 619/6/2 624/6/2
f 624/6/2 619/6/2 625/6/2
f 620/5/2 621/5/2 628/5/2
f 615/5/2 620/5/2 628/5/2
f 628/5/2 621/5/2 629/5/2
f 625/5/2 626/5/2 632/5/2
f 626/7/2 627/7/2 633/7/2
f 632/5/2 626/5/2 633/5/2
f 633/7/2 627/7/2 634/7/2
f 630/5/2 631/5/2 635/5/2
f 635/5/2 631/5/2 636/5/2
f 637/5/2 638/5/2 641/5/2
f 641/5/2 638/5/2 642/5/2
f 639/5/2 640/5/2 644/5/2
f 644/5/2 640/5/2 645/5/2
f 643/7/2 644/7/2 646/7/2
f 646/7/2 644/7/2 647/7/2
f 648/7/2 649/7/2 650/7/2
f 650/7/2 649/7/2 651/7/2
f 652/4/2 653/4/2 662/4/2
f 662/4/2 653/4/2 663/4/2
f 654/4/2 655/4/2 664/4/2
f 664/4/2 655/4/2 665/4/2
f 660/5/2 661/5/2 666/5/2
f 666/5/2 661/5/2 667/5/2
f 656/5/2 657/5/2 668/5/2
f 668/5/2 657/5/2 669/5/2
f 660/5/2 666/5/2 670/5/2
f 669/5/2 657/5/2 672/5/2
f 657/6/2 658/6/2 673/6/2
f 672/5/2 657/5/2 673/5/2
f 658/5/2 659/5/2 674/5/2
f 673/6/2 658/6/2 674/6/2
f 659/6/2 660/6/2 675/6/2
f 674/5/2 659/5/2 675/5/2
f 670/5/2 671/5/2 676/5/2
f 675/6/2 660/6/2 676/6/2
f 660/5/2 670/5/2 676/5/2
f 676/5/2 671/5/2 677/5/2
f 677/5/2 671/5/2 678/5/2
f 679/5/2 680/5/2 682/5/2
f 680/5/2 681/5/2 682/5/2
f 682/5/2 681/5/2 683/5/2
f 683/5/2 681/5/2 684/5/2
f 683/6/2 684/6/2 688/6/2
f 684/6/2 685/6/2 688/6/2
f 688/6/2 685/6/2 689/6/2
f 686/5/2 687/5/2 690/5/2
f 690/5/2 687/5/2 691/5/2
f 691/5/2 687/5/2 692/5/2
f 692/5/2 687/5/2 693/5/2
f 693/5/2 687/5/2 694/5/2
f 692/7/2 693/7/2 697/7/2
f 697/7/2 693/7/2 698/7/2
f 695/7/2 696/7/2 699/7/2
f 696/4/2 697/4/2 699/4/2
f 699/4/2 697/4/2 700/4/2
f 695/7/2 699/7/2 701/7/2
f 699/7/2 700/7/2 701/7/2
f 701/7/2 700/7/2 702/7/2
f 703/4/2 704/4/2 711/4/2
f 711/4/2 704/4/2 712/4/2
f 705/4/2 706/4/2 713/4/2
f 713/4/2 706/4/2 714/4/2
f 707/4/2 708/4/2 715/4/2
f 715/4/2 708/4/2 716/4/2
f 709/4/2 710/4/2 717/4/2
f 717/4/2 710/4/2 718/4/2
f 718/4/2 719/4/2 722/4/2
f 722/4/2 719/4/2 723/4/2
f 720/5/2 721/5/2 724/5/2
f 724/5/2 721/5/2 725/5/2
f 725/5/2 721/5/2 726/5/2
f 728/5/2 729/5/2 731/5/2
f 727/5/2 728/5/2 731/5/2
f 729/6/2 730/6/2 732/6/2
f 731/5/2 729/5/2 732/5/2
f 732/6/2 730/6/2 733/6/2
f 734/7/2 735/7/2 736/7/2
f 736/7/2 735/7/2 737/7/2
f 738/4/2 739/4/2 743/4/2
f 743/4/2 739/4/2 744/4/2
f 742/4/2 743/4/2 744/4/2
f 740/4/2 741/4/2 745/4/2
f 745/4/2 741/4/2 746/4/2
f 744/4/2 745/4/2 748/4/2
f 746/4/2 747/4/2 748/4/2
f 745/4/2 746/4/2 748/4/2
f 742/4/2 744/4/2 751/4/2
f 748/4/2 749/4/2 751/4/2
f 744/4/2 748/4/2 751/4/2
f 751/4/2 749/4/2 752/4/2
f 752/4/2 749/4/2 753/4/2
f 750/5/2 751/5/2 754/5/2
f 751/5/2 752/5/2 754/5/2
f 754/5/2 752/5/2 755/5/2
f 761/5/3 757/5/3 756/5/3
f 762/5/3 760/5/3 759/5/3
f 763/4/3 761/4/3 760/4/3
f 763/5/3 760/5/3 762/5/3
f 764/5/3 757/5/3 761/5/3
f 764/4/3 761/4/3 763/4/3
f 765/4/3 758/4/3 757/4/3
f 765/5/3 757/5/3 764/5/3
f 766/4/3 758/4/3 765/4/3
f 769/5/3 768/5/3 767/5/3
f 772/5/3 771/5/3 770/5/3
f 773/5/3 771/5/3 772/5/3
f 777/5/3 768/5/3 769/5/3
f 778/5/3 774/5/3 773/5/3
f 779/4/3 775/4/3 774/4/3
f 779/5/3 774/5/3 778/5/3
f 780/5/3 776/5/3 775/5/3
f 780/4/3 775/4/3 779/4/3
f 781/4/3 777/4/3 776/4/3
f 781/5/3 776/5/3 780/5/3
f 782/5/3 768/5/3 777/5/3
f 782/4/3 777/4/3 781/4/3
f 783/5/3 768/5/3 782/5/3
f 788/5/3 787/5/3 786/5/3
f 789/5/3 787/5/3 788/5/3
f 792/5/3 791/5/3 790/5/3
f 793/5/3 791/5/3 792/5/3
f 795/5/3 785/5/3 784/5/3
f 796/5/3 795/5/3 794/5/3
f 797/5/3 785/5/3 795/5/3
f 797/5/3 795/5/3 796/5/3
f 800/5/3 799/5/3 798/5/3
f 801/5/3 799/5/3 800/5/3
f 804/5/3 803/5/3 802/5/3
f 805/5/3 803/5/3 804/5/3
f 808/5/3 807/5/3 806/5/3
f 809/5/3 807/5/3 808/5/3
f 812/5/3 811/5/3 810/5/3
f 813/5/3 811/5/3 812/5/3
f 817/5/3 815/5/3 814/5/3
f 818/5/3 815/5/3 817/5/3
f 820/5/3 817/5/3 816/5/3
f 821/5/3 817/5/3 820/5/3
f 825/5/3 820/5/3 819/5/3
f 826/5/3 820/5/3 825/5/3
f 827/5/3 823/5/3 822/5/3
f 828/5/3 823/5/3 827/5/3
f 830/5/3 825/5/3 824/5/3
f 831/5/3 825/5/3 830/5/3
f 832/5/3 829/5/3 828/5/3
f 833/5/3 829/5/3 832/5/3
f 837/5/3 835/5/3 834/5/3
f 838/5/3 835/5/3 837/5/3
f 841/5/3 837/5/3 836/5/3
f 842/5/3 837/5/3 841/5/3
f 843/5/3 839/5/3 838/5/3
f 844/5/3 839/5/3 843/5/3
f 847/5/3 841/5/3 840/5/3
f 848/5/3 841/5/3 847/5/3
f 849/5/3 845/5/3 844/5/3
f 850/5/3 845/5/3 849/5/3
f 852/5/3 847/5/3 846/5/3
f 853/5/3 847/5/3 852/5/3
f 854/5/3 851/5/3 850/5/3
f 855/5/3 851/5/3 854/5/3
f 859/5/3 857/5/3 856/5/3
f 861/5/3 859/5/3 858/5/3
f 862/5/3 857/5/3 859/5/3
f 862/5/3 859/5/3 861/5/3
f 865/5/3 861/5/3 860/5/3
f 866/5/3 864/5/3 863/5/3
f 867/5/3 864/5/3 866/5/3
f 868/5/3 861/5/3 865/5/3
f 869/5/3 861/5/3 868/5/3
f 874/5/3 871/5/3 870/5/3
f 875/5/3 871/5/3 874/5/3
f 877/4/3 873/4/3 872/4/3
f 878/4/3 873/4/3 877/4/3
f 881/5/3 876/5/3 875/5/3
f 881/5/3 875/5/3 874/5/3
f 882/5/3 876/5/3 881/5/3
f 883/5/3 876/5/3 882/5/3
f 885/5/3 879/5/3 878/5/3
f 886/5/3 879/5/3 885/5/3
f 887/5/3 881/5/3 880/5/3
f 888/5/3 881/5/3 887/5/3
f 889/5/3 884/5/3 883/5/3
f 889/5/3 883/5/3 882/5/3
f 890/5/3 884/5/3 889/5/3
f 892/5/3 885/5/3 878/5/3
f 893/5/3 885/5/3 892/5/3
f 894/5/3 891/5/3 890/5/3
f 895/5/3 891/5/3 894/5/3
f 898/5/3 897/5/3 896/5/3
f 899/5/3 897/5/3 898/5/3
f 902/5/3 901/5/3 900/5/3
f 903/5/3 901/5/3 902/5/3
f 908/5/3 905/5/3 904/5/3
f 909/5/3 905/5/3 908/5/3
f 910/5/3 907/5/3 906/5/3
f 911/5/3 907/5/3 910/5/3
f 912/5/3 911/5/3 910/5/3
f 913/5/3 911/5/3 912/5/3
f 916/4/3 915/4/3 914/4/3
f 917/4/3 915/4/3 916/4/3
f 918/4/3 915/4/3 917/4/3
f 919/4/3 915/4/3 918/4/3
f 920/4/3 915/4/3 919/4/3
f 922/4/3 918/4/3 917/4/3
f 923/5/3 919/5/3 918/5/3
f 923/4/3 918/4/3 922/4/3
f 924/5/3 919/5/3 923/5/3
f 925/4/3 922/4/3 921/4/3
f 926/4/3 922/4/3 925/4/3
f 929/4/3 928/4/3 927/4/3
f 934/4/3 930/4/3 929/4/3
f 934/4/3 929/4/3 927/4/3
f 935/4/3 930/4/3 934/4/3
f 937/6/3 932/6/3 931/6/3
f 938/6/3 932/6/3 937/6/3
f 939/4/3 936/4/3 935/4/3
f 939/4/3 934/4/3 933/4/3
f 939/4/3 935/4/3 934/4/3
f 940/4/3 936/4/3 939/4/3
f 941/4/3 936/4/3 940/4/3
f 943/4/3 942/4/3 941/4/3
f 943/4/3 941/4/3 940/4/3
f 944/4/3 942/4/3 943/4/3
f 949/5/3 946/5/3 945/5/3
f 950/5/3 946/5/3 949/5/3
f 951/4/3 948/4/3 947/4/3
f 952/4/3 948/4/3 951/4/3
f 955/4/3 954/4/3 953/4/3
f 956/4/3 954/4/3 955/4/3
f 959/4/3 958/4/3 957/4/3
f 960/4/3 958/4/3 959/4/3
f 963/4/3 962/4/3 961/4/3
f 964/4/3 962/4/3 963/4/3
f 967/4/3 966/4/3 965/4/3
f 969/4/3 967/4/3 965/4/3
f 969/4/3 968/4/3 967/4/3
f 970/4/3 968/4/3 969/4/3
f 973/4/3 972/4/3 971/4/3
f 974/4/3 972/4/3 973/4/3
f 977/4/3 976/4/3 975/4/3
f 978/4/3 976/4/3 977/4/3
f 981/4/3 980/4/3 979/4/3
f 982/4/3 980/4/3 981/4/3
f 985/4/3 984/4/3 983/4/3
f 986/4/3 984/4/3 985/4/3
f 989/5/3 988/5/3 987/5/3
f 990/5/3 988/5/3 989/5/3
f 992/5/3 990/5/3 989/5/3
f 992/5/3 991/5/3 990/5/3
f 993/5/3 991/5/3 992/5/3
f 994/5/3 991/5/3 993/5/3
f 995/5/3 991/5/3 994/5/3
f 996/5/3 994/5/3 993/5/3
f 997/5/3 994/5/3 996/5/3
f 1000/7/3 999/7/3 998/7/3
f 1001/7/3 999/7/3 1000/7/3
f 1003/7/3 1001/7/3 1000/7/3
f 1003/7/3 1002/7/3 1001/7/3
f 1004/7/3 1002/7/3 1003/7/3
f 1005/7/3 1002/7/3 1004/7/3
f 1007/7/3 1006/7/3 1005/7/3
f 1007/7/3 1005/7/3 1004/7/3
f 1009/7/3 1007/7/3 1004/7/3
f 1009/7/3 1008/7/3 1007/7/3
f 1010/7/3 1008/7/3 1009/7/3
f 1011/7/3 1008/7/3 1010/7/3
f 1012/5/3 1010/5/3 1009/5/3
f 1013/5/3 1010/5/3 1012/5/3
f 1015/7/3 1013/7/3 1012/7/3
f 1015/7/3 1014/7/3 1013/7/3
f 1016/7/3 1014/7/3 1015/7/3
f 1018/7/3 1015/7/3 1012/7/3
f 1019/7/3 1015/7/3 1018/7/3
f 1020/7/3 1015/7/3 1019/7/3
f 1021/7/3 1018/7/3 1017/7/3
f 1021/7/3 1019/7/3 1018/7/3
f 1022/7/3 1019/7/3 1021/7/3
f 1023/7/3 1019/7/3 1022/7/3
f 1024/7/3 1022/7/3 1021/7/3
f 1025/7/3 1022/7/3 1024/7/3
f 1029/7/3 1027/7/3 1026/7/3
f 1030/7/3 1029/7/3 1028/7/3
f 1031/7/3 1027/7/3 1029/7/3
f 1031/7/3 1029/7/3 1030/7/3
f 1032/7/3 1027/7/3 1031/7/3
f 1033/5/4 1034/5/4 1035/5/4
f 1035/5/4 1034/5/4 1036/5/4
f 1037/5/4 1038/5/4 1041/5/4
f 1041/5/4 1038/5/4 1042/5/4
f 1039/5/4 1040/5/4 1043/5/4
f 1043/5/4 1040/5/4 1044/5/4
f 1045/5/4 1046/5/4 1048/5/4
f 1048/5/4 1046/5/4 1049/5/4
f 1047/4/4 1048/4/4 1050/4/4
f 1050/4/4 1048/4/4 1051/4/4
f 1052/5/4 1053/5/4 1054/5/4
f 1054/5/4 1053/5/4 1055/5/4
f 1056/5/4 1057/5/4 1059/5/4
f 1059/5/4 1057/5/4 1060/5/4
f 1058/5/4 1059/5/4 1061/5/4
f 1061/5/4 1059/5/4 1062/5/4
f 1063/4/4 1064/4/4 1066/4/4
f 1066/4/4 1064/4/4 1067/4/4
f 1065/5/4 1066/5/4 1069/5/4
f 1069/5/4 1066/5/4 1070/5/4
f 1068/5/4 1069/5/4 1071/5/4
f 1068/5/4 1071/5/4 1072/5/4
f 1072/5/4 1071/5/4 1073/5/4
f 1074/5/4 1075/5/4 1078/5/4
f 1075/5/4 1076/5/4 1078/5/4
f 1078/5/4 1076/5/4 1079/5/4
f 1077/5/4 1078/5/4 1080/5/4
f 1080/5/4 1078/5/4 1081/5/4
f 1082/5/4 1083/5/4 1084/5/4
f 1082/5/4 1084/5/4 1085/5/4
f 1085/5/4 1084/5/4 1086/5/4
f 1087/5/4 1088/5/4 1089/5/4
f 1089/5/4 1088/5/4 1090/5/4
f 1091/5/4 1092/5/4 1093/5/4
f 1093/5/4 1092/5/4 1094/5/4
f 1095/4/4 1096/4/4 1097/4/4
f 1097/4/4 1096/4/4 1098/4/4
f 1099/4/4 1100/4/4 1101/4/4
f 1101/4/4 1100/4/4 1102/4/4
f 1103/4/4 1104/4/4 1105/4/4
f 1105/4/4 1104/4/4 1106/4/4
f 1107/4/4 1108/4/4 1109/4/4
f 1109/4/4 1108/4/4 1110/4/4
f 1111/4/4 1112/4/4 1113/4/4
f 1113/4/4 1112/4/4 1114/4/4
f 1115/4/4 1116/4/4 1117/4/4
f 1117/4/4 1116/4/4 1118/4/4
f 1119/4/4 1120/4/4 1122/4/4
f 1120/4/4 1121/4/4 1122/4/4
f 1122/4/4 1121/4/4 1123/4/4
f 1124/4/4 1125/4/4 1126/4/4
f 1126/4/4 1125/4/4 1127/4/4
f 1128/4/4 1129/4/4 1130/4/4
f 1130/4/4 1129/4/4 1131/4/4
f 1131/4/4 1129/4/4 1133/4/4
f 1132/4/4 1133/4/4 1134/4/4
f 1133/4/4 1129/4/4 1135/4/4
f 1134/4/4 1133/4/4 1135/4/4
f 1136/4/4 1137/4/4 1138/4/4
f 1138/4/4 1137/4/4 1139/4/4
f 1140/4/4 1141/4/4 1142/4/4
f 1142/4/4 1141/4/4 1143/4/4
f 1147/5/4 1148/5/4 1149/5/4
f 1143/4/4 1141/4/4 1152/4/4
f 1146/4/4 1147/4/4 1153/4/4
f 1147/5/4 1149/5/4 1154/5/4
f 1153/4/4 1147/4/4 1154/4/4
f 1149/6/4 1150/6/4 1155/6/4
f 1144/5/4 1145/5/4 1157/5/4
f 1157/5/4 1145/5/4 1158/5/4
f 1154/5/4 1149/5/4 1159/5/4
f 1149/6/4 1155/6/4 1160/6/4
f 1159/5/4 1149/5/4 1160/5/4
f 1155/5/4 1156/5/4 1161/5/4
f 1160/6/4 1155/6/4 1161/6/4
f 1161/5/4 1156/5/4 1162/5/4
f 1151/4/4 1152/4/4 1163/4/4
f 1152/4/4 1141/4/4 1164/4/4
f 1163/4/4 1152/4/4 1164/4/4
f 1164/4/4 1165/4/4 1166/4/4
f 1166/4/4 1165/4/4 1167/4/4
f 1168/4/4 1169/4/4 1172/4/4
f 1169/5/4 1170/5/4 1173/5/4
f 1172/4/4 1169/4/4 1173/4/4
f 1173/5/4 1170/5/4 1174/5/4
f 1171/4/4 1172/4/4 1175/4/4
f 1172/4/4 1173/4/4 1175/4/4
f 1171/4/4 1175/4/4 1176/4/4
f 1171/4/4 1176/4/4 1179/4/4
f 1177/6/4 1178/6/4 1180/6/4
f 1180/6/4 1178/6/4 1181/6/4
f 1171/4/4 1179/4/4 1182/4/4
f 1171/4/4 1182/4/4 1183/4/4
f 1171/4/4 1183/4/4 1184/4/4
f 1184/4/4 1183/4/4 1185/4/4
f 1180/5/4 1181/5/4 1186/5/4
f 1171/4/4 1184/4/4 1187/4/4
f 1186/5/4 1181/5/4 1189/5/4
f 1189/5/4 1181/5/4 1190/5/4
f 1187/4/4 1188/4/4 1191/4/4
f 1189/6/4 1190/6/4 1194/6/4
f 1194/6/4 1190/6/4 1195/6/4
f 1171/4/4 1187/4/4 1196/4/4
f 1187/4/4 1191/4/4 1196/4/4
f 1196/4/4 1191/4/4 1197/4/4
f 1191/5/4 1192/5/4 1198/5/4
f 1197/4/4 1191/4/4 1198/4/4
f 1192/6/4 1193/6/4 1199/6/4
f 1198/5/4 1192/5/4 1199/5/4
f 1199/6/4 1193/6/4 1200/6/4
f 1198/5/4 1199/5/4 1201/5/4
f 1201/5/4 1199/5/4 1202/5/4
f 1203/5/4 1204/5/4 1206/5/4
f 1204/6/4 1205/6/4 1207/6/4
f 1206/5/4 1204/5/4 1207/5/4
f 1207/6/4 1205/6/4 1208/6/4
f 1206/6/4 1207/6/4 1209/6/4
f 1207/6/4 1208/6/4 1209/6/4
f 1209/6/4 1208/6/4 1210/6/4
f 1210/6/4 1208/6/4 1211/6/4
f 1209/5/4 1210/5/4 1212/5/4
f 1212/5/4 1210/5/4 1213/5/4
f 1214/4/4 1215/4/4 1216/4/4
f 1216/4/4 1215/4/4 1217/4/4
f 1218/7/4 1219/7/4 1220/7/4
f 1220/7/4 1219/7/4 1221/7/4
f 1221/7/4 1222/7/4 1223/7/4
f 1223/7/4 1222/7/4 1224/7/4
f 1224/7/4 1222/7/4 1225/7/4
f 1224/4/4 1225/4/4 1227/4/4
f 1225/7/4 1226/7/4 1228/7/4
f 1227/4/4 1225/4/4 1228/4/4
f 1228/7/4 1226/7/4 1229/7/4
f 1228/4/4 1229/4/4 1231/4/4
f 1229/7/4 1230/7/4 1232/7/4
f 1231/4/4 1229/4/4 1232/4/4
f 1232/7/4 1230/7/4 1233/7/4
f 1234/4/4 1235/4/4 1238/4/4
f 1235/7/4 1236/7/4 1239/7/4
f 1238/4/4 1235/4/4 1239/4/4
f 1239/7/4 1236/7/4 1240/7/4
f 1237/4/4 1238/4/4 1242/4/4
f 1238/7/4 1239/7/4 1243/7/4
f 1242/4/4 1238/4/4 1243/4/4
f 1243/7/4 1239/7/4 1244/7/4
f 1241/4/4 1242/4/4 1246/4/4
f 1242/7/4 1243/7/4 1247/7/4
f 1246/4/4 1242/4/4 1247/4/4
f 1247/7/4 1243/7/4 1248/7/4
f 1245/7/4 1246/7/4 1249/7/4
f 1249/7/4 1246/7/4 1250/7/4
f 1251/7/4 1252/7/4 1253/7/4
f 1253/7/4 1252/7/4 1254/7/4
f 1254/7/4 1255/7/4 1256/7/4
f 1256/7/4 1255/7/4 1257/7/4
f 1256/6/4 1257/6/4 1259/6/4
f 1257/7/4 1258/7/4 1259/7/4
f 1259/7/4 1258/7/4 1260/7/4
f 1256/6/4 1259/6/4 1261/6/4
f 1261/6/4 1259/6/4 1262/6/4
f 1262/6/4 1259/6/4 1263/6/4
f 1262/6/4 1263/6/4 1265/6/4
f 1263/7/4 1264/7/4 1266/7/4
f 1265/6/4 1263/6/4 1266/6/4
f 1266/7/4 1264/7/4 1267/7/4
f 1265/7/4 1266/7/4 1269/7/4
f 1269/7/4 1266/7/4 1270/7/4
f 1268/7/4 1269/7/4 1271/7/4
f 1271/7/4 1269/7/4 1272/7/4
f 1273/5/4 1274/5/4 1276/5/4
f 1276/5/4 1274/5/4 1277/5/4
f 1277/5/4 1274/5/4 1278/5/4
f 1278/5/4 1274/5/4 1279/5/4
f 1275/6/4 1276/6/4 1282/6/4
f 1282/6/4 1276/6/4 1283/6/4
f 1277/6/4 1278/6/4 1284/6/4
f 1278/5/4 1279/5/4 1285/5/4
f 1284/6/4 1278/6/4 1285/6/4
f 1279/5/4 1280/5/4 1285/5/4
f 1285/5/4 1280/5/4 1286/5/4
f 1286/5/4 1280/5/4 1287/5/4
f 1281/5/4 1282/5/4 1289/5/4
f 1289/5/4 1282/5/4 1290/5/4
f 1286/7/4 1287/7/4 1292/7/4
f 1288/6/4 1289/6/4 1293/6/4
f 1293/6/4 1289/6/4 1294/6/4
f 1290/1/4 1291/1/4 1295/1/4
f 1295/1/4 1291/1/4 1296/1/4
f 1292/7/4 1287/7/4 1298/7/4
f 1298/7/4 1287/7/4 1299/7/4
f 1295/1/4 1296/1/4 1300/1/4
f 1294/5/4 1295/5/4 1300/5/4
f 1300/1/4 1296/1/4 1301/1/4
f 1294/5/4 1300/5/4 1303/5/4
f 1300/5/4 1301/5/4 1303/5/4
f 1303/5/4 1301/5/4 1304/5/4
f 1304/5/4 1301/5/4 1305/5/4
f 1297/7/4 1298/7/4 1306/7/4
f 1306/7/4 1298/7/4 1307/7/4
f 1298/6/4 1299/6/4 1308/6/4
f 1307/7/4 1298/7/4 1308/7/4
f 1308/6/4 1299/6/4 1309/6/4
f 1302/6/4 1303/6/4 1310/6/4
f 1310/6/4 1303/6/4 1311/6/4
f 1308/7/4 1309/7/4 1313/7/4
f 1311/5/4 1312/5/4 1314/5/4
f 1314/5/4 1312/5/4 1315/5/4
f 1313/7/4 1309/7/4 1319/7/4
f 1319/7/4 1309/7/4 1320/7/4
f 1315/6/4 1316/6/4 1321/6/4
f 1321/6/4 1316/6/4 1322/6/4
f 1317/6/4 1318/6/4 1323/6/4
f 1319/5/4 1320/5/4 1324/5/4
f 1318/5/4 1319/5/4 1324/5/4
f 1323/6/4 1318/6/4 1324/6/4
f 1324/5/4 1320/5/4 1325/5/4
f 1325/5/4 1320/5/4 1326/5/4
f 1322/5/4 1323/5/4 1327/5/4
f 1324/5/4 1325/5/4 1327/5/4
f 1323/5/4 1324/5/4 1327/5/4
f 1327/5/4 1325/5/4 1328/5/4
f 1329/3/4 1330/3/4 1332/3/4
f 1330/7/4 1331/7/4 1332/7/4
f 1332/7/4 1331/7/4 1333/7/4
f 1329/3/4 1332/3/4 1334/3/4
f 1332/3/4 1333/3/4 1334/3/4
f 1334/3/4 1333/3/4 1335/3/4
f 1336/3/4 1337/3/4 1339/3/4
f 1337/7/4 1338/7/4 1339/7/4
f 1339/7/4 1338/7/4 1340/7/4
f 1336/3/4 1339/3/4 1341/3/4
f 1339/3/4 1340/3/4 1341/3/4
f 1341/3/4 1340/3/4 1342/3/4
f 1343/7/4 1344/7/4 1345/7/4
f 1345/7/4 1344/7/4 1346/7/4
f 1347/7/4 1348/7/4 1349/7/4
f 1349/7/4 1348/7/4 1350/7/4
f 1351/7/4 1352/7/4 1354/7/4
f 1354/7/4 1352/7/4 1355/7/4
f 1353/7/4 1354/7/4 1357/7/4
f 1357/7/4 1354/7/4 1358/7/4
f 1356/7/4 1357/7/4 1359/7/4
f 1359/7/4 1357/7/4 1360/7/4
f 1360/7/4 1361/7/4 1362/7/4
f 1362/7/4 1361/7/4 1363/7/4
f 1363/7/4 1364/7/4 1365/7/4
f 1365/7/4 1364/7/4 1366/7/4
f 1367/7/4 1368/7/4 1370/7/4
f 1370/7/4 1368/7/4 1371/7/4
f 1369/7/4 1370/7/4 1372/7/4
f 1370/3/4 1371/3/4 1373/3/4
f 1372/7/4 1370/7/4 1373/7/4
f 1373/3/4 1371/3/4 1374/3/4
f 1373/7/4 1374/7/4 1375/7/4
f 1375/7/4 1374/7/4 1376/7/4
f 1380/4/5 1378/4/5 1377/4/5
f 1381/4/5 1378/4/5 1380/4/5
f 1386/4/5 1384/4/5 1383/4/5
f 1387/4/5 1384/4/5 1386/4/5
f 1389/4/5 1380/4/5 1379/4/5
f 1389/4/5 1381/4/5 1380/4/5
f 1389/4/5 1382/4/5 1381/4/5
f 1390/4/5 1382/4/5 1389/4/5
f 1391/4/5 1389/4/5 1379/4/5
f 1391/2/5 1390/2/5 1389/2/5
f 1392/4/5 1382/4/5 1390/4/5
f 1392/2/5 1390/2/5 1391/2/5
f 1393/4/5 1388/4/5 1387/4/5
f 1393/4/5 1387/4/5 1386/4/5
f 1393/4/5 1386/4/5 1385/4/5
f 1394/4/5 1388/4/5 1393/4/5
f 1395/4/5 1392/4/5 1391/4/5
f 1395/4/5 1391/4/5 1379/4/5
f 1396/4/5 1392/4/5 1395/4/5
f 1397/4/5 1382/4/5 1392/4/5
f 1397/4/5 1392/4/5 1396/4/5
f 1398/4/5 1382/4/5 1397/4/5
f 1399/2/5 1394/2/5 1393/2/5
f 1399/4/5 1393/4/5 1385/4/5
f 1400/4/5 1388/4/5 1394/4/5
f 1400/2/5 1394/2/5 1399/2/5
f 1401/4/5 1397/4/5 1396/4/5
f 1402/4/5 1397/4/5 1401/4/5
f 1403/4/5 1399/4/5 1385/4/5
f 1403/4/5 1400/4/5 1399/4/5
f 1404/4/5 1400/4/5 1403/4/5
f 1405/4/5 1388/4/5 1400/4/5
f 1405/4/5 1400/4/5 1404/4/5
f 1406/4/5 1388/4/5 1405/4/5
f 1407/4/5 1405/4/5 1404/4/5
f 1408/4/5 1405/4/5 1407/4/5
f 1414/4/5 1410/4/5 1409/4/5
f 1415/4/5 1410/4/5 1414/4/5
f 1416/4/5 1410/4/5 1415/4/5
f 1419/4/5 1412/4/5 1411/4/5
f 1420/4/5 1412/4/5 1419/4/5
f 1421/4/5 1412/4/5 1420/4/5
f 1423/4/5 1414/4/5 1413/4/5
f 1424/2/5 1415/2/5 1414/2/5
f 1424/4/5 1414/4/5 1423/4/5
f 1425/4/5 1417/4/5 1416/4/5
f 1425/2/5 1415/2/5 1424/2/5
f 1425/4/5 1416/4/5 1415/4/5
f 1426/4/5 1417/4/5 1425/4/5
f 1427/4/5 1417/4/5 1426/4/5
f 1428/4/5 1420/4/5 1419/4/5
f 1428/4/5 1419/4/5 1418/4/5
f 1429/4/5 1420/4/5 1428/4/5
f 1430/2/5 1421/2/5 1420/2/5
f 1430/4/5 1420/4/5 1429/4/5
f 1431/4/5 1422/4/5 1421/4/5
f 1431/2/5 1421/2/5 1430/2/5
f 1432/4/5 1422/4/5 1431/4/5
f 1433/4/5 1426/4/5 1425/4/5
f 1433/4/5 1425/4/5 1424/4/5
f 1434/4/5 1426/4/5 1433/4/5
f 1435/4/5 1431/4/5 1430/4/5
f 1435/4/5 1430/4/5 1429/4/5
f 1436/4/5 1431/4/5 1435/4/5
f 1440/5/5 1438/5/5 1437/5/5
f 1441/5/5 1438/5/5 1440/5/5
f 1443/5/5 1440/5/5 1439/5/5
f 1443/5/5 1442/5/5 1441/5/5
f 1443/5/5 1441/5/5 1440/5/5
f 1444/5/5 1442/5/5 1443/5/5
f 1445/5/5 1442/5/5 1444/5/5
f 1446/5/5 1442/5/5 1445/5/5
f 1447/5/5 1442/5/5 1446/5/5
f 1448/5/5 1442/5/5 1447/5/5
f 1451/5/5 1450/5/5 1449/5/5
f 1452/5/5 1450/5/5 1451/5/5
f 1454/5/5 1451/5/5 1449/5/5
f 1455/5/5 1451/5/5 1454/5/5
f 1456/5/5 1453/5/5 1452/5/5
f 1457/5/5 1453/5/5 1456/5/5
f 1460/5/5 1459/5/5 1458/5/5
f 1461/5/5 1459/5/5 1460/5/5
f 1463/5/5 1462/5/5 1461/5/5
f 1464/5/5 1462/5/5 1463/5/5
f 1466/5/5 1465/5/5 1464/5/5
f 1467/5/5 1465/5/5 1466/5/5
f 1472/4/5 1471/4/5 1470/4/5
f 1473/4/5 1471/4/5 1472/4/5
f 1475/5/5 1474/5/5 1473/5/5
f 1476/5/5 1474/5/5 1475/5/5
f 1477/4/5 1469/4/5 1468/4/5
f 1478/4/5 1469/4/5 1477/4/5
f 1479/5/5 1477/5/5 1476/5/5
f 1479/5/5 1478/5/5 1477/5/5
f 1480/5/5 1478/5/5 1479/5/5
f 1483/5/5 1482/5/5 1481/5/5
f 1484/5/5 1482/5/5 1483/5/5
f 1487/5/5 1486/5/5 1485/5/5
f 1488/5/5 1487/5/5 1485/5/5
f 1489/5/5 1487/5/5 1488/5/5
f 1492/6/5 1489/6/5 1488/6/5
f 1493/6/5 1489/6/5 1492/6/5
f 1494/6/5 1491/6/5 1490/6/5
f 1495/6/5 1491/6/5 1494/6/5
f 1496/5/5 1493/5/5 1492/5/5
f 1497/5/5 1493/5/5 1496/5/5
f 1498/5/5 1495/5/5 1494/5/5
f 1499/5/5 1495/5/5 1498/5/5
f 1500/6/5 1497/6/5 1496/6/5
f 1501/6/5 1497/6/5 1500/6/5
f 1502/6/5 1499/6/5 1498/6/5
f 1503/6/5 1499/6/5 1502/6/5
f 1505/5/5 1501/5/5 1500/5/5
f 1507/5/5 1505/5/5 1504/5/5
f 1508/5/5 1501/5/5 1505/5/5
f 1508/5/5 1505/5/5 1507/5/5
f 1510/5/5 1507/5/5 1506/5/5
f 1511/5/5 1507/5/5 1510/5/5
f 1512/5/5 1501/5/5 1508/5/5
f 1513/5/5 1501/5/5 1512/5/5
f 1514/5/5 1503/5/5 1502/5/5
f 1515/5/5 1513/5/5 1512/5/5
f 1515/5/5 1514/5/5 1513/5/5
f 1515/5/5 1511/5/5 1510/5/5
f 1515/5/5 1510/5/5 1509/5/5
f 1515/5/5 1512/5/5 1511/5/5
f 1516/5/5 1514/5/5 1515/5/5
f 1517/5/5 1503/5/5 1514/5/5
f 1517/5/5 1514/5/5 1516/5/5
f 1519/4/5 1517/4/5 1516/4/5
f 1519/4/5 1518/4/5 1517/4/5
f 1520/4/5 1518/4/5 1519/4/5
f 1522/4/5 1519/4/5 1516/4/5
f 1524/4/5 1522/4/5 1521/4/5
f 1525/4/5 1519/4/5 1522/4/5
f 1525/4/5 1522/4/5 1524/4/5
f 1527/4/5 1524/4/5 1523/4/5
f 1527/4/5 1526/4/5 1525/4/5
f 1527/4/5 1525/4/5 1524/4/5
f 1528/4/5 1527/4/5 1523/4/5
f 1529/4/5 1527/4/5 1528/4/5
f 1530/4/5 1527/4/5 1529/4/5
f 1531/4/5 1527/4/5 1530/4/5
f 1532/4/5 1530/4/5 1529/4/5
f 1533/4/5 1530/4/5 1532/4/5
f 1534/4/5 1530/4/5 1533/4/5
f 1535/4/5 1530/4/5 1534/4/5
f 1536/4/5 1534/4/5 1533/4/5
f 1537/4/5 1534/4/5 1536/4/5
f 1542/4/5 1539/4/5 1538/4/5
f 1543/4/5 1539/4/5 1542/4/5
f 1544/4/5 1539/4/5 1543/4/5
f 1545/4/5 1539/4/5 1544/4/5
f 1548/4/5 1541/4/5 1540/4/5
f 1549/4/5 1541/4/5 1548/4/5
f 1550/5/5 1545/5/5 1544/5/5
f 1551/5/5 1545/5/5 1550/5/5
f 1552/5/5 1547/5/5 1546/5/5
f 1553/5/5 1547/5/5 1552/5/5
f 1554/5/5 1549/5/5 1548/5/5
f 1555/5/5 1549/5/5 1554/5/5
f 1556/6/5 1551/6/5 1550/6/5
f 1557/6/5 1551/6/5 1556/6/5
f 1558/6/5 1553/6/5 1552/6/5
f 1559/6/5 1553/6/5 1558/6/5
f 1560/6/5 1555/6/5 1554/6/5
f 1561/6/5 1555/6/5 1560/6/5
f 1562/5/5 1557/5/5 1556/5/5
f 1563/5/5 1557/5/5 1562/5/5
f 1564/5/5 1559/5/5 1558/5/5
f 1565/5/5 1559/5/5 1564/5/5
f 1566/5/5 1561/5/5 1560/5/5
f 1567/5/5 1561/5/5 1566/5/5
f 1568/6/5 1563/6/5 1562/6/5
f 1569/6/5 1563/6/5 1568/6/5
f 1570/6/5 1565/6/5 1564/6/5
f 1571/6/5 1565/6/5 1570/6/5
f 1572/6/5 1567/6/5 1566/6/5
f 1573/6/5 1567/6/5 1572/6/5
f 1575/5/5 1569/5/5 1568/5/5
f 1576/5/5 1569/5/5 1575/5/5
f 1578/5/5 1575/5/5 1574/5/5
f 1579/5/5 1575/5/5 1578/5/5
f 1581/5/5 1578/5/5 1577/5/5
f 1582/5/5 1578/5/5 1581/5/5
f 1583/5/5 1580/5/5 1579/5/5
f 1584/5/5 1580/5/5 1583/5/5
f 1585/5/5 1571/5/5 1570/5/5
f 1586/5/5 1571/5/5 1585/5/5
f 1587/5/5 1573/5/5 1572/5/5
f 1588/5/5 1573/5/5 1587/5/5
f 1591/4/5 1590/4/5 1589/4/5
f 1592/4/5 1590/4/5 1591/4/5
f 1595/4/5 1594/4/5 1593/4/5
f 1596/4/5 1594/4/5 1595/4/5
f 1599/4/5 1598/4/5 1597/4/5
f 1600/4/5 1598/4/5 1599/4/5
f 1605/5/5 1602/5/5 1601/5/5
f 1606/5/5 1602/5/5 1605/5/5
f 1608/5/5 1607/5/5 1606/5/5
f 1609/5/5 1604/5/5 1603/5/5
f 1610/5/5 1608/5/5 1606/5/5
f 1611/5/5 1608/5/5 1610/5/5
f 1612/5/5 1604/5/5 1609/5/5
f 1613/5/5 1604/5/5 1612/5/5
f 1614/6/5 1611/6/5 1610/6/5
f 1615/6/5 1611/6/5 1614/6/5
f 1616/6/5 1613/6/5 1612/6/5
f 1617/6/5 1613/6/5 1616/6/5
f 1618/5/5 1615/5/5 1614/5/5
f 1619/5/5 1615/5/5 1618/5/5
f 1620/5/5 1617/5/5 1616/5/5
f 1621/5/5 1617/5/5 1620/5/5
f 1622/6/5 1619/6/5 1618/6/5
f 1623/6/5 1619/6/5 1622/6/5
f 1624/6/5 1621/6/5 1620/6/5
f 1625/6/5 1621/6/5 1624/6/5
f 1627/5/5 1623/5/5 1622/5/5
f 1628/5/5 1623/5/5 1627/5/5
f 1630/5/5 1627/5/5 1626/5/5
f 1631/5/5 1627/5/5 1630/5/5
f 1632/5/5 1630/5/5 1629/5/5
f 1633/5/5 1630/5/5 1632/5/5
f 1634/5/5 1625/5/5 1624/5/5
f 1635/5/5 1625/5/5 1634/5/5
f 1638/4/5 1637/4/5 1636/4/5
f 1639/4/5 1637/4/5 1638/4/5
f 1643/4/5 1641/4/5 1640/4/5
f 1644/4/5 1643/4/5 1642/4/5
f 1645/4/5 1641/4/5 1643/4/5
f 1645/4/5 1643/4/5 1644/4/5
f 1646/4/5 1641/4/5 1645/4/5
f 1647/4/5 1641/4/5 1646/4/5
f 1651/4/5 1649/4/5 1648/4/5
f 1652/4/5 1649/4/5 1651/4/5
f 1653/4/5 1651/4/5 1650/4/5
f 1654/4/5 1651/4/5 1653/4/5
f 1657/5/5 1656/5/5 1655/5/5
f 1658/5/5 1656/5/5 1657/5/5
f 1659/6/5 1658/6/5 1657/6/5
f 1660/6/5 1658/6/5 1659/6/5
f 1661/5/5 1660/5/5 1659/5/5
f 1662/5/5 1660/5/5 1661/5/5
f 1663/6/5 1662/6/5 1661/6/5
f 1664/6/5 1662/6/5 1663/6/5
f 1666/5/5 1664/5/5 1663/5/5
f 1667/5/5 1664/5/5 1666/5/5
f 1669/5/5 1666/5/5 1665/5/5
f 1670/5/5 1666/5/5 1669/5/5
f 1673/5/5 1669/5/5 1668/5/5
f 1674/5/5 1669/5/5 1673/5/5
f 1675/5/5 1672/5/5 1671/5/5
f 1676/5/5 1672/5/5 1675/5/5
f 1681/4/5 1678/4/5 1677/4/5
f 1682/4/5 1678/4/5 1681/4/5
f 1683/4/5 1680/4/5 1679/4/5
f 1684/4/5 1680/4/5 1683/4/5
f 1685/4/5 1680/4/5 1684/4/5
f 1690/5/5 1687/5/5 1686/5/5
f 1691/5/5 1687/5/5 1690/5/5
f 1694/5/5 1689/5/5 1688/5/5
f 1695/5/5 1689/5/5 1694/5/5
f 1696/5/5 1693/5/5 1692/5/5
f 1697/5/5 1693/5/5 1696/5/5
f 1705/5/5 1699/5/5 1698/5/5
f 1706/6/5 1700/6/5 1699/6/5
f 1706/5/5 1699/5/5 1705/5/5
f 1707/5/5 1701/5/5 1700/5/5
f 1707/6/5 1700/6/5 1706/6/5
f 1708/6/5 1702/6/5 1701/6/5
f 1708/5/5 1701/5/5 1707/5/5
f 1709/6/5 1702/6/5 1708/6/5
f 1710/5/5 1703/5/5 1702/5/5
f 1710/6/5 1702/6/5 1709/6/5
f 1711/6/5 1704/6/5 1703/6/5
f 1711/5/5 1703/5/5 1710/5/5
f 1712/6/5 1704/6/5 1711/6/5
f 1713/5/5 1711/5/5 1710/5/5
f 1714/5/5 1711/5/5 1713/5/5
f 1715/7/5 1714/7/5 1713/7/5
f 1716/7/5 1714/7/5 1715/7/5
f 1719/5/5 1718/5/5 1717/5/5
f 1720/5/5 1718/5/5 1719/5/5
f 1723/5/5 1722/5/5 1721/5/5
f 1726/5/5 1725/5/5 1724/5/5
f 1727/5/5 1725/5/5 1726/5/5
f 1730/5/5 1722/5/5 1723/5/5
f 1731/5/5 1722/5/5 1730/5/5
f 1732/6/5 1728/6/5 1727/6/5
f 1733/6/5 1728/6/5 1732/6/5
f 1734/6/5 1730/6/5 1729/6/5
f 1735/6/5 1730/6/5 1734/6/5
f 1736/7/5 1733/7/5 1732/7/5
f 1737/7/5 1733/7/5 1736/7/5
f 1738/7/5 1735/7/5 1734/7/5
f 1739/7/5 1735/7/5 1738/7/5
f 1740/7/5 1738/7/5 1737/7/5
f 1741/7/5 1738/7/5 1740/7/5
f 1744/5/5 1743/5/5 1742/5/5
f 1745/5/5 1743/5/5 1744/5/5
f 1748/6/5 1747/6/5 1746/6/5
f 1749/6/5 1747/6/5 1748/6/5
f 1752/6/5 1745/6/5 1744/6/5
f 1753/6/5 1745/6/5 1752/6/5
f 1754/5/5 1750/5/5 1749/5/5
f 1755/5/5 1750/5/5 1754/5/5
f 1756/6/5 1752/6/5 1751/6/5
f 1757/6/5 1752/6/5 1756/6/5
f 1758/7/5 1755/7/5 1754/7/5
f 1759/7/5 1755/7/5 1758/7/5
f 1762/7/5 1757/7/5 1756/7/5
f 1763/7/5 1757/7/5 1762/7/5
f 1764/7/5 1760/7/5 1759/7/5
f 1765/7/5 1760/7/5 1764/7/5
f 1766/7/5 1762/7/5 1761/7/5
f 1767/7/5 1762/7/5 1766/7/5
f 1770/6/5 1769/6/5 1768/6/5
f 1771/6/5 1769/6/5 1770/6/5
f 1776/5/5 1773/5/5 1772/5/5
f 1777/5/5 1773/5/5 1776/5/5
f 1784/5/5 1775/5/5 1774/5/5
f 1785/5/5 1775/5/5 1784/5/5
f 1786/5/5 1778/5/5 1777/5/5
f 1787/5/5 1778/5/5 1786/5/5
f 1788/1/5 1780/1/5 1779/1/5
f 1789/5/5 1782/5/5 1781/5/5
f 1789/1/5 1780/1/5 1788/1/5
f 1789/5/5 1781/5/5 1780/5/5
f 1790/5/5 1782/5/5 1789/5/5
f 1791/5/5 1784/5/5 1783/5/5
f 1792/5/5 1784/5/5 1791/5/5
f 1793/7/5 1787/7/5 1786/7/5
f 1794/7/5 1787/7/5 1793/7/5
f 1795/7/5 1790/7/5 1789/7/5
f 1795/7/5 1789/7/5 1788/7/5
f 1796/7/5 1790/7/5 1795/7/5
f 1797/7/5 1792/7/5 1791/7/5
f 1798/7/5 1792/7/5 1797/7/5
f 1803/7/5 1800/7/5 1799/7/5
f 1804/7/5 1800/7/5 1803/7/5
f 1805/7/5 1802/7/5 1801/7/5
f 1806/7/5 1802/7/5 1805/7/5
f 1807/5/6 1808/5/6 1809/5/6
f 1809/5/6 1808/5/6 1810/5/6
f 1811/4/6 1812/4/6 1813/4/6
f 1813/4/6 1812/4/6 1814/4/6
f 1813/5/6 1814/5/6 1815/5/6
f 1815/5/6 1814/5/6 1816/5/6
f 1817/4/6 1818/4/6 1819/4/6
f 1819/4/6 1818/4/6 1820/4/6
f 1821/4/6 1822/4/6 1823/4/6
f 1823/4/6 1822/4/6 1824/4/6
f 1825/4/6 1826/4/6 1827/4/6
f 1827/4/6 1826/4/6 1828/4/6
f 1829/5/6 1830/5/6 1831/5/6
f 1831/5/6 1830/5/6 1832/5/6
f 1833/5/6 1834/5/6 1835/5/6
f 1835/5/6 1834/5/6 1836/5/6
f 1837/4/6 1838/4/6 1839/4/6
f 1839/4/6 1838/4/6 1840/4/6
f 1841/5/6 1842/5/6 1843/5/6
f 1843/5/6 1842/5/6 1844/5/6
f 1845/5/6 1846/5/6 1848/5/6
f 1848/5/6 1846/5/6 1849/5/6
f 1847/5/6 1848/5/6 1852/5/6
f 1852/5/6 1848/5/6 1853/5/6
f 1850/5/6 1851/5/6 1854/5/6
f 1854/5/6 1851/5/6 1855/5/6
f 1856/4/6 1857/4/6 1858/4/6
f 1858/4/6 1857/4/6 1859/4/6
f 1860/4/6 1861/4/6 1862/4/6
f 1862/4/6 1861/4/6 1863/4/6
f 1864/5/6 1865/5/6 1866/5/6
f 1866/5/6 1865/5/6 1867/5/6
f 1864/5/6 1866/5/6 1868/5/6
f 1868/5/6 1866/5/6 1869/5/6
f 1867/5/6 1865/5/6 1870/5/6
f 1870/5/6 1865/5/6 1871/5/6
f 1868/6/6 1869/6/6 1872/6/6
f 1872/6/6 1869/6/6 1873/6/6
f 1870/6/6 1871/6/6 1874/6/6
f 1874/6/6 1871/6/6 1875/6/6
f 1872/5/6 1873/5/6 1876/5/6
f 1876/5/6 1873/5/6 1877/5/6
f 1874/5/6 1875/5/6 1878/5/6
f 1878/5/6 1875/5/6 1879/5/6
f 1876/6/6 1877/6/6 1880/6/6
f 1880/6/6 1877/6/6 1881/6/6
f 1878/6/6 1879/6/6 1882/6/6
f 1882/6/6 1879/6/6 1883/6/6
f 1880/5/6 1881/5/6 1885/5/6
f 1885/5/6 1881/5/6 1886/5/6
f 1882/5/6 1883/5/6 1887/5/6
f 1887/5/6 1883/5/6 1888/5/6
f 1884/5/6 1885/5/6 1891/5/6
f 1891/5/6 1885/5/6 1892/5/6
f 1889/5/6 1890/5/6 1895/5/6
f 1893/5/6 1894/5/6 1896/5/6
f 1889/5/6 1895/5/6 1897/5/6
f 1897/5/6 1895/5/6 1898/5/6
f 1896/5/6 1894/5/6 1899/5/6
f 1899/5/6 1894/5/6 1900/5/6
f 1901/5/6 1902/5/6 1903/5/6
f 1903/5/6 1902/5/6 1904/5/6
f 1905/5/6 1906/5/6 1907/5/6
f 1907/5/6 1906/5/6 1908/5/6
f 1905/5/6 1907/5/6 1909/5/6
f 1909/5/6 1907/5/6 1910/5/6
f 1908/5/6 1906/5/6 1911/5/6
f 1911/5/6 1906/5/6 1912/5/6
f 1909/6/6 1910/6/6 1913/6/6
f 1913/6/6 1910/6/6 1914/6/6
f 1911/6/6 1912/6/6 1915/6/6
f 1915/6/6 1912/6/6 1916/6/6
f 1913/5/6 1914/5/6 1917/5/6
f 1917/5/6 1914/5/6 1918/5/6
f 1915/5/6 1916/5/6 1919/5/6
f 1919/5/6 1916/5/6 1920/5/6
f 1917/6/6 1918/6/6 1921/6/6
f 1921/6/6 1918/6/6 1922/6/6
f 1919/6/6 1920/6/6 1923/6/6
f 1923/6/6 1920/6/6 1924/6/6
f 1921/5/6 1922/5/6 1925/5/6
f 1925/5/6 1922/5/6 1926/5/6
f 1923/5/6 1924/5/6 1927/5/6
f 1927/5/6 1924/5/6 1928/5/6
f 1928/5/6 1929/5/6 1932/5/6
f 1932/5/6 1929/5/6 1933/5/6
f 1930/5/6 1931/5/6 1934/5/6
f 1934/5/6 1931/5/6 1935/5/6
f 1933/5/6 1929/5/6 1936/5/6
f 1936/5/6 1929/5/6 1937/5/6
f 1936/6/6 1937/6/6 1938/6/6
f 1938/6/6 1937/6/6 1939/6/6
f 1939/6/6 1937/6/6 1940/6/6
f 1934/6/6 1935/6/6 1941/6/6
f 1941/6/6 1935/6/6 1942/6/6
f 1943/6/6 1944/6/6 1945/6/6
f 1945/6/6 1944/6/6 1946/6/6
f 1947/5/6 1948/5/6 1949/5/6
f 1949/5/6 1948/5/6 1950/5/6
f 1947/5/6 1949/5/6 1951/5/6
f 1951/5/6 1949/5/6 1952/5/6
f 1950/5/6 1948/5/6 1953/5/6
f 1953/5/6 1948/5/6 1954/5/6
f 1951/6/6 1952/6/6 1955/6/6
f 1955/6/6 1952/6/6 1956/6/6
f 1953/6/6 1954/6/6 1957/6/6
f 1957/6/6 1954/6/6 1958/6/6
f 1955/5/6 1956/5/6 1959/5/6
f 1959/5/6 1956/5/6 1960/5/6
f 1957/5/6 1958/5/6 1961/5/6
f 1961/5/6 1958/5/6 1962/5/6
f 1959/6/6 1960/6/6 1963/6/6
f 1963/6/6 1960/6/6 1964/6/6
f 1961/6/6 1962/6/6 1965/6/6
f 1965/6/6 1962/6/6 1966/6/6
f 1963/5/6 1964/5/6 1968/5/6
f 1968/5/6 1964/5/6 1969/5/6
f 1967/5/6 1968/5/6 1971/5/6
f 1971/5/6 1968/5/6 1972/5/6
f 1965/5/6 1966/5/6 1973/5/6
f 1973/5/6 1966/5/6 1974/5/6
f 1970/5/6 1971/5/6 1976/5/6
f 1976/5/6 1971/5/6 1977/5/6
f 1975/5/6 1976/5/6 1980/5/6
f 1978/5/6 1979/5/6 1981/5/6
f 1981/5/6 1979/5/6 1982/5/6
f 1975/5/6 1980/5/6 1983/5/6
f 1975/5/6 1983/5/6 1987/5/6
f 1983/5/6 1984/5/6 1987/5/6
f 1984/5/6 1985/5/6 1987/5/6
f 1985/6/6 1986/6/6 1988/6/6
f 1987/5/6 1985/5/6 1988/5/6
f 1988/6/6 1986/6/6 1989/6/6
f 1990/5/6 1991/5/6 1992/5/6
f 1992/5/6 1991/5/6 1993/5/6
f 1992/6/6 1993/6/6 1994/6/6
f 1994/6/6 1993/6/6 1995/6/6
f 1994/5/6 1995/5/6 1996/5/6
f 1996/5/6 1995/5/6 1997/5/6
f 1996/6/6 1997/6/6 1998/6/6
f 1998/6/6 1997/6/6 1999/6/6
f 1998/5/6 1999/5/6 2001/5/6
f 2000/5/6 2001/5/6 2003/5/6
f 2001/5/6 1999/5/6 2004/5/6
f 2003/5/6 2001/5/6 2004/5/6
f 2003/5/6 2004/5/6 2007/5/6
f 2004/5/6 2005/5/6 2007/5/6
f 2002/5/6 2003/5/6 2007/5/6
f 2006/5/6 2007/5/6 2008/5/6
f 2007/5/6 2005/5/6 2009/5/6
f 2008/5/6 2007/5/6 2009/5/6
f 2009/5/6 2005/5/6 2010/5/6
f 2008/6/6 2009/6/6 2012/6/6
f 2009/5/6 2010/5/6 2012/5/6
f 2010/6/6 2011/6/6 2013/6/6
f 2012/5/6 2010/5/6 2013/5/6
f 2008/6/6 2012/6/6 2014/6/6
f 2013/6/6 2011/6/6 2015/6/6
f 2008/6/6 2014/6/6 2016/6/6
f 2014/5/6 2015/5/6 2017/5/6
f 2016/6/6 2014/6/6 2017/6/6
f 2015/6/6 2011/6/6 2018/6/6
f 2017/5/6 2015/5/6 2018/5/6
f 2018/6/6 2011/6/6 2019/6/6
f 2020/5/6 2021/5/6 2026/5/6
f 2026/5/6 2021/5/6 2027/5/6
f 2022/5/6 2023/5/6 2028/5/6
f 2028/5/6 2023/5/6 2029/5/6
f 2024/5/6 2025/5/6 2030/5/6
f 2030/5/6 2025/5/6 2031/5/6
f 2028/7/6 2029/7/6 2032/7/6
f 2026/7/6 2027/7/6 2032/7/6
f 2030/7/6 2031/7/6 2032/7/6
f 2029/7/6 2030/7/6 2032/7/6
f 2027/7/6 2028/7/6 2032/7/6
f 2032/7/6 2031/7/6 2033/7/6
f 2033/7/6 2031/7/6 2034/7/6
f 2034/7/6 2031/7/6 2035/7/6
f 2033/7/6 2034/7/6 2036/7/6
f 2036/7/6 2034/7/6 2037/7/6
f 2037/7/6 2034/7/6 2038/7/6
f 2038/7/6 2034/7/6 2039/7/6
f 2039/7/6 2034/7/6 2040/7/6
f 2040/7/6 2034/7/6 2041/7/6
f 2037/7/6 2038/7/6 2042/7/6
f 2038/3/6 2039/3/6 2043/3/6
f 2042/7/6 2038/7/6 2043/7/6
f 2039/7/6 2040/7/6 2044/7/6
f 2043/3/6 2039/3/6 2044/3/6
f 2044/7/6 2040/7/6 2045/7/6
f 2046/5/6 2047/5/6 2048/5/6
f 2048/5/6 2047/5/6 2049/5/6
f 2050/5/6 2051/5/6 2054/5/6
f 2054/5/6 2051/5/6 2055/5/6
f 2052/5/6 2053/5/6 2056/5/6
f 2056/5/6 2053/5/6 2057/5/6
f 2058/5/6 2059/5/6 2062/5/6
f 2062/5/6 2059/5/6 2063/5/6
f 2060/5/6 2061/5/6 2070/5/6
f 2070/5/6 2061/5/6 2071/5/6
f 2064/7/6 2065/7/6 2072/7/6
f 2065/3/6 2066/3/6 2073/3/6
f 2072/7/6 2065/7/6 2073/7/6
f 2073/3/6 2066/3/6 2074/3/6
f 2067/7/6 2068/7/6 2075/7/6
f 2068/3/6 2069/3/6 2076/3/6
f 2075/7/6 2068/7/6 2076/7/6
f 2076/3/6 2069/3/6 2077/3/6
f 2078/5/6 2079/5/6 2082/5/6
f 2082/5/6 2079/5/6 2083/5/6
f 2083/5/6 2079/5/6 2084/5/6
f 2084/5/6 2079/5/6 2085/5/6
f 2086/7/6 2087/7/6 2088/7/6
f 2080/7/6 2081/7/6 2089/7/6
f 2089/7/6 2081/7/6 2090/7/6
f 2088/7/6 2087/7/6 2093/7/6
f 2093/7/6 2087/7/6 2094/7/6
f 2090/7/6 2091/7/6 2095/7/6
f 2095/7/6 2091/7/6 2096/7/6
f 2092/7/6 2093/7/6 2101/7/6
f 2101/7/6 2093/7/6 2102/7/6
f 2096/5/6 2097/5/6 2103/5/6
f 2097/7/6 2098/7/6 2104/7/6
f 2103/5/6 2097/5/6 2104/5/6
f 2098/6/6 2099/6/6 2105/6/6
f 2104/7/6 2098/7/6 2105/7/6
f 2099/7/6 2100/7/6 2106/7/6
f 2105/6/6 2099/6/6 2106/6/6
f 2100/5/6 2101/5/6 2107/5/6
f 2106/7/6 2100/7/6 2107/7/6
f 2107/5/6 2101/5/6 2108/5/6
f 2109/5/6 2110/5/6 2111/5/6
f 2109/5/6 2111/5/6 2114/5/6
f 2114/5/6 2111/5/6 2115/5/6
f 2112/7/6 2113/7/6 2118/7/6
f 2118/7/6 2113/7/6 2119/7/6
f 2114/6/6 2115/6/6 2120/6/6
f 2120/6/6 2115/6/6 2121/6/6
f 2116/7/6 2117/7/6 2122/7/6
f 2122/7/6 2117/7/6 2123/7/6
f 2124/7/6 2125/7/6 2128/7/6
f 2128/7/6 2125/7/6 2129/7/6
f 2126/7/6 2127/7/6 2134/7/6
f 2134/7/6 2127/7/6 2135/7/6
f 2130/7/6 2131/7/6 2136/7/6
f 2136/7/6 2131/7/6 2137/7/6
f 2132/7/6 2133/7/6 2138/7/6
f 2138/7/6 2133/7/6 2139/7/6
f 2140/7/6 2141/7/6 2144/7/6
f 2144/7/6 2141/7/6 2145/7/6
f 2142/7/6 2143/7/6 2146/7/6
f 2146/7/6 2143/7/6 2147/7/6
f 2148/7/6 2149/7/6 2152/7/6
f 2152/7/6 2149/7/6 2153/7/6
f 2150/7/6 2151/7/6 2154/7/6
f 2154/7/6 2151/7/6 2155/7/6
