# MagicaVoxel @ Ephtracy

# group
o 

# material
mtllib treestump_moss.mtl
usemtl palette

# normals
vn -1 0 0
vn 1 0 0
vn 0 0 1
vn 0 0 -1
vn 0 -1 0
vn 0 1 0

# texcoords
vt 0.814453 0.5
vt 0.818359 0.5
vt 0.849609 0.5
vt 0.853516 0.5

# verts
v -0.8 0.5 0.1
v -0.8 0.5 -0.1
v -0.8 0.6 0.2
v -0.8 0.6 0.1
v -0.8 0.6 -0.1
v -0.8 0.8 0.2
v -0.8 0.8 -5.96046e-008
v -0.8 0.8 -0.1
v -0.8 0.8 -0.2
v -0.8 0.9 0.2
v -0.8 0.9 0.1
v -0.8 1 -0.1
v -0.8 1 -0.2
v -0.8 1.1 0.1
v -0.8 1.1 -5.96046e-008
v -0.8 1.1 -0.1
v -0.7 0 0.5
v -0.7 0 0.4
v -0.7 0 0.3
v -0.7 0 -5.96046e-008
v -0.7 0 -0.1
v -0.7 0 -0.4
v -0.7 0 -0.5
v -0.7 0 -0.7
v -0.7 0.5 0.4
v -0.7 0.5 0.3
v -0.7 0.5 0.1
v -0.7 0.5 -5.96046e-008
v -0.7 0.5 -0.1
v -0.7 0.6 0.2
v -0.7 0.6 0.1
v -0.7 0.6 -0.1
v -0.7 0.6 -0.4
v -0.7 0.6 -0.5
v -0.7 0.8 0.2
v -0.7 0.8 -0.1
v -0.7 0.8 -0.2
v -0.7 0.9 0.5
v -0.7 0.9 0.2
v -0.7 0.9 0.1
v -0.7 0.9 -0.2
v -0.7 0.9 -0.7
v -0.7 1 -0.1
v -0.7 1 -0.2
v -0.7 1.1 0.2
v -0.7 1.1 0.1
v -0.7 1.1 -0.1
v -0.7 1.1 -0.2
v -0.6 0 0.6
v -0.6 0 0.5
v -0.6 0 -0.7
v -0.6 0 -0.8
v -0.6 0.9 0.7
v -0.6 0.9 0.6
v -0.6 0.9 0.5
v -0.6 0.9 0.2
v -0.6 0.9 -0.2
v -0.6 0.9 -0.7
v -0.6 0.9 -0.8
v -0.6 1 0.7
v -0.6 1 0.5
v -0.6 1 0.2
v -0.6 1 -0.2
v -0.6 1 -0.7
v -0.5 0 0.7
v -0.5 0 0.6
v -0.5 0 -0.8
v -0.5 0 -0.9
v -0.5 0.9 0.8
v -0.5 0.9 0.7
v -0.5 0.9 0.6
v -0.5 0.9 -0.7
v -0.5 0.9 -0.8
v -0.5 0.9 -0.9
v -0.5 1 0.8
v -0.5 1 0.7
v -0.5 1 0.6
v -0.5 1 0.5
v -0.5 1 -0.7
v -0.5 1 -0.8
v -0.5 1.1 0.6
v -0.5 1.1 0.5
v -0.4 0.8 0.8
v -0.4 0.8 0.7
v -0.4 0.9 0.8
v -0.4 0.9 0.7
v -0.1 0.9 -0.8
v -0.1 0.9 -0.9
v -0.1 0.9 -1
v -0.1 1 -0.7
v -0.1 1 -0.8
v -0.1 1 -0.9
v -0.1 1 -1
v -0.1 1.1 -0.7
v -0.1 1.1 -0.8
v -0.1 1.1 -0.9
v 5.96046e-008 0.8 -0.9
v 5.96046e-008 0.8 -1
v 5.96046e-008 0.9 -0.9
v 5.96046e-008 0.9 -1
v 5.96046e-008 1 -0.6
v 5.96046e-008 1 -0.7
v 5.96046e-008 1.1 -0.6
v 5.96046e-008 1.1 -0.7
v 0.5 1 0.5
v 0.5 1 0.2
v 0.5 1 0.1
v 0.5 1.1 0.5
v 0.5 1.1 0.2
v 0.5 1.1 0.1
v 0.6 0.9 0.6
v 0.6 0.9 0.5
v 0.6 1 0.6
v 0.6 1 0.5
v -0.4 1 0.2
v -0.4 1 0.1
v -0.4 1 -0.1
v -0.4 1 -0.2
v -0.4 1.1 0.2
v -0.4 1.1 0.1
v -0.4 1.1 -0.1
v -0.4 1.1 -0.2
v -0.3 1 0.1
v -0.3 1 -0.1
v -0.3 1.1 0.1
v -0.3 1.1 -0.1
v -0.2 0.9 0.8
v -0.2 0.9 0.7
v -0.2 0.9 0.6
v -0.2 1 0.8
v -0.2 1 0.7
v -0.2 1 0.6
v -0.2 1 0.5
v -0.2 1.1 0.6
v -0.2 1.1 0.5
v -0.1 0.8 0.8
v -0.1 0.8 0.7
v -0.1 0.9 0.8
v -0.1 0.9 0.7
v 0.3 0.9 -0.9
v 0.3 0.9 -1
v 0.3 1 -0.7
v 0.3 1 -0.8
v 0.3 1 -0.9
v 0.3 1 -1
v 0.3 1.1 -0.7
v 0.3 1.1 -0.8
v 0.4 0.8 -0.9
v 0.4 0.8 -1
v 0.4 0.9 -0.8
v 0.4 0.9 -0.9
v 0.4 0.9 -1
v 0.4 1 -0.6
v 0.4 1 -0.7
v 0.4 1 -0.8
v 0.4 1 -0.9
v 0.4 1.1 -0.6
v 0.4 1.1 -0.7
v 0.4 1.1 -0.8
v 0.4 1.1 -0.9
v 0.5 0 0.7
v 0.5 0 0.6
v 0.5 0 -0.8
v 0.5 0 -0.9
v 0.5 0.9 0.7
v 0.5 0.9 0.6
v 0.5 0.9 0.5
v 0.5 0.9 -0.7
v 0.5 0.9 -0.8
v 0.5 0.9 -0.9
v 0.5 1 0.6
v 0.5 1 0.5
v 0.5 1 -0.7
v 0.5 1 -0.8
v 0.6 0 0.6
v 0.6 0 0.5
v 0.6 0 -0.7
v 0.6 0 -0.8
v 0.6 0.7 0.6
v 0.6 0.7 0.5
v 0.6 0.9 -0.1
v 0.6 0.9 -0.7
v 0.6 0.9 -0.8
v 0.6 1 -0.1
v 0.6 1 -0.7
v 0.7 0 0.5
v 0.7 0 0.3
v 0.7 0 0.2
v 0.7 0 -0.1
v 0.7 0 -0.2
v 0.7 0 -0.4
v 0.7 0 -0.5
v 0.7 0 -0.7
v 0.7 0.5 0.3
v 0.7 0.5 0.2
v 0.7 0.6 -0.4
v 0.7 0.6 -0.5
v 0.7 0.7 0.6
v 0.7 0.7 0.5
v 0.7 0.7 -0.1
v 0.7 0.7 -0.2
v 0.7 0.8 0.5
v 0.7 0.8 0.3
v 0.7 0.9 0.3
v 0.7 0.9 0.2
v 0.7 0.9 0.1
v 0.7 0.9 -0.1
v 0.7 0.9 -0.7
v 0.7 1 0.6
v 0.7 1 0.5
v 0.7 1 0.3
v 0.7 1 0.2
v 0.7 1 0.1
v 0.7 1 -0.1
v 0.7 1.1 0.3
v 0.7 1.1 0.2
v 0.7 1.1 0.1
v 0.8 0.8 0.4
v 0.8 0.8 0.3
v 0.8 0.9 0.5
v 0.8 0.9 0.4
v 0.8 0.9 0.2
v 0.8 0.9 0.1
v 0.8 1 0.2
v 0.8 1 0.1
v 0.8 1.1 0.5
v 0.8 1.1 0.3
v 0.9 0.8 0.5
v 0.9 0.8 0.4
v 0.9 0.9 0.5
v 0.9 0.9 0.4
v -0.5 0.9 0.8
v -0.5 1 0.8
v -0.4 0.8 0.8
v -0.4 0.9 0.8
v -0.2 0.9 0.8
v -0.2 1 0.8
v -0.1 0.8 0.8
v -0.1 0.9 0.8
v -0.6 0.9 0.7
v -0.6 1 0.7
v -0.5 0 0.7
v -0.5 0.9 0.7
v -0.5 1 0.7
v -0.4 0.8 0.7
v -0.4 0.9 0.7
v -0.3 0 0.7
v -0.3 0.5 0.7
v -0.2 0 0.7
v -0.2 0.5 0.7
v -0.1 0.8 0.7
v -0.1 0.9 0.7
v 5.96046e-008 0 0.7
v 5.96046e-008 0.8 0.7
v 0.1 0 0.7
v 0.1 0.8 0.7
v 0.3 0 0.7
v 0.3 0.5 0.7
v 0.4 0 0.7
v 0.4 0.5 0.7
v 0.5 0 0.7
v 0.5 0.9 0.7
v -0.6 0 0.6
v -0.6 0.9 0.6
v -0.5 0 0.6
v -0.5 0.9 0.6
v -0.5 1 0.6
v -0.5 1.1 0.6
v -0.2 0.9 0.6
v -0.2 1 0.6
v -0.2 1.1 0.6
v 0.5 0 0.6
v 0.5 0.9 0.6
v 0.5 1 0.6
v 0.6 0 0.6
v 0.6 0.7 0.6
v 0.6 0.9 0.6
v 0.6 1 0.6
v 0.7 0.7 0.6
v 0.7 1 0.6
v -0.7 0 0.5
v -0.7 0.9 0.5
v -0.6 0 0.5
v -0.6 0.9 0.5
v 0.5 0.9 0.5
v 0.5 1 0.5
v 0.5 1.1 0.5
v 0.6 0 0.5
v 0.6 0.7 0.5
v 0.6 0.9 0.5
v 0.6 1 0.5
v 0.7 0 0.5
v 0.7 0.7 0.5
v 0.7 0.8 0.5
v 0.7 1 0.5
v 0.7 1.1 0.5
v 0.8 0.8 0.5
v 0.8 0.9 0.5
v 0.8 1.1 0.5
v 0.9 0.8 0.5
v 0.9 0.9 0.5
v -0.8 0.6 0.2
v -0.8 0.8 0.2
v -0.8 0.9 0.2
v -0.7 0.6 0.2
v -0.7 0.8 0.2
v -0.7 0.9 0.2
v -0.7 1.1 0.2
v -0.6 0.9 0.2
v -0.6 1 0.2
v -0.4 1 0.2
v -0.4 1.1 0.2
v 0.7 0.9 0.2
v 0.7 1 0.2
v 0.8 0.9 0.2
v 0.8 1 0.2
v -0.8 0.5 0.1
v -0.8 0.6 0.1
v -0.8 0.9 0.1
v -0.8 1.1 0.1
v -0.7 0.5 0.1
v -0.7 0.6 0.1
v -0.7 0.9 0.1
v -0.7 1.1 0.1
v -0.4 1 0.1
v -0.4 1.1 0.1
v -0.3 1 0.1
v -0.3 1.1 0.1
v 5.96046e-008 1 -0.6
v 5.96046e-008 1.1 -0.6
v 0.2 1 -0.6
v 0.2 1.1 -0.6
v 0.4 1 -0.6
v 0.4 1.1 -0.6
v -0.1 1 -0.7
v -0.1 1.1 -0.7
v 5.96046e-008 1 -0.7
v 5.96046e-008 1.1 -0.7
v 0.3 1 -0.8
v 0.3 1.1 -0.8
v 0.4 1 -0.8
v 0.4 1.1 -0.8
v -0.5 1 0.5
v -0.5 1.1 0.5
v -0.2 1 0.5
v -0.2 1.1 0.5
v 0.8 0.8 0.4
v 0.8 0.9 0.4
v 0.9 0.8 0.4
v 0.9 0.9 0.4
v 0.7 0.8 0.3
v 0.7 0.9 0.3
v 0.7 1 0.3
v 0.7 1.1 0.3
v 0.8 0.8 0.3
v 0.8 1.1 0.3
v 0.5 1 0.1
v 0.5 1.1 0.1
v 0.6 1 0.1
v 0.7 0.9 0.1
v 0.7 1 0.1
v 0.7 1.1 0.1
v 0.8 0.9 0.1
v 0.8 1 0.1
v -0.8 0.5 -0.1
v -0.8 0.6 -0.1
v -0.8 0.8 -0.1
v -0.8 1 -0.1
v -0.8 1.1 -0.1
v -0.7 0.5 -0.1
v -0.7 0.6 -0.1
v -0.7 0.8 -0.1
v -0.7 1 -0.1
v -0.7 1.1 -0.1
v -0.4 1 -0.1
v -0.4 1.1 -0.1
v -0.3 1 -0.1
v -0.3 1.1 -0.1
v 0.6 0.9 -0.1
v 0.6 1 -0.1
v 0.7 0.9 -0.1
v 0.7 1 -0.1
v -0.8 0.8 -0.2
v -0.8 1 -0.2
v -0.7 0.8 -0.2
v -0.7 0.9 -0.2
v -0.7 1 -0.2
v -0.7 1.1 -0.2
v -0.6 0.9 -0.2
v -0.6 1 -0.2
v -0.5 1 -0.2
v -0.5 1.1 -0.2
v -0.4 1 -0.2
v -0.4 1.1 -0.2
v -0.7 0 -0.7
v -0.7 0.9 -0.7
v -0.6 0 -0.7
v -0.6 0.9 -0.7
v -0.6 1 -0.7
v -0.5 0.9 -0.7
v -0.5 1 -0.7
v 0.3 1 -0.7
v 0.3 1.1 -0.7
v 0.4 1 -0.7
v 0.4 1.1 -0.7
v 0.5 0.9 -0.7
v 0.5 1 -0.7
v 0.6 0 -0.7
v 0.6 0.9 -0.7
v 0.6 1 -0.7
v 0.7 0 -0.7
v 0.7 0.9 -0.7
v -0.6 0 -0.8
v -0.6 0.9 -0.8
v -0.5 0 -0.8
v -0.5 0.9 -0.8
v -0.5 1 -0.8
v -0.1 0.9 -0.8
v -0.1 1 -0.8
v 0.4 0.9 -0.8
v 0.4 1 -0.8
v 0.5 0 -0.8
v 0.5 0.9 -0.8
v 0.5 1 -0.8
v 0.6 0 -0.8
v 0.6 0.9 -0.8
v -0.5 0 -0.9
v -0.5 0.9 -0.9
v -0.2 0 -0.9
v -0.2 0.7 -0.9
v -0.1 0 -0.9
v -0.1 0.7 -0.9
v -0.1 0.9 -0.9
v -0.1 1 -0.9
v -0.1 1.1 -0.9
v 5.96046e-008 0.8 -0.9
v 5.96046e-008 0.9 -0.9
v 5.96046e-008 1 -0.9
v 0.2 0 -0.9
v 0.2 0.5 -0.9
v 0.3 0 -0.9
v 0.3 0.5 -0.9
v 0.3 0.8 -0.9
v 0.3 0.9 -0.9
v 0.3 1 -0.9
v 0.4 0.8 -0.9
v 0.4 0.9 -0.9
v 0.4 1 -0.9
v 0.4 1.1 -0.9
v 0.5 0 -0.9
v 0.5 0.9 -0.9
v -0.1 0.9 -1
v -0.1 1 -1
v 5.96046e-008 0.8 -1
v 5.96046e-008 0.9 -1
v 5.96046e-008 1 -1
v 0.3 0.8 -1
v 0.3 0.9 -1
v 0.3 1 -1
v 0.4 0.8 -1
v 0.4 0.9 -1
v -0.5 0 0.7
v -0.3 0 0.7
v -0.2 0 0.7
v 5.96046e-008 0 0.7
v 0.1 0 0.7
v 0.3 0 0.7
v 0.4 0 0.7
v 0.5 0 0.7
v -0.6 0 0.6
v -0.5 0 0.6
v -0.3 0 0.6
v -0.2 0 0.6
v 5.96046e-008 0 0.6
v 0.1 0 0.6
v 0.3 0 0.6
v 0.4 0 0.6
v 0.5 0 0.6
v 0.6 0 0.6
v -0.7 0 0.5
v -0.6 0 0.5
v 0.6 0 0.5
v 0.7 0 0.5
v -0.7 0 0.4
v -0.6 0 0.4
v -0.7 0 0.3
v -0.6 0 0.3
v 0.6 0 0.3
v 0.7 0 0.3
v 0.6 0 0.2
v 0.7 0 0.2
v -0.7 0 -5.96046e-008
v -0.6 0 -5.96046e-008
v -0.7 0 -0.1
v -0.6 0 -0.1
v 0.6 0 -0.1
v 0.7 0 -0.1
v 0.6 0 -0.2
v 0.7 0 -0.2
v -0.7 0 -0.4
v -0.6 0 -0.4
v 0.6 0 -0.4
v 0.7 0 -0.4
v -0.7 0 -0.5
v -0.6 0 -0.5
v 0.6 0 -0.5
v 0.7 0 -0.5
v -0.7 0 -0.7
v -0.6 0 -0.7
v 0.6 0 -0.7
v 0.7 0 -0.7
v -0.6 0 -0.8
v -0.5 0 -0.8
v -0.2 0 -0.8
v -0.1 0 -0.8
v 0.2 0 -0.8
v 0.3 0 -0.8
v 0.5 0 -0.8
v 0.6 0 -0.8
v -0.5 0 -0.9
v -0.2 0 -0.9
v -0.1 0 -0.9
v 0.2 0 -0.9
v 0.3 0 -0.9
v 0.5 0 -0.9
v -0.8 0.5 0.1
v -0.7 0.5 0.1
v -0.7 0.5 -5.96046e-008
v -0.8 0.5 -0.1
v -0.7 0.5 -0.1
v -0.8 0.6 0.2
v -0.7 0.6 0.2
v -0.8 0.6 0.1
v -0.7 0.6 0.1
v 0.6 0.7 0.6
v 0.7 0.7 0.6
v 0.6 0.7 0.5
v 0.7 0.7 0.5
v -0.4 0.8 0.8
v -0.1 0.8 0.8
v -0.4 0.8 0.7
v -0.1 0.8 0.7
v 0.7 0.8 0.5
v 0.8 0.8 0.5
v 0.9 0.8 0.5
v 0.8 0.8 0.4
v 0.9 0.8 0.4
v 0.7 0.8 0.3
v 0.8 0.8 0.3
v -0.8 0.8 -0.1
v -0.7 0.8 -0.1
v -0.8 0.8 -0.2
v -0.7 0.8 -0.2
v 5.96046e-008 0.8 -0.9
v 0.3 0.8 -0.9
v 0.4 0.8 -0.9
v 5.96046e-008 0.8 -1
v 0.3 0.8 -1
v 0.4 0.8 -1
v -0.5 0.9 0.8
v -0.4 0.9 0.8
v -0.6 0.9 0.7
v -0.5 0.9 0.7
v -0.4 0.9 0.7
v -0.6 0.9 0.6
v -0.5 0.9 0.6
v 0.7 0.9 0.2
v 0.8 0.9 0.2
v 0.7 0.9 0.1
v 0.8 0.9 0.1
v -0.1 0.9 -0.9
v 5.96046e-008 0.9 -0.9
v -0.1 0.9 -1
v 5.96046e-008 0.9 -1
v -0.2 0.9 0.8
v -0.1 0.9 0.8
v -0.2 0.9 0.7
v -0.1 0.9 0.7
v 0.5 0.9 0.7
v -0.2 0.9 0.6
v 0.5 0.9 0.6
v 0.6 0.9 0.6
v -0.7 0.9 0.5
v -0.6 0.9 0.5
v 0.5 0.9 0.5
v 0.6 0.9 0.5
v 0.8 0.9 0.5
v 0.9 0.9 0.5
v 0.8 0.9 0.4
v 0.9 0.9 0.4
v -0.8 0.9 0.2
v -0.7 0.9 0.2
v -0.6 0.9 0.2
v -0.8 0.9 0.1
v -0.7 0.9 0.1
v 0.6 0.9 -0.1
v 0.7 0.9 -0.1
v -0.7 0.9 -0.2
v -0.6 0.9 -0.2
v -0.7 0.9 -0.7
v -0.6 0.9 -0.7
v -0.5 0.9 -0.7
v 0.5 0.9 -0.7
v 0.6 0.9 -0.7
v 0.7 0.9 -0.7
v -0.6 0.9 -0.8
v -0.5 0.9 -0.8
v -0.1 0.9 -0.8
v 0.4 0.9 -0.8
v 0.5 0.9 -0.8
v 0.6 0.9 -0.8
v -0.5 0.9 -0.9
v -0.1 0.9 -0.9
v 0.3 0.9 -0.9
v 0.4 0.9 -0.9
v 0.5 0.9 -0.9
v 0.3 0.9 -1
v 0.4 0.9 -1
v -0.5 1 0.8
v -0.2 1 0.8
v -0.6 1 0.7
v -0.5 1 0.7
v -0.2 1 0.7
v -0.5 1 0.6
v -0.2 1 0.6
v 0.5 1 0.6
v 0.6 1 0.6
v 0.7 1 0.6
v -0.6 1 0.5
v -0.5 1 0.5
v -0.2 1 0.5
v 0.5 1 0.5
v 0.6 1 0.5
v 0.7 1 0.5
v -0.6 1 0.2
v -0.4 1 0.2
v 0.5 1 0.2
v 0.7 1 0.2
v 0.8 1 0.2
v -0.4 1 0.1
v -0.3 1 0.1
v 0.5 1 0.1
v 0.6 1 0.1
v 0.7 1 0.1
v 0.8 1 0.1
v -0.8 1 -0.1
v -0.7 1 -0.1
v -0.4 1 -0.1
v -0.3 1 -0.1
v 0.6 1 -0.1
v 0.7 1 -0.1
v -0.8 1 -0.2
v -0.7 1 -0.2
v -0.6 1 -0.2
v -0.5 1 -0.2
v -0.4 1 -0.2
v 5.96046e-008 1 -0.6
v 0.2 1 -0.6
v 0.4 1 -0.6
v -0.6 1 -0.7
v -0.5 1 -0.7
v -0.1 1 -0.7
v 5.96046e-008 1 -0.7
v 0.3 1 -0.7
v 0.4 1 -0.7
v 0.5 1 -0.7
v 0.6 1 -0.7
v -0.5 1 -0.8
v -0.1 1 -0.8
v 0.3 1 -0.8
v 0.4 1 -0.8
v 0.5 1 -0.8
v -0.1 1 -0.9
v 5.96046e-008 1 -0.9
v 0.3 1 -0.9
v -0.1 1 -1
v 5.96046e-008 1 -1
v 0.3 1 -1
v -0.5 1.1 0.6
v -0.2 1.1 0.6
v -0.5 1.1 0.5
v -0.2 1.1 0.5
v 0.5 1.1 0.5
v 0.7 1.1 0.5
v 0.8 1.1 0.5
v 0.7 1.1 0.3
v 0.8 1.1 0.3
v -0.7 1.1 0.2
v -0.4 1.1 0.2
v 0.5 1.1 0.2
v 0.7 1.1 0.2
v -0.8 1.1 0.1
v -0.7 1.1 0.1
v -0.4 1.1 0.1
v -0.3 1.1 0.1
v 0.5 1.1 0.1
v 0.7 1.1 0.1
v -0.8 1.1 -5.96046e-008
v -0.7 1.1 -5.96046e-008
v -0.8 1.1 -0.1
v -0.7 1.1 -0.1
v -0.5 1.1 -0.1
v -0.4 1.1 -0.1
v -0.3 1.1 -0.1
v -0.7 1.1 -0.2
v -0.5 1.1 -0.2
v -0.4 1.1 -0.2
v 5.96046e-008 1.1 -0.6
v 0.2 1.1 -0.6
v 0.4 1.1 -0.6
v -0.1 1.1 -0.7
v 5.96046e-008 1.1 -0.7
v 0.3 1.1 -0.7
v 0.4 1.1 -0.7
v -0.1 1.1 -0.8
v 5.96046e-008 1.1 -0.8
v 0.2 1.1 -0.8
v 0.3 1.1 -0.8
v 0.4 1.1 -0.8
v -0.1 1.1 -0.9
v 0.4 1.1 -0.9

# faces
f 4/3/1 2/3/1 1/3/1
f 5/3/1 2/3/1 4/3/1
f 6/4/1 4/4/1 3/4/1
f 6/4/1 5/4/1 4/4/1
f 7/4/1 5/4/1 6/4/1
f 8/4/1 5/4/1 7/4/1
f 10/3/1 7/3/1 6/3/1
f 11/3/1 7/3/1 10/3/1
f 12/4/1 8/4/1 7/4/1
f 12/4/1 9/4/1 8/4/1
f 13/4/1 9/4/1 12/4/1
f 14/3/1 7/3/1 11/3/1
f 15/4/1 12/4/1 7/4/1
f 15/3/1 7/3/1 14/3/1
f 16/4/1 12/4/1 15/4/1
f 25/1/1 18/1/1 17/1/1
f 25/2/1 19/2/1 18/2/1
f 26/1/1 20/1/1 19/1/1
f 26/2/1 19/2/1 25/2/1
f 27/1/1 20/1/1 26/1/1
f 28/2/1 21/2/1 20/2/1
f 28/1/1 20/1/1 27/1/1
f 29/1/1 22/1/1 21/1/1
f 29/2/1 21/2/1 28/2/1
f 30/1/1 27/1/1 26/1/1
f 30/1/1 26/1/1 25/1/1
f 31/1/1 27/1/1 30/1/1
f 32/1/1 22/1/1 29/1/1
f 33/2/1 23/2/1 22/2/1
f 33/1/1 22/1/1 32/1/1
f 34/1/1 24/1/1 23/1/1
f 34/2/1 23/2/1 33/2/1
f 35/1/1 30/1/1 25/1/1
f 36/1/1 33/1/1 32/1/1
f 36/1/1 34/1/1 33/1/1
f 37/1/1 34/1/1 36/1/1
f 38/1/1 35/1/1 25/1/1
f 38/1/1 25/1/1 17/1/1
f 39/1/1 35/1/1 38/1/1
f 41/1/1 34/1/1 37/1/1
f 42/1/1 24/1/1 34/1/1
f 42/1/1 34/1/1 41/1/1
f 45/4/1 40/4/1 39/4/1
f 46/4/1 40/4/1 45/4/1
f 47/3/1 44/3/1 43/3/1
f 48/3/1 44/3/1 47/3/1
f 54/1/1 50/1/1 49/1/1
f 55/1/1 50/1/1 54/1/1
f 58/1/1 52/1/1 51/1/1
f 59/1/1 52/1/1 58/1/1
f 60/4/1 54/4/1 53/4/1
f 60/4/1 55/4/1 54/4/1
f 61/2/1 56/2/1 55/2/1
f 61/4/1 55/4/1 60/4/1
f 62/2/1 56/2/1 61/2/1
f 63/2/1 58/2/1 57/2/1
f 64/2/1 58/2/1 63/2/1
f 70/1/1 66/1/1 65/1/1
f 71/1/1 66/1/1 70/1/1
f 73/1/1 68/1/1 67/1/1
f 74/1/1 68/1/1 73/1/1
f 75/4/1 70/4/1 69/4/1
f 76/4/1 70/4/1 75/4/1
f 79/2/1 73/2/1 72/2/1
f 80/2/1 73/2/1 79/2/1
f 81/4/1 78/4/1 77/4/1
f 82/4/1 78/4/1 81/4/1
f 85/4/1 84/4/1 83/4/1
f 86/4/1 84/4/1 85/4/1
f 91/4/1 88/4/1 87/4/1
f 92/3/1 89/3/1 88/3/1
f 92/4/1 88/4/1 91/4/1
f 93/3/1 89/3/1 92/3/1
f 94/4/1 91/4/1 90/4/1
f 95/3/1 92/3/1 91/3/1
f 95/4/1 91/4/1 94/4/1
f 96/3/1 92/3/1 95/3/1
f 99/4/1 98/4/1 97/4/1
f 100/4/1 98/4/1 99/4/1
f 103/3/1 102/3/1 101/3/1
f 104/3/1 102/3/1 103/3/1
f 108/3/1 106/3/1 105/3/1
f 109/4/1 107/4/1 106/4/1
f 109/3/1 106/3/1 108/3/1
f 110/4/1 107/4/1 109/4/1
f 113/4/1 112/4/1 111/4/1
f 114/4/1 112/4/1 113/4/1
f 115/4/2 116/4/2 119/4/2
f 119/4/2 116/4/2 120/4/2
f 117/4/2 118/4/2 121/4/2
f 121/4/2 118/4/2 122/4/2
f 123/4/2 124/4/2 125/4/2
f 125/4/2 124/4/2 126/4/2
f 127/4/2 128/4/2 130/4/2
f 128/3/2 129/3/2 131/3/2
f 130/4/2 128/4/2 131/4/2
f 131/3/2 129/3/2 132/3/2
f 132/4/2 133/4/2 134/4/2
f 134/4/2 133/4/2 135/4/2
f 136/4/2 137/4/2 138/4/2
f 138/4/2 137/4/2 139/4/2
f 140/4/2 141/4/2 144/4/2
f 144/4/2 141/4/2 145/4/2
f 142/4/2 143/4/2 146/4/2
f 146/4/2 143/4/2 147/4/2
f 148/3/2 149/3/2 151/3/2
f 151/3/2 149/3/2 152/3/2
f 150/4/2 151/4/2 155/4/2
f 155/4/2 151/4/2 156/4/2
f 153/4/2 154/4/2 157/4/2
f 157/4/2 154/4/2 158/4/2
f 155/3/2 156/3/2 159/3/2
f 159/3/2 156/3/2 160/3/2
f 161/1/2 162/1/2 165/1/2
f 165/1/2 162/1/2 166/1/2
f 163/1/2 164/1/2 169/1/2
f 169/1/2 164/1/2 170/1/2
f 166/2/2 167/2/2 171/2/2
f 171/2/2 167/2/2 172/2/2
f 168/2/2 169/2/2 173/2/2
f 173/2/2 169/2/2 174/2/2
f 175/1/2 176/1/2 179/1/2
f 179/1/2 176/1/2 180/1/2
f 177/1/2 178/1/2 182/1/2
f 182/1/2 178/1/2 183/1/2
f 181/2/2 182/2/2 184/2/2
f 184/2/2 182/2/2 185/2/2
f 186/1/2 187/1/2 194/1/2
f 187/2/2 188/2/2 194/2/2
f 188/1/2 189/1/2 195/1/2
f 194/2/2 188/2/2 195/2/2
f 191/2/2 192/2/2 196/2/2
f 190/1/2 191/1/2 196/1/2
f 192/1/2 193/1/2 197/1/2
f 196/2/2 192/2/2 197/2/2
f 186/1/2 194/1/2 199/1/2
f 194/1/2 195/1/2 199/1/2
f 195/1/2 189/1/2 200/1/2
f 189/2/2 190/2/2 200/2/2
f 199/1/2 195/1/2 200/1/2
f 190/1/2 196/1/2 201/1/2
f 200/2/2 190/2/2 201/2/2
f 196/1/2 197/1/2 201/1/2
f 199/1/2 200/1/2 202/1/2
f 198/4/2 199/4/2 202/4/2
f 200/1/2 201/1/2 202/1/2
f 202/1/2 201/1/2 203/1/2
f 203/1/2 201/1/2 204/1/2
f 204/1/2 201/1/2 205/1/2
f 205/1/2 201/1/2 206/1/2
f 206/1/2 201/1/2 207/1/2
f 201/1/2 197/1/2 208/1/2
f 207/1/2 201/1/2 208/1/2
f 197/1/2 193/1/2 208/1/2
f 198/4/2 202/4/2 209/4/2
f 209/4/2 202/4/2 210/4/2
f 204/4/2 205/4/2 211/4/2
f 211/4/2 205/4/2 212/4/2
f 206/3/2 207/3/2 213/3/2
f 213/3/2 207/3/2 214/3/2
f 211/3/2 212/3/2 215/3/2
f 212/4/2 213/4/2 216/4/2
f 215/3/2 212/3/2 216/3/2
f 216/4/2 213/4/2 217/4/2
f 218/4/2 219/4/2 221/4/2
f 222/4/2 223/4/2 224/4/2
f 224/4/2 223/4/2 225/4/2
f 220/4/2 221/4/2 226/4/2
f 221/4/2 219/4/2 227/4/2
f 226/4/2 221/4/2 227/4/2
f 228/3/2 229/3/2 230/3/2
f 230/3/2 229/3/2 231/3/2
f 235/4/3 233/4/3 232/4/3
f 236/4/3 233/4/3 235/4/3
f 236/4/3 235/4/3 234/4/3
f 237/4/3 233/4/3 236/4/3
f 238/4/3 236/4/3 234/4/3
f 239/4/3 236/4/3 238/4/3
f 243/4/3 241/4/3 240/4/3
f 244/4/3 241/4/3 243/4/3
f 245/1/3 243/1/3 242/1/3
f 246/1/3 243/1/3 245/1/3
f 247/1/3 245/1/3 242/1/3
f 248/1/3 245/1/3 247/1/3
f 249/2/3 248/2/3 247/2/3
f 250/1/3 245/1/3 248/1/3
f 250/2/3 248/2/3 249/2/3
f 251/1/3 250/1/3 249/1/3
f 251/1/3 245/1/3 250/1/3
f 253/1/3 251/1/3 249/1/3
f 253/1/3 252/1/3 251/1/3
f 254/1/3 252/1/3 253/1/3
f 255/2/3 254/2/3 253/2/3
f 256/1/3 252/1/3 254/1/3
f 256/2/3 254/2/3 255/2/3
f 257/1/3 256/1/3 255/1/3
f 258/1/3 256/1/3 257/1/3
f 259/2/3 258/2/3 257/2/3
f 260/1/3 256/1/3 258/1/3
f 260/2/3 258/2/3 259/2/3
f 261/1/3 260/1/3 259/1/3
f 262/1/3 252/1/3 256/1/3
f 262/1/3 260/1/3 261/1/3
f 262/1/3 256/1/3 260/1/3
f 265/1/3 264/1/3 263/1/3
f 266/1/3 264/1/3 265/1/3
f 270/4/3 268/4/3 267/4/3
f 271/4/3 268/4/3 270/4/3
f 273/2/3 270/2/3 269/2/3
f 274/2/3 270/2/3 273/2/3
f 275/1/3 273/1/3 272/1/3
f 276/1/3 273/1/3 275/1/3
f 277/1/3 273/1/3 276/1/3
f 279/4/3 278/4/3 277/4/3
f 279/4/3 277/4/3 276/4/3
f 280/4/3 278/4/3 279/4/3
f 283/1/3 282/1/3 281/1/3
f 284/1/3 282/1/3 283/1/3
f 290/2/3 286/2/3 285/2/3
f 291/3/3 287/3/3 286/3/3
f 291/2/3 286/2/3 290/2/3
f 292/1/3 289/1/3 288/1/3
f 293/1/3 289/1/3 292/1/3
f 295/3/3 287/3/3 291/3/3
f 296/3/3 287/3/3 295/3/3
f 297/4/3 295/4/3 294/4/3
f 297/4/3 296/4/3 295/4/3
f 298/4/3 296/4/3 297/4/3
f 299/4/3 296/4/3 298/4/3
f 300/3/3 298/3/3 297/3/3
f 301/3/3 298/3/3 300/3/3
f 305/4/3 303/4/3 302/4/3
f 306/3/3 304/3/3 303/3/3
f 306/4/3 303/4/3 305/4/3
f 307/3/3 304/3/3 306/3/3
f 309/4/3 308/4/3 307/4/3
f 310/4/3 308/4/3 309/4/3
f 311/4/3 308/4/3 310/4/3
f 312/4/3 308/4/3 311/4/3
f 315/4/3 314/4/3 313/4/3
f 316/4/3 314/4/3 315/4/3
f 321/3/3 318/3/3 317/3/3
f 322/3/3 318/3/3 321/3/3
f 323/3/3 320/3/3 319/3/3
f 324/3/3 320/3/3 323/3/3
f 327/4/3 326/4/3 325/4/3
f 328/4/3 326/4/3 327/4/3
f 331/3/3 330/3/3 329/3/3
f 332/3/3 330/3/3 331/3/3
f 333/4/3 332/4/3 331/4/3
f 334/4/3 332/4/3 333/4/3
f 337/4/3 336/4/3 335/4/3
f 338/4/3 336/4/3 337/4/3
f 341/3/3 340/3/3 339/3/3
f 342/3/3 340/3/3 341/3/3
f 343/4/4 344/4/4 345/4/4
f 345/4/4 344/4/4 346/4/4
f 347/3/4 348/3/4 349/3/4
f 349/3/4 348/3/4 350/3/4
f 351/4/4 352/4/4 355/4/4
f 353/4/4 354/4/4 355/4/4
f 352/4/4 353/4/4 355/4/4
f 355/4/4 354/4/4 356/4/4
f 357/4/4 358/4/4 359/4/4
f 359/4/4 358/4/4 361/4/4
f 361/4/4 358/4/4 362/4/4
f 360/4/4 361/4/4 363/4/4
f 363/4/4 361/4/4 364/4/4
f 365/3/4 366/3/4 370/3/4
f 366/4/4 367/4/4 371/4/4
f 370/3/4 366/3/4 371/3/4
f 371/4/4 367/4/4 372/4/4
f 368/4/4 369/4/4 373/4/4
f 373/4/4 369/4/4 374/4/4
f 375/4/4 376/4/4 377/4/4
f 377/4/4 376/4/4 378/4/4
f 379/3/4 380/3/4 381/3/4
f 381/3/4 380/3/4 382/3/4
f 383/4/4 384/4/4 385/4/4
f 385/4/4 384/4/4 386/4/4
f 386/4/4 384/4/4 387/4/4
f 386/4/4 387/4/4 389/4/4
f 387/3/4 388/3/4 390/3/4
f 389/4/4 387/4/4 390/4/4
f 390/3/4 388/3/4 391/3/4
f 391/3/4 388/3/4 392/3/4
f 391/4/4 392/4/4 393/4/4
f 393/4/4 392/4/4 394/4/4
f 395/1/4 396/1/4 397/1/4
f 397/1/4 396/1/4 398/1/4
f 398/2/4 399/2/4 400/2/4
f 400/2/4 399/2/4 401/2/4
f 402/4/4 403/4/4 404/4/4
f 404/4/4 403/4/4 405/4/4
f 406/2/4 407/2/4 409/2/4
f 409/2/4 407/2/4 410/2/4
f 408/1/4 409/1/4 411/1/4
f 411/1/4 409/1/4 412/1/4
f 413/1/4 414/1/4 415/1/4
f 415/1/4 414/1/4 416/1/4
f 416/2/4 417/2/4 418/2/4
f 418/2/4 417/2/4 419/2/4
f 420/2/4 421/2/4 423/2/4
f 423/2/4 421/2/4 424/2/4
f 422/1/4 423/1/4 425/1/4
f 425/1/4 423/1/4 426/1/4
f 427/1/4 428/1/4 429/1/4
f 429/1/4 428/1/4 430/1/4
f 429/2/4 430/2/4 431/2/4
f 430/1/4 428/1/4 432/1/4
f 431/2/4 430/2/4 432/2/4
f 432/1/4 428/1/4 433/1/4
f 431/1/4 432/1/4 436/1/4
f 432/1/4 433/1/4 436/1/4
f 436/1/4 433/1/4 437/1/4
f 434/3/4 435/3/4 438/3/4
f 431/1/4 436/1/4 439/1/4
f 439/1/4 436/1/4 440/1/4
f 439/2/4 440/2/4 441/2/4
f 440/1/4 436/1/4 442/1/4
f 441/2/4 440/2/4 442/2/4
f 442/1/4 436/1/4 443/1/4
f 438/3/4 435/3/4 445/3/4
f 442/1/4 443/1/4 446/1/4
f 441/1/4 442/1/4 446/1/4
f 444/4/4 445/4/4 447/4/4
f 445/3/4 435/3/4 448/3/4
f 447/4/4 445/4/4 448/4/4
f 448/3/4 435/3/4 449/3/4
f 441/1/4 446/1/4 450/1/4
f 446/1/4 447/1/4 450/1/4
f 450/1/4 447/1/4 451/1/4
f 452/3/4 453/3/4 455/3/4
f 455/3/4 453/3/4 456/3/4
f 454/4/4 455/4/4 457/4/4
f 455/4/4 456/4/4 457/4/4
f 457/4/4 456/4/4 458/4/4
f 458/4/4 456/4/4 459/4/4
f 457/3/4 458/3/4 460/3/4
f 460/3/4 458/3/4 461/3/4
f 471/1/5 463/1/5 462/1/5
f 472/2/5 464/2/5 463/2/5
f 472/1/5 463/1/5 471/1/5
f 473/1/5 465/1/5 464/1/5
f 473/2/5 464/2/5 472/2/5
f 474/2/5 466/2/5 465/2/5
f 474/1/5 465/1/5 473/1/5
f 475/1/5 467/1/5 466/1/5
f 475/2/5 466/2/5 474/2/5
f 476/2/5 468/2/5 467/2/5
f 476/1/5 467/1/5 475/1/5
f 477/1/5 469/1/5 468/1/5
f 477/2/5 468/2/5 476/2/5
f 478/1/5 469/1/5 477/1/5
f 481/1/5 476/1/5 475/1/5
f 481/1/5 479/1/5 478/1/5
f 481/1/5 478/1/5 477/1/5
f 481/1/5 477/1/5 476/1/5
f 481/1/5 471/1/5 470/1/5
f 481/1/5 475/1/5 474/1/5
f 481/1/5 474/1/5 473/1/5
f 481/1/5 473/1/5 472/1/5
f 481/1/5 472/1/5 471/1/5
f 482/1/5 479/1/5 481/1/5
f 484/1/5 481/1/5 480/1/5
f 484/1/5 483/1/5 482/1/5
f 484/1/5 482/1/5 481/1/5
f 485/1/5 483/1/5 484/1/5
f 486/2/5 485/2/5 484/2/5
f 487/1/5 483/1/5 485/1/5
f 487/2/5 485/2/5 486/2/5
f 488/1/5 483/1/5 487/1/5
f 489/1/5 483/1/5 488/1/5
f 490/1/5 487/1/5 486/1/5
f 490/1/5 488/1/5 487/1/5
f 490/2/5 489/2/5 488/2/5
f 491/2/5 489/2/5 490/2/5
f 492/1/5 490/1/5 486/1/5
f 492/1/5 491/1/5 490/1/5
f 493/1/5 491/1/5 492/1/5
f 494/2/5 493/2/5 492/2/5
f 495/1/5 491/1/5 493/1/5
f 495/2/5 493/2/5 494/2/5
f 496/1/5 491/1/5 495/1/5
f 497/1/5 491/1/5 496/1/5
f 498/1/5 495/1/5 494/1/5
f 498/1/5 496/1/5 495/1/5
f 498/2/5 497/2/5 496/2/5
f 499/2/5 497/2/5 498/2/5
f 500/1/5 498/1/5 494/1/5
f 500/1/5 499/1/5 498/1/5
f 501/1/5 499/1/5 500/1/5
f 502/1/5 499/1/5 501/1/5
f 503/1/5 499/1/5 502/1/5
f 504/2/5 501/2/5 500/2/5
f 505/1/5 502/1/5 501/1/5
f 505/2/5 501/2/5 504/2/5
f 506/2/5 503/2/5 502/2/5
f 506/1/5 502/1/5 505/1/5
f 507/2/5 503/2/5 506/2/5
f 508/1/5 505/1/5 504/1/5
f 508/1/5 506/1/5 505/1/5
f 508/1/5 507/1/5 506/1/5
f 509/1/5 507/1/5 508/1/5
f 510/1/5 507/1/5 509/1/5
f 511/1/5 507/1/5 510/1/5
f 512/1/5 510/1/5 509/1/5
f 513/1/5 510/1/5 512/1/5
f 514/1/5 510/1/5 513/1/5
f 515/1/5 510/1/5 514/1/5
f 516/1/5 510/1/5 515/1/5
f 517/1/5 510/1/5 516/1/5
f 518/1/5 510/1/5 517/1/5
f 519/1/5 510/1/5 518/1/5
f 520/1/5 514/1/5 513/1/5
f 521/2/5 515/2/5 514/2/5
f 521/1/5 514/1/5 520/1/5
f 522/1/5 516/1/5 515/1/5
f 522/2/5 515/2/5 521/2/5
f 523/2/5 517/2/5 516/2/5
f 523/1/5 516/1/5 522/1/5
f 524/1/5 518/1/5 517/1/5
f 524/2/5 517/2/5 523/2/5
f 525/1/5 518/1/5 524/1/5
f 528/3/5 527/3/5 526/3/5
f 529/3/5 528/3/5 526/3/5
f 530/3/5 528/3/5 529/3/5
f 533/4/5 532/4/5 531/4/5
f 534/4/5 532/4/5 533/4/5
f 537/4/5 536/4/5 535/4/5
f 538/4/5 536/4/5 537/4/5
f 541/4/5 540/4/5 539/4/5
f 542/4/5 540/4/5 541/4/5
f 546/4/5 544/4/5 543/4/5
f 546/3/5 545/3/5 544/3/5
f 547/3/5 545/3/5 546/3/5
f 548/4/5 546/4/5 543/4/5
f 549/4/5 546/4/5 548/4/5
f 552/4/5 551/4/5 550/4/5
f 553/4/5 551/4/5 552/4/5
f 557/4/5 555/4/5 554/4/5
f 558/3/5 556/3/5 555/3/5
f 558/4/5 555/4/5 557/4/5
f 559/3/5 556/3/5 558/3/5
f 563/4/5 561/4/5 560/4/5
f 564/4/5 561/4/5 563/4/5
f 565/4/5 563/4/5 562/4/5
f 566/4/5 563/4/5 565/4/5
f 569/4/5 568/4/5 567/4/5
f 570/4/5 568/4/5 569/4/5
f 573/3/5 572/3/5 571/3/5
f 574/3/5 572/3/5 573/3/5
f 575/4/6 576/4/6 577/4/6
f 577/4/6 576/4/6 578/4/6
f 577/1/6 578/1/6 580/1/6
f 578/1/6 579/1/6 580/1/6
f 580/1/6 579/1/6 581/1/6
f 581/1/6 582/1/6 585/1/6
f 585/1/6 582/1/6 586/1/6
f 587/3/6 588/3/6 589/3/6
f 589/3/6 588/3/6 590/3/6
f 583/1/6 584/1/6 592/1/6
f 592/1/6 584/1/6 593/1/6
f 591/3/6 592/3/6 594/3/6
f 594/3/6 592/3/6 595/3/6
f 598/1/6 599/1/6 600/1/6
f 600/1/6 599/1/6 601/1/6
f 596/1/6 597/1/6 604/1/6
f 604/1/6 597/1/6 605/1/6
f 601/1/6 602/1/6 606/1/6
f 606/1/6 602/1/6 607/1/6
f 603/1/6 604/1/6 610/1/6
f 610/1/6 604/1/6 611/1/6
f 607/1/6 608/1/6 612/1/6
f 612/1/6 608/1/6 613/1/6
f 609/1/6 610/1/6 615/1/6
f 615/1/6 610/1/6 616/1/6
f 614/3/6 615/3/6 617/3/6
f 617/3/6 615/3/6 618/3/6
f 619/4/6 620/4/6 622/4/6
f 622/4/6 620/4/6 623/4/6
f 621/4/6 622/4/6 624/4/6
f 622/3/6 623/3/6 624/3/6
f 624/3/6 623/3/6 625/3/6
f 621/4/6 624/4/6 629/4/6
f 629/4/6 624/4/6 630/4/6
f 625/2/6 626/2/6 631/2/6
f 631/2/6 626/2/6 632/2/6
f 627/4/6 628/4/6 633/4/6
f 633/4/6 628/4/6 634/4/6
f 631/2/6 632/2/6 635/2/6
f 629/2/6 630/2/6 635/2/6
f 630/2/6 631/2/6 635/2/6
f 635/2/6 632/2/6 636/2/6
f 636/2/6 632/2/6 637/2/6
f 636/2/6 637/2/6 640/2/6
f 640/2/6 637/2/6 641/2/6
f 641/2/6 637/2/6 642/2/6
f 638/4/6 639/4/6 644/4/6
f 644/4/6 639/4/6 645/4/6
f 642/2/6 643/2/6 649/2/6
f 641/2/6 642/2/6 649/2/6
f 643/3/6 644/3/6 650/3/6
f 649/2/6 643/2/6 650/2/6
f 650/3/6 644/3/6 651/3/6
f 646/4/6 647/4/6 652/4/6
f 652/4/6 647/4/6 653/4/6
f 648/2/6 649/2/6 656/2/6
f 649/2/6 650/2/6 656/2/6
f 654/2/6 655/2/6 657/2/6
f 655/2/6 656/2/6 657/2/6
f 656/2/6 650/2/6 657/2/6
f 657/2/6 650/2/6 658/2/6
f 658/2/6 650/2/6 659/2/6
f 654/2/6 657/2/6 660/2/6
f 660/2/6 657/2/6 661/2/6
f 661/2/6 657/2/6 662/2/6
f 662/2/6 657/2/6 663/2/6
f 659/2/6 650/2/6 665/2/6
f 665/2/6 650/2/6 666/2/6
f 666/2/6 650/2/6 667/2/6
f 661/2/6 662/2/6 668/2/6
f 668/2/6 662/2/6 669/2/6
f 665/2/6 666/2/6 670/2/6
f 664/2/6 665/2/6 670/2/6
f 670/2/6 666/2/6 671/2/6
f 671/2/6 666/2/6 672/2/6
f 673/3/6 674/3/6 676/3/6
f 674/4/6 675/4/6 677/4/6
f 676/3/6 674/3/6 677/3/6
f 677/4/6 675/4/6 678/4/6
f 679/4/6 680/4/6 681/4/6
f 681/4/6 680/4/6 682/4/6
f 684/4/6 685/4/6 686/4/6
f 683/3/6 684/3/6 686/3/6
f 686/4/6 685/4/6 687/4/6
f 683/3/6 686/3/6 690/3/6
f 690/3/6 686/3/6 691/3/6
f 688/4/6 689/4/6 693/4/6
f 693/4/6 689/4/6 694/4/6
f 690/4/6 691/4/6 696/4/6
f 696/4/6 691/4/6 697/4/6
f 692/3/6 693/3/6 698/3/6
f 694/4/6 695/4/6 699/4/6
f 698/3/6 693/3/6 699/3/6
f 693/4/6 694/4/6 699/4/6
f 698/4/6 699/4/6 700/4/6
f 699/4/6 695/4/6 701/4/6
f 700/4/6 699/4/6 701/4/6
f 701/4/6 695/4/6 702/4/6
f 702/4/6 695/4/6 703/4/6
f 703/4/6 695/4/6 704/4/6
f 701/3/6 702/3/6 705/3/6
f 702/4/6 703/4/6 706/4/6
f 705/3/6 702/3/6 706/3/6
f 706/4/6 703/4/6 707/4/6
f 708/3/6 709/3/6 712/3/6
f 709/4/6 710/4/6 713/4/6
f 713/4/6 710/4/6 714/4/6
f 711/4/6 712/4/6 715/4/6
f 712/3/6 709/3/6 716/3/6
f 715/4/6 712/4/6 716/4/6
f 709/4/6 713/4/6 717/4/6
f 716/3/6 709/3/6 717/3/6
f 717/4/6 713/4/6 718/4/6
f 715/3/6 716/3/6 720/3/6
f 718/3/6 719/3/6 720/3/6
f 717/3/6 718/3/6 720/3/6
f 716/3/6 717/3/6 720/3/6
f 720/3/6 719/3/6 721/3/6
