[gd_resource type="Resource" script_class="Item" load_steps=6 format=3 uid="uid://ch4rcsa0v2lcw"]

[ext_resource type="Script" path="res://autoloads/data/classes/item.gd" id="1_rh1im"]
[ext_resource type="Texture2D" uid="uid://dtorfa47l84r6" path="res://assets/ui/icons/monsterra.svg" id="1_slr0k"]
[ext_resource type="Texture2D" uid="uid://nim4scisbhri" path="res://assets/sprites/rune-4.png" id="2_hrp3u"]
[ext_resource type="PackedScene" uid="uid://csaudm3rycbx0" path="res://assets/models/pickup/monsterra/monsterra.obj" id="2_tjroa"]
[ext_resource type="Texture2D" uid="uid://cseuc54la7mwo" path="res://assets/sprites/rune-4_emission.png" id="3_qafrr"]

[resource]
script = ExtResource("1_rh1im")
id = 5
label = "Nebula Leaf"
found_on = Array[int]([3])
aquired_through = Array[int]([0])
purposes = Array[int]([1])
icon = ExtResource("1_slr0k")
rune = ExtResource("2_hrp3u")
rune_emission = ExtResource("3_qafrr")
obj_scene = ExtResource("2_tjroa")
