[gd_resource type="Resource" script_class="Item" load_steps=6 format=3 uid="uid://q6rus4gf20ba"]

[ext_resource type="Script" path="res://autoloads/data/classes/item.gd" id="1_dxxbf"]
[ext_resource type="Texture2D" uid="uid://4n26cu2245au" path="res://assets/ui/icons/rock.svg" id="1_pbpke"]
[ext_resource type="PackedScene" uid="uid://d14gb2v68v8lw" path="res://assets/models/pickup/rock/rock.obj" id="2_0hfuf"]
[ext_resource type="Texture2D" uid="uid://b00bp6ajpjk80" path="res://assets/sprites/rune-1.png" id="2_v36to"]
[ext_resource type="Texture2D" uid="uid://cdvnasu4qgwxf" path="res://assets/sprites/rune-1_emission.png" id="3_77pbr"]

[resource]
script = ExtResource("1_dxxbf")
id = 2
label = "Rock"
found_on = Array[int]([1])
aquired_through = Array[int]([0])
purposes = Array[int]([1])
icon = ExtResource("1_pbpke")
rune = ExtResource("2_v36to")
rune_emission = ExtResource("3_77pbr")
obj_scene = ExtResource("2_0hfuf")
