# MagicaVoxel @ Ephtracy

# group
o 

# material
mtllib apple.mtl
usemtl palette

# normals
vn -1 0 0
vn 1 0 0
vn 0 0 1
vn 0 0 -1
vn 0 -1 0
vn 0 1 0

# texcoords
vt 0.814453 0.5
vt 0.845703 0.5
vt 0.853516 0.5

# verts
v -1 0.2 0.5
v -1 0.2 -0.4
v -1 1.4 0.5
v -1 1.4 -0.4
v -0.9 0.1 0.5
v -0.9 0.1 -0.4
v -0.9 0.2 0.6
v -0.9 0.2 0.5
v -0.9 0.2 -0.4
v -0.9 0.2 -0.5
v -0.9 1.4 0.6
v -0.9 1.4 0.5
v -0.9 1.4 -0.4
v -0.9 1.4 -0.5
v -0.9 1.5 0.5
v -0.9 1.5 -0.4
v -0.8 0 0.5
v -0.8 0 -0.4
v -0.8 0.1 0.6
v -0.8 0.1 0.5
v -0.8 0.1 -0.4
v -0.8 0.1 -0.5
v -0.8 0.2 0.7
v -0.8 0.2 0.6
v -0.8 0.2 0.5
v -0.8 0.2 -0.4
v -0.8 0.2 -0.5
v -0.8 0.2 -0.6
v -0.8 1.4 0.7
v -0.8 1.4 0.6
v -0.8 1.4 0.5
v -0.8 1.4 -0.4
v -0.8 1.4 -0.5
v -0.8 1.4 -0.6
v -0.8 1.5 0.6
v -0.8 1.5 0.5
v -0.8 1.5 -0.4
v -0.8 1.5 -0.5
v -0.7 0 0.6
v -0.7 0 0.5
v -0.7 0 -0.4
v -0.7 0 -0.5
v -0.7 0.1 0.7
v -0.7 0.1 0.6
v -0.7 0.1 0.5
v -0.7 0.1 -0.4
v -0.7 0.1 -0.5
v -0.7 0.1 -0.6
v -0.7 0.2 0.8
v -0.7 0.2 0.7
v -0.7 0.2 0.6
v -0.7 0.2 -0.5
v -0.7 0.2 -0.6
v -0.7 0.2 -0.7
v -0.7 1.4 0.8
v -0.7 1.4 0.7
v -0.7 1.4 0.6
v -0.7 1.4 -0.5
v -0.7 1.4 -0.6
v -0.7 1.4 -0.7
v -0.7 1.5 0.7
v -0.7 1.5 0.6
v -0.7 1.5 -0.5
v -0.7 1.5 -0.6
v -0.6 0 0.7
v -0.6 0 0.6
v -0.6 0 -0.5
v -0.6 0 -0.6
v -0.6 0.1 0.8
v -0.6 0.1 0.7
v -0.6 0.1 0.6
v -0.6 0.1 -0.5
v -0.6 0.1 -0.6
v -0.6 0.1 -0.7
v -0.6 0.2 0.9
v -0.6 0.2 0.8
v -0.6 0.2 0.7
v -0.6 0.2 -0.6
v -0.6 0.2 -0.7
v -0.6 0.2 -0.8
v -0.6 1.4 0.9
v -0.6 1.4 0.8
v -0.6 1.4 0.7
v -0.6 1.4 -0.6
v -0.6 1.4 -0.7
v -0.6 1.4 -0.8
v -0.6 1.5 0.8
v -0.6 1.5 0.7
v -0.6 1.5 -0.6
v -0.6 1.5 -0.7
v -0.5 0 0.8
v -0.5 0 0.7
v -0.5 0 -0.6
v -0.5 0 -0.7
v -0.5 0.1 0.9
v -0.5 0.1 0.8
v -0.5 0.1 0.7
v -0.5 0.1 -0.6
v -0.5 0.1 -0.7
v -0.5 0.1 -0.8
v -0.5 0.2 1
v -0.5 0.2 0.9
v -0.5 0.2 0.8
v -0.5 0.2 -0.7
v -0.5 0.2 -0.8
v -0.5 0.2 -0.9
v -0.5 1.4 1
v -0.5 1.4 0.9
v -0.5 1.4 0.8
v -0.5 1.4 -0.7
v -0.5 1.4 -0.8
v -0.5 1.4 -0.9
v -0.5 1.5 0.9
v -0.5 1.5 0.8
v -0.5 1.5 -0.7
v -0.5 1.5 -0.8
v -0.4 0 -0.7
v -0.4 0 -0.8
v -0.4 0.1 -0.7
v -0.4 0.1 -0.8
v -0.4 0.1 -0.9
v -0.4 0.2 -0.8
v -0.4 0.2 -0.9
v -0.4 0.2 -1
v -0.4 1.4 -0.8
v -0.4 1.4 -0.9
v -0.4 1.4 -1
v -0.4 1.5 -0.8
v -0.4 1.5 -0.9
v -0.1 1.3 0.1
v -0.1 1.3 -0.1
v -0.1 2 0.1
v -0.1 2 -0.1
v 0.5 1.3 0.7
v 0.5 1.3 0.6
v 0.5 1.3 -0.5
v 0.5 1.3 -0.6
v 0.5 1.4 0.8
v 0.5 1.4 0.7
v 0.5 1.4 0.6
v 0.5 1.4 -0.5
v 0.5 1.4 -0.6
v 0.5 1.4 -0.7
v 0.5 1.5 0.8
v 0.5 1.5 0.7
v 0.5 1.5 -0.6
v 0.5 1.5 -0.7
v 0.6 1.3 0.6
v 0.6 1.3 0.5
v 0.6 1.3 -0.4
v 0.6 1.3 -0.5
v 0.6 1.4 0.7
v 0.6 1.4 0.6
v 0.6 1.4 0.5
v 0.6 1.4 -0.4
v 0.6 1.4 -0.5
v 0.6 1.4 -0.6
v 0.6 1.5 0.7
v 0.6 1.5 0.6
v 0.6 1.5 -0.5
v 0.6 1.5 -0.6
v 0.7 1.3 0.5
v 0.7 1.3 -0.4
v 0.7 1.4 0.6
v 0.7 1.4 0.5
v 0.7 1.4 -0.4
v 0.7 1.4 -0.5
v 0.7 1.5 0.6
v 0.7 1.5 0.5
v 0.7 1.5 -0.4
v 0.7 1.5 -0.5
v 0.8 1.4 0.5
v 0.8 1.4 -0.4
v 0.8 1.5 0.5
v 0.8 1.5 -0.4
v -0.8 1.4 0.5
v -0.8 1.4 -0.3
v -0.8 1.5 0.5
v -0.8 1.5 -0.3
v -0.7 1.3 0.5
v -0.7 1.3 -0.2
v -0.7 1.4 0.6
v -0.7 1.4 0.5
v -0.7 1.4 -0.2
v -0.7 1.4 -0.3
v -0.7 1.4 -0.4
v -0.7 1.5 0.6
v -0.7 1.5 0.5
v -0.7 1.5 -0.3
v -0.7 1.5 -0.4
v -0.6 1.3 0.6
v -0.6 1.3 0.5
v -0.6 1.3 -0.2
v -0.6 1.3 -0.3
v -0.6 1.4 0.7
v -0.6 1.4 0.6
v -0.6 1.4 0.5
v -0.6 1.4 -0.2
v -0.6 1.4 -0.3
v -0.6 1.4 -0.4
v -0.6 1.4 -0.5
v -0.6 1.5 0.7
v -0.6 1.5 0.6
v -0.6 1.5 -0.4
v -0.6 1.5 -0.5
v -0.5 1.3 -0.3
v -0.5 1.3 -0.5
v -0.5 1.4 0.8
v -0.5 1.4 0.7
v -0.5 1.4 -0.3
v -0.5 1.4 -0.5
v -0.5 1.4 -0.7
v -0.5 1.5 0.8
v -0.5 1.5 0.7
v -0.5 1.5 -0.5
v -0.5 1.5 -0.7
v -0.4 1.3 0.7
v -0.4 1.3 0.6
v -0.4 1.3 -0.5
v -0.4 1.3 -0.6
v -0.4 1.4 0.7
v -0.4 1.4 0.6
v -0.4 1.4 -0.5
v -0.4 1.4 -0.6
v 0.1 1.3 0.1
v 0.1 1.3 -0.1
v 0.1 2 0.1
v 0.1 2 -0.1
v 0.5 0 0.8
v 0.5 0 0.7
v 0.5 0.1 0.8
v 0.5 0.1 0.7
v 0.5 0.1 -0.8
v 0.5 0.1 -0.9
v 0.5 0.2 1
v 0.5 0.2 0.9
v 0.5 0.2 -0.8
v 0.5 0.2 -0.9
v 0.5 0.2 -1
v 0.5 1.4 1
v 0.5 1.4 0.9
v 0.5 1.4 0.8
v 0.5 1.4 -0.8
v 0.5 1.4 -0.9
v 0.5 1.4 -1
v 0.5 1.5 0.9
v 0.5 1.5 0.8
v 0.5 1.5 -0.8
v 0.5 1.5 -0.9
v 0.6 0 0.7
v 0.6 0 0.6
v 0.6 0 -0.7
v 0.6 0 -0.8
v 0.6 0.1 0.9
v 0.6 0.1 0.7
v 0.6 0.1 0.6
v 0.6 0.2 0.8
v 0.6 0.2 0.7
v 0.6 0.2 -0.7
v 0.6 0.2 -0.8
v 0.6 0.2 -0.9
v 0.6 1.4 0.9
v 0.6 1.4 0.8
v 0.6 1.4 0.7
v 0.6 1.4 -0.7
v 0.6 1.4 -0.8
v 0.6 1.4 -0.9
v 0.6 1.5 0.8
v 0.6 1.5 0.7
v 0.6 1.5 -0.7
v 0.6 1.5 -0.8
v 0.7 0 0.6
v 0.7 0 0.5
v 0.7 0 -0.6
v 0.7 0 -0.7
v 0.7 0.1 0.7
v 0.7 0.1 0.6
v 0.7 0.1 0.5
v 0.7 0.2 0.8
v 0.7 0.2 0.7
v 0.7 0.2 0.6
v 0.7 0.2 -0.6
v 0.7 0.2 -0.7
v 0.7 0.2 -0.8
v 0.7 1.4 0.8
v 0.7 1.4 0.7
v 0.7 1.4 0.6
v 0.7 1.4 -0.6
v 0.7 1.4 -0.7
v 0.7 1.4 -0.8
v 0.7 1.5 0.7
v 0.7 1.5 0.6
v 0.7 1.5 -0.6
v 0.7 1.5 -0.7
v 0.8 0 0.5
v 0.8 0 -0.6
v 0.8 0.1 0.6
v 0.8 0.1 0.5
v 0.8 0.1 -0.5
v 0.8 0.2 0.7
v 0.8 0.2 0.6
v 0.8 0.2 0.5
v 0.8 0.2 -0.5
v 0.8 0.2 -0.6
v 0.8 0.2 -0.7
v 0.8 1.4 0.7
v 0.8 1.4 0.6
v 0.8 1.4 0.5
v 0.8 1.4 -0.5
v 0.8 1.4 -0.6
v 0.8 1.4 -0.7
v 0.8 1.5 0.6
v 0.8 1.5 0.5
v 0.8 1.5 -0.5
v 0.8 1.5 -0.6
v 0.9 0.1 0.5
v 0.9 0.1 -0.5
v 0.9 0.2 0.6
v 0.9 0.2 0.5
v 0.9 0.2 -0.5
v 0.9 0.2 -0.6
v 0.9 1.4 0.6
v 0.9 1.4 0.5
v 0.9 1.4 -0.5
v 0.9 1.4 -0.6
v 0.9 1.5 0.5
v 0.9 1.5 -0.5
v 1 0.2 0.5
v 1 0.2 -0.5
v 1 1.4 0.5
v 1 1.4 -0.5
v -0.5 0.2 1
v -0.5 1.4 1
v 0.5 0.2 1
v 0.5 1.4 1
v -0.6 0.2 0.9
v -0.6 1.4 0.9
v -0.5 0.1 0.9
v -0.5 0.2 0.9
v -0.5 1.4 0.9
v -0.5 1.5 0.9
v 0.5 0.2 0.9
v 0.5 1.4 0.9
v 0.5 1.5 0.9
v 0.6 0.1 0.9
v 0.6 1.4 0.9
v -0.7 0.2 0.8
v -0.7 1.4 0.8
v -0.6 0.1 0.8
v -0.6 0.2 0.8
v -0.6 1.4 0.8
v -0.6 1.5 0.8
v -0.5 0 0.8
v -0.5 0.1 0.8
v -0.5 0.2 0.8
v -0.5 1.4 0.8
v -0.5 1.5 0.8
v 0.5 0 0.8
v 0.5 0.1 0.8
v 0.5 1.4 0.8
v 0.5 1.5 0.8
v 0.6 0.2 0.8
v 0.6 1.4 0.8
v 0.6 1.5 0.8
v 0.7 0.2 0.8
v 0.7 1.4 0.8
v -0.8 0.2 0.7
v -0.8 1.4 0.7
v -0.7 0.1 0.7
v -0.7 0.2 0.7
v -0.7 1.4 0.7
v -0.7 1.5 0.7
v -0.6 0 0.7
v -0.6 0.1 0.7
v -0.6 0.2 0.7
v -0.6 1.4 0.7
v -0.6 1.5 0.7
v -0.5 0 0.7
v -0.5 0.1 0.7
v 0.5 0 0.7
v 0.5 0.1 0.7
v 0.6 0 0.7
v 0.6 0.1 0.7
v 0.6 0.2 0.7
v 0.6 1.4 0.7
v 0.6 1.5 0.7
v 0.7 0.1 0.7
v 0.7 0.2 0.7
v 0.7 1.4 0.7
v 0.7 1.5 0.7
v 0.8 0.2 0.7
v 0.8 1.4 0.7
v -0.9 0.2 0.6
v -0.9 1.4 0.6
v -0.8 0.1 0.6
v -0.8 0.2 0.6
v -0.8 1.4 0.6
v -0.8 1.5 0.6
v -0.7 0 0.6
v -0.7 0.1 0.6
v -0.7 0.2 0.6
v -0.7 1.4 0.6
v -0.7 1.5 0.6
v -0.6 0 0.6
v -0.6 0.1 0.6
v 0.6 0 0.6
v 0.6 0.1 0.6
v 0.7 0 0.6
v 0.7 0.1 0.6
v 0.7 0.2 0.6
v 0.7 1.4 0.6
v 0.7 1.5 0.6
v 0.8 0.1 0.6
v 0.8 0.2 0.6
v 0.8 1.4 0.6
v 0.8 1.5 0.6
v 0.9 0.2 0.6
v 0.9 1.4 0.6
v -1 0.2 0.5
v -1 1.4 0.5
v -0.9 0.1 0.5
v -0.9 0.2 0.5
v -0.9 1.4 0.5
v -0.9 1.5 0.5
v -0.8 0 0.5
v -0.8 0.1 0.5
v -0.8 0.2 0.5
v -0.8 1.4 0.5
v -0.8 1.5 0.5
v -0.7 0 0.5
v -0.7 0.1 0.5
v 0.7 0 0.5
v 0.7 0.1 0.5
v 0.8 0 0.5
v 0.8 0.1 0.5
v 0.8 0.2 0.5
v 0.8 1.4 0.5
v 0.8 1.5 0.5
v 0.9 0.1 0.5
v 0.9 0.2 0.5
v 0.9 1.4 0.5
v 0.9 1.5 0.5
v 1 0.2 0.5
v 1 1.4 0.5
v -0.1 1.3 0.1
v -0.1 2 0.1
v 0.1 1.3 0.1
v 0.1 2 0.1
v -0.7 1.3 -0.2
v -0.7 1.4 -0.2
v -0.6 1.3 -0.2
v -0.6 1.4 -0.2
v -0.8 1.4 -0.3
v -0.8 1.5 -0.3
v -0.7 1.4 -0.3
v -0.7 1.5 -0.3
v -0.6 1.3 -0.3
v -0.6 1.4 -0.3
v -0.5 1.3 -0.3
v -0.5 1.4 -0.3
v -0.7 1.4 -0.4
v -0.7 1.5 -0.4
v -0.6 1.4 -0.4
v -0.6 1.5 -0.4
v 0.6 1.3 -0.4
v 0.6 1.4 -0.4
v 0.7 1.3 -0.4
v 0.7 1.4 -0.4
v 0.7 1.5 -0.4
v 0.8 1.4 -0.4
v 0.8 1.5 -0.4
v -0.6 1.4 -0.5
v -0.6 1.5 -0.5
v -0.5 1.3 -0.5
v -0.5 1.4 -0.5
v -0.5 1.5 -0.5
v -0.4 1.3 -0.5
v -0.4 1.4 -0.5
v 0.5 1.3 -0.5
v 0.5 1.4 -0.5
v 0.6 1.3 -0.5
v 0.6 1.4 -0.5
v 0.6 1.5 -0.5
v 0.7 1.4 -0.5
v 0.7 1.5 -0.5
v -0.4 1.3 -0.6
v -0.4 1.4 -0.6
v 0.5 1.3 -0.6
v 0.5 1.4 -0.6
v 0.5 1.5 -0.6
v 0.6 1.4 -0.6
v 0.6 1.5 -0.6
v -0.5 1.4 -0.7
v -0.5 1.5 -0.7
v 0.5 1.4 -0.7
v 0.5 1.5 -0.7
v -0.5 1.4 0.8
v -0.5 1.5 0.8
v 0.5 1.4 0.8
v 0.5 1.5 0.8
v -0.6 1.4 0.7
v -0.6 1.5 0.7
v -0.5 1.4 0.7
v -0.5 1.5 0.7
v -0.4 1.3 0.7
v -0.4 1.4 0.7
v 0.5 1.3 0.7
v 0.5 1.4 0.7
v 0.5 1.5 0.7
v 0.6 1.4 0.7
v 0.6 1.5 0.7
v -0.7 1.4 0.6
v -0.7 1.5 0.6
v -0.6 1.3 0.6
v -0.6 1.4 0.6
v -0.6 1.5 0.6
v -0.4 1.3 0.6
v -0.4 1.4 0.6
v 0.5 1.3 0.6
v 0.5 1.4 0.6
v 0.6 1.3 0.6
v 0.6 1.4 0.6
v 0.6 1.5 0.6
v 0.7 1.4 0.6
v 0.7 1.5 0.6
v -0.8 1.4 0.5
v -0.8 1.5 0.5
v -0.7 1.3 0.5
v -0.7 1.4 0.5
v -0.7 1.5 0.5
v -0.6 1.3 0.5
v -0.6 1.4 0.5
v 0.6 1.3 0.5
v 0.6 1.4 0.5
v 0.7 1.3 0.5
v 0.7 1.4 0.5
v 0.7 1.5 0.5
v 0.8 1.4 0.5
v 0.8 1.5 0.5
v -0.1 1.3 -0.1
v -0.1 2 -0.1
v 0.1 1.3 -0.1
v 0.1 2 -0.1
v -1 0.2 -0.4
v -1 1.4 -0.4
v -0.9 0.1 -0.4
v -0.9 0.2 -0.4
v -0.9 1.4 -0.4
v -0.9 1.5 -0.4
v -0.8 0 -0.4
v -0.8 0.1 -0.4
v -0.8 0.2 -0.4
v -0.8 1.4 -0.4
v -0.8 1.5 -0.4
v -0.7 0 -0.4
v -0.7 0.1 -0.4
v -0.9 0.2 -0.5
v -0.9 1.4 -0.5
v -0.8 0.1 -0.5
v -0.8 0.2 -0.5
v -0.8 1.4 -0.5
v -0.8 1.5 -0.5
v -0.7 0 -0.5
v -0.7 0.1 -0.5
v -0.7 0.2 -0.5
v -0.7 1.4 -0.5
v -0.7 1.5 -0.5
v -0.6 0 -0.5
v -0.6 0.1 -0.5
v 0.8 0.1 -0.5
v 0.8 0.2 -0.5
v 0.8 1.4 -0.5
v 0.8 1.5 -0.5
v 0.9 0.1 -0.5
v 0.9 0.2 -0.5
v 0.9 1.4 -0.5
v 0.9 1.5 -0.5
v 1 0.2 -0.5
v 1 1.4 -0.5
v -0.8 0.2 -0.6
v -0.8 1.4 -0.6
v -0.7 0.1 -0.6
v -0.7 0.2 -0.6
v -0.7 1.4 -0.6
v -0.7 1.5 -0.6
v -0.6 0 -0.6
v -0.6 0.1 -0.6
v -0.6 0.2 -0.6
v -0.6 1.4 -0.6
v -0.6 1.5 -0.6
v -0.5 0 -0.6
v -0.5 0.1 -0.6
v 0.7 0 -0.6
v 0.7 0.2 -0.6
v 0.7 1.4 -0.6
v 0.7 1.5 -0.6
v 0.8 0 -0.6
v 0.8 0.2 -0.6
v 0.8 1.4 -0.6
v 0.8 1.5 -0.6
v 0.9 0.2 -0.6
v 0.9 1.4 -0.6
v -0.7 0.2 -0.7
v -0.7 1.4 -0.7
v -0.6 0.1 -0.7
v -0.6 0.2 -0.7
v -0.6 1.4 -0.7
v -0.6 1.5 -0.7
v -0.5 0 -0.7
v -0.5 0.1 -0.7
v -0.5 0.2 -0.7
v -0.5 1.4 -0.7
v -0.5 1.5 -0.7
v -0.4 0 -0.7
v -0.4 0.1 -0.7
v 0.6 0 -0.7
v 0.6 0.2 -0.7
v 0.6 1.4 -0.7
v 0.6 1.5 -0.7
v 0.7 0 -0.7
v 0.7 0.2 -0.7
v 0.7 1.4 -0.7
v 0.7 1.5 -0.7
v 0.8 0.2 -0.7
v 0.8 1.4 -0.7
v -0.6 0.2 -0.8
v -0.6 1.4 -0.8
v -0.5 0.1 -0.8
v -0.5 0.2 -0.8
v -0.5 1.4 -0.8
v -0.5 1.5 -0.8
v -0.4 0 -0.8
v -0.4 0.1 -0.8
v -0.4 0.2 -0.8
v -0.4 1.4 -0.8
v -0.4 1.5 -0.8
v 0.5 0.1 -0.8
v 0.5 0.2 -0.8
v 0.5 1.4 -0.8
v 0.5 1.5 -0.8
v 0.6 0 -0.8
v 0.6 0.2 -0.8
v 0.6 1.4 -0.8
v 0.6 1.5 -0.8
v 0.7 0.2 -0.8
v 0.7 1.4 -0.8
v -0.5 0.2 -0.9
v -0.5 1.4 -0.9
v -0.4 0.1 -0.9
v -0.4 0.2 -0.9
v -0.4 1.4 -0.9
v -0.4 1.5 -0.9
v 0.5 0.1 -0.9
v 0.5 0.2 -0.9
v 0.5 1.4 -0.9
v 0.5 1.5 -0.9
v 0.6 0.2 -0.9
v 0.6 1.4 -0.9
v -0.4 0.2 -1
v -0.4 1.4 -1
v 0.5 0.2 -1
v 0.5 1.4 -1
v -0.5 0 0.8
v 0.5 0 0.8
v -0.6 0 0.7
v -0.5 0 0.7
v 0.5 0 0.7
v 0.6 0 0.7
v -0.7 0 0.6
v -0.6 0 0.6
v 0.6 0 0.6
v 0.7 0 0.6
v -0.8 0 0.5
v -0.7 0 0.5
v 0.7 0 0.5
v 0.8 0 0.5
v -0.8 0 -0.4
v -0.7 0 -0.4
v -0.7 0 -0.5
v -0.6 0 -0.5
v -0.6 0 -0.6
v -0.5 0 -0.6
v 0.7 0 -0.6
v 0.8 0 -0.6
v -0.5 0 -0.7
v -0.4 0 -0.7
v 0.6 0 -0.7
v 0.7 0 -0.7
v -0.4 0 -0.8
v 0.6 0 -0.8
v -0.5 0.1 0.9
v 0.6 0.1 0.9
v -0.6 0.1 0.8
v -0.5 0.1 0.8
v 0.5 0.1 0.8
v -0.7 0.1 0.7
v -0.6 0.1 0.7
v -0.5 0.1 0.7
v 0.5 0.1 0.7
v 0.6 0.1 0.7
v 0.7 0.1 0.7
v -0.8 0.1 0.6
v -0.7 0.1 0.6
v -0.6 0.1 0.6
v 0.6 0.1 0.6
v 0.7 0.1 0.6
v 0.8 0.1 0.6
v -0.9 0.1 0.5
v -0.8 0.1 0.5
v -0.7 0.1 0.5
v 0.7 0.1 0.5
v 0.8 0.1 0.5
v 0.9 0.1 0.5
v -0.9 0.1 -0.4
v -0.8 0.1 -0.4
v -0.7 0.1 -0.4
v -0.8 0.1 -0.5
v -0.7 0.1 -0.5
v -0.6 0.1 -0.5
v 0.8 0.1 -0.5
v 0.9 0.1 -0.5
v -0.7 0.1 -0.6
v -0.6 0.1 -0.6
v -0.5 0.1 -0.6
v -0.6 0.1 -0.7
v -0.5 0.1 -0.7
v -0.4 0.1 -0.7
v -0.5 0.1 -0.8
v -0.4 0.1 -0.8
v 0.5 0.1 -0.8
v -0.4 0.1 -0.9
v 0.5 0.1 -0.9
v -0.5 0.2 1
v 0.5 0.2 1
v -0.6 0.2 0.9
v -0.5 0.2 0.9
v 0.5 0.2 0.9
v -0.7 0.2 0.8
v -0.6 0.2 0.8
v -0.5 0.2 0.8
v 0.6 0.2 0.8
v 0.7 0.2 0.8
v -0.8 0.2 0.7
v -0.7 0.2 0.7
v -0.6 0.2 0.7
v 0.6 0.2 0.7
v 0.7 0.2 0.7
v 0.8 0.2 0.7
v -0.9 0.2 0.6
v -0.8 0.2 0.6
v -0.7 0.2 0.6
v 0.7 0.2 0.6
v 0.8 0.2 0.6
v 0.9 0.2 0.6
v -1 0.2 0.5
v -0.9 0.2 0.5
v -0.8 0.2 0.5
v 0.8 0.2 0.5
v 0.9 0.2 0.5
v 1 0.2 0.5
v -1 0.2 -0.4
v -0.9 0.2 -0.4
v -0.8 0.2 -0.4
v -0.9 0.2 -0.5
v -0.8 0.2 -0.5
v -0.7 0.2 -0.5
v 0.8 0.2 -0.5
v 0.9 0.2 -0.5
v 1 0.2 -0.5
v -0.8 0.2 -0.6
v -0.7 0.2 -0.6
v -0.6 0.2 -0.6
v 0.7 0.2 -0.6
v 0.8 0.2 -0.6
v 0.9 0.2 -0.6
v -0.7 0.2 -0.7
v -0.6 0.2 -0.7
v -0.5 0.2 -0.7
v 0.6 0.2 -0.7
v 0.7 0.2 -0.7
v 0.8 0.2 -0.7
v -0.6 0.2 -0.8
v -0.5 0.2 -0.8
v -0.4 0.2 -0.8
v 0.5 0.2 -0.8
v 0.6 0.2 -0.8
v 0.7 0.2 -0.8
v -0.5 0.2 -0.9
v -0.4 0.2 -0.9
v 0.5 0.2 -0.9
v 0.6 0.2 -0.9
v -0.4 0.2 -1
v 0.5 0.2 -1
v -0.4 1.3 0.7
v 0.5 1.3 0.7
v -0.6 1.3 0.6
v -0.4 1.3 0.6
v 0.5 1.3 0.6
v 0.6 1.3 0.6
v -0.7 1.3 0.5
v -0.6 1.3 0.5
v 0.6 1.3 0.5
v 0.7 1.3 0.5
v -0.1 1.3 0.1
v 0.1 1.3 0.1
v -0.1 1.3 -0.1
v 0.1 1.3 -0.1
v -0.7 1.3 -0.2
v -0.6 1.3 -0.2
v -0.6 1.3 -0.3
v -0.5 1.3 -0.3
v 0.6 1.3 -0.4
v 0.7 1.3 -0.4
v -0.5 1.3 -0.5
v -0.4 1.3 -0.5
v 0.5 1.3 -0.5
v 0.6 1.3 -0.5
v -0.4 1.3 -0.6
v 0.5 1.3 -0.6
v -0.5 1.4 1
v 0.5 1.4 1
v -0.6 1.4 0.9
v -0.5 1.4 0.9
v 0.5 1.4 0.9
v 0.6 1.4 0.9
v -0.7 1.4 0.8
v -0.6 1.4 0.8
v -0.5 1.4 0.8
v 0.5 1.4 0.8
v 0.6 1.4 0.8
v 0.7 1.4 0.8
v -0.8 1.4 0.7
v -0.7 1.4 0.7
v -0.6 1.4 0.7
v -0.5 1.4 0.7
v -0.4 1.4 0.7
v 0.5 1.4 0.7
v 0.6 1.4 0.7
v 0.7 1.4 0.7
v 0.8 1.4 0.7
v -0.9 1.4 0.6
v -0.8 1.4 0.6
v -0.7 1.4 0.6
v -0.6 1.4 0.6
v -0.4 1.4 0.6
v 0.5 1.4 0.6
v 0.6 1.4 0.6
v 0.7 1.4 0.6
v 0.8 1.4 0.6
v 0.9 1.4 0.6
v -1 1.4 0.5
v -0.9 1.4 0.5
v -0.8 1.4 0.5
v -0.7 1.4 0.5
v -0.6 1.4 0.5
v 0.6 1.4 0.5
v 0.7 1.4 0.5
v 0.8 1.4 0.5
v 0.9 1.4 0.5
v 1 1.4 0.5
v -0.7 1.4 -0.2
v -0.6 1.4 -0.2
v -0.8 1.4 -0.3
v -0.7 1.4 -0.3
v -0.6 1.4 -0.3
v -0.5 1.4 -0.3
v -1 1.4 -0.4
v -0.9 1.4 -0.4
v -0.8 1.4 -0.4
v -0.7 1.4 -0.4
v -0.6 1.4 -0.4
v 0.6 1.4 -0.4
v 0.7 1.4 -0.4
v 0.8 1.4 -0.4
v -0.9 1.4 -0.5
v -0.8 1.4 -0.5
v -0.7 1.4 -0.5
v -0.6 1.4 -0.5
v -0.5 1.4 -0.5
v -0.4 1.4 -0.5
v 0.5 1.4 -0.5
v 0.6 1.4 -0.5
v 0.7 1.4 -0.5
v 0.8 1.4 -0.5
v 0.9 1.4 -0.5
v 1 1.4 -0.5
v -0.8 1.4 -0.6
v -0.7 1.4 -0.6
v -0.6 1.4 -0.6
v -0.4 1.4 -0.6
v 0.5 1.4 -0.6
v 0.6 1.4 -0.6
v 0.7 1.4 -0.6
v 0.8 1.4 -0.6
v 0.9 1.4 -0.6
v -0.7 1.4 -0.7
v -0.6 1.4 -0.7
v -0.5 1.4 -0.7
v 0.5 1.4 -0.7
v 0.6 1.4 -0.7
v 0.7 1.4 -0.7
v 0.8 1.4 -0.7
v -0.6 1.4 -0.8
v -0.5 1.4 -0.8
v -0.4 1.4 -0.8
v 0.5 1.4 -0.8
v 0.6 1.4 -0.8
v 0.7 1.4 -0.8
v -0.5 1.4 -0.9
v -0.4 1.4 -0.9
v 0.5 1.4 -0.9
v 0.6 1.4 -0.9
v -0.4 1.4 -1
v 0.5 1.4 -1
v -0.5 1.5 0.9
v 0.5 1.5 0.9
v -0.6 1.5 0.8
v -0.5 1.5 0.8
v 0.5 1.5 0.8
v 0.6 1.5 0.8
v -0.7 1.5 0.7
v -0.6 1.5 0.7
v -0.5 1.5 0.7
v 0.5 1.5 0.7
v 0.6 1.5 0.7
v 0.7 1.5 0.7
v -0.8 1.5 0.6
v -0.7 1.5 0.6
v -0.6 1.5 0.6
v 0.6 1.5 0.6
v 0.7 1.5 0.6
v 0.8 1.5 0.6
v -0.9 1.5 0.5
v -0.8 1.5 0.5
v -0.7 1.5 0.5
v 0.7 1.5 0.5
v 0.8 1.5 0.5
v 0.9 1.5 0.5
v -0.8 1.5 -0.3
v -0.7 1.5 -0.3
v -0.9 1.5 -0.4
v -0.8 1.5 -0.4
v -0.7 1.5 -0.4
v -0.6 1.5 -0.4
v 0.7 1.5 -0.4
v 0.8 1.5 -0.4
v -0.8 1.5 -0.5
v -0.7 1.5 -0.5
v -0.6 1.5 -0.5
v -0.5 1.5 -0.5
v 0.6 1.5 -0.5
v 0.7 1.5 -0.5
v 0.8 1.5 -0.5
v 0.9 1.5 -0.5
v -0.7 1.5 -0.6
v -0.6 1.5 -0.6
v 0.5 1.5 -0.6
v 0.6 1.5 -0.6
v 0.7 1.5 -0.6
v 0.8 1.5 -0.6
v -0.6 1.5 -0.7
v -0.5 1.5 -0.7
v 0.5 1.5 -0.7
v 0.6 1.5 -0.7
v 0.7 1.5 -0.7
v -0.5 1.5 -0.8
v -0.4 1.5 -0.8
v 0.5 1.5 -0.8
v 0.6 1.5 -0.8
v -0.4 1.5 -0.9
v 0.5 1.5 -0.9
v -0.1 2 0.1
v 0.1 2 0.1
v -0.1 2 -0.1
v 0.1 2 -0.1

# faces
f 3/2/1 2/2/1 1/2/1
f 4/2/1 2/2/1 3/2/1
f 8/2/1 6/2/1 5/2/1
f 9/2/1 6/2/1 8/2/1
f 11/2/1 8/2/1 7/2/1
f 12/2/1 8/2/1 11/2/1
f 13/2/1 10/2/1 9/2/1
f 14/2/1 10/2/1 13/2/1
f 15/2/1 13/2/1 12/2/1
f 16/2/1 13/2/1 15/2/1
f 20/2/1 18/2/1 17/2/1
f 21/2/1 18/2/1 20/2/1
f 24/2/1 20/2/1 19/2/1
f 25/2/1 20/2/1 24/2/1
f 26/2/1 22/2/1 21/2/1
f 27/2/1 22/2/1 26/2/1
f 29/2/1 24/2/1 23/2/1
f 30/2/1 24/2/1 29/2/1
f 33/2/1 28/2/1 27/2/1
f 34/2/1 28/2/1 33/2/1
f 35/2/1 31/2/1 30/2/1
f 36/2/1 31/2/1 35/2/1
f 37/2/1 33/2/1 32/2/1
f 38/2/1 33/2/1 37/2/1
f 44/2/1 40/2/1 39/2/1
f 45/2/1 40/2/1 44/2/1
f 46/2/1 42/2/1 41/2/1
f 47/2/1 42/2/1 46/2/1
f 50/2/1 44/2/1 43/2/1
f 51/2/1 44/2/1 50/2/1
f 52/2/1 48/2/1 47/2/1
f 53/2/1 48/2/1 52/2/1
f 55/2/1 50/2/1 49/2/1
f 56/2/1 50/2/1 55/2/1
f 59/2/1 54/2/1 53/2/1
f 60/2/1 54/2/1 59/2/1
f 61/2/1 57/2/1 56/2/1
f 62/2/1 57/2/1 61/2/1
f 63/2/1 59/2/1 58/2/1
f 64/2/1 59/2/1 63/2/1
f 70/2/1 66/2/1 65/2/1
f 71/2/1 66/2/1 70/2/1
f 72/2/1 68/2/1 67/2/1
f 73/2/1 68/2/1 72/2/1
f 76/2/1 70/2/1 69/2/1
f 77/2/1 70/2/1 76/2/1
f 78/2/1 74/2/1 73/2/1
f 79/2/1 74/2/1 78/2/1
f 81/2/1 76/2/1 75/2/1
f 82/2/1 76/2/1 81/2/1
f 85/2/1 80/2/1 79/2/1
f 86/2/1 80/2/1 85/2/1
f 87/2/1 83/2/1 82/2/1
f 88/2/1 83/2/1 87/2/1
f 89/2/1 85/2/1 84/2/1
f 90/2/1 85/2/1 89/2/1
f 96/2/1 92/2/1 91/2/1
f 97/2/1 92/2/1 96/2/1
f 98/2/1 94/2/1 93/2/1
f 99/2/1 94/2/1 98/2/1
f 102/2/1 96/2/1 95/2/1
f 103/2/1 96/2/1 102/2/1
f 104/2/1 100/2/1 99/2/1
f 105/2/1 100/2/1 104/2/1
f 107/2/1 102/2/1 101/2/1
f 108/2/1 102/2/1 107/2/1
f 111/2/1 106/2/1 105/2/1
f 112/2/1 106/2/1 111/2/1
f 113/2/1 109/2/1 108/2/1
f 114/2/1 109/2/1 113/2/1
f 115/2/1 111/2/1 110/2/1
f 116/2/1 111/2/1 115/2/1
f 119/2/1 118/2/1 117/2/1
f 120/2/1 118/2/1 119/2/1
f 122/2/1 121/2/1 120/2/1
f 123/2/1 121/2/1 122/2/1
f 126/2/1 124/2/1 123/2/1
f 127/2/1 124/2/1 126/2/1
f 128/2/1 126/2/1 125/2/1
f 129/2/1 126/2/1 128/2/1
f 132/1/1 131/1/1 130/1/1
f 133/1/1 131/1/1 132/1/1
f 139/2/1 135/2/1 134/2/1
f 140/2/1 135/2/1 139/2/1
f 141/2/1 137/2/1 136/2/1
f 142/2/1 137/2/1 141/2/1
f 144/2/1 139/2/1 138/2/1
f 145/2/1 139/2/1 144/2/1
f 146/2/1 143/2/1 142/2/1
f 147/2/1 143/2/1 146/2/1
f 153/2/1 149/2/1 148/2/1
f 154/2/1 149/2/1 153/2/1
f 155/2/1 151/2/1 150/2/1
f 156/2/1 151/2/1 155/2/1
f 158/2/1 153/2/1 152/2/1
f 159/2/1 153/2/1 158/2/1
f 160/2/1 157/2/1 156/2/1
f 161/2/1 157/2/1 160/2/1
f 165/2/1 163/2/1 162/2/1
f 166/2/1 163/2/1 165/2/1
f 168/2/1 165/2/1 164/2/1
f 169/2/1 165/2/1 168/2/1
f 170/2/1 167/2/1 166/2/1
f 171/2/1 167/2/1 170/2/1
f 174/2/1 173/2/1 172/2/1
f 175/2/1 173/2/1 174/2/1
f 176/2/2 177/2/2 178/2/2
f 178/2/2 177/2/2 179/2/2
f 180/2/2 181/2/2 183/2/2
f 183/2/2 181/2/2 184/2/2
f 182/2/2 183/2/2 187/2/2
f 187/2/2 183/2/2 188/2/2
f 185/2/2 186/2/2 189/2/2
f 189/2/2 186/2/2 190/2/2
f 191/2/2 192/2/2 196/2/2
f 196/2/2 192/2/2 197/2/2
f 193/2/2 194/2/2 198/2/2
f 198/2/2 194/2/2 199/2/2
f 195/2/2 196/2/2 202/2/2
f 202/2/2 196/2/2 203/2/2
f 200/2/2 201/2/2 204/2/2
f 204/2/2 201/2/2 205/2/2
f 206/2/2 207/2/2 210/2/2
f 210/2/2 207/2/2 211/2/2
f 208/2/2 209/2/2 213/2/2
f 213/2/2 209/2/2 214/2/2
f 211/2/2 212/2/2 215/2/2
f 215/2/2 212/2/2 216/2/2
f 217/2/2 218/2/2 221/2/2
f 221/2/2 218/2/2 222/2/2
f 219/2/2 220/2/2 223/2/2
f 223/2/2 220/2/2 224/2/2
f 225/1/2 226/1/2 227/1/2
f 227/1/2 226/1/2 228/1/2
f 229/2/2 230/2/2 231/2/2
f 231/2/2 230/2/2 232/2/2
f 233/2/2 234/2/2 237/2/2
f 237/2/2 234/2/2 238/2/2
f 235/2/2 236/2/2 240/2/2
f 240/2/2 236/2/2 241/2/2
f 238/2/2 239/2/2 244/2/2
f 244/2/2 239/2/2 245/2/2
f 241/2/2 242/2/2 246/2/2
f 246/2/2 242/2/2 247/2/2
f 243/2/2 244/2/2 248/2/2
f 248/2/2 244/2/2 249/2/2
f 250/2/2 251/2/2 255/2/2
f 255/2/2 251/2/2 256/2/2
f 254/2/2 255/2/2 257/2/2
f 257/2/2 255/2/2 258/2/2
f 252/2/2 253/2/2 259/2/2
f 259/2/2 253/2/2 260/2/2
f 254/2/2 257/2/2 262/2/2
f 262/2/2 257/2/2 263/2/2
f 260/2/2 261/2/2 266/2/2
f 266/2/2 261/2/2 267/2/2
f 263/2/2 264/2/2 268/2/2
f 268/2/2 264/2/2 269/2/2
f 265/2/2 266/2/2 270/2/2
f 270/2/2 266/2/2 271/2/2
f 272/2/2 273/2/2 277/2/2
f 277/2/2 273/2/2 278/2/2
f 276/2/2 277/2/2 280/2/2
f 280/2/2 277/2/2 281/2/2
f 274/2/2 275/2/2 282/2/2
f 282/2/2 275/2/2 283/2/2
f 279/2/2 280/2/2 285/2/2
f 285/2/2 280/2/2 286/2/2
f 283/2/2 284/2/2 289/2/2
f 289/2/2 284/2/2 290/2/2
f 286/2/2 287/2/2 291/2/2
f 291/2/2 287/2/2 292/2/2
f 288/2/2 289/2/2 293/2/2
f 293/2/2 289/2/2 294/2/2
f 295/2/2 296/2/2 298/2/2
f 298/2/2 296/2/2 299/2/2
f 297/2/2 298/2/2 301/2/2
f 301/2/2 298/2/2 302/2/2
f 299/2/2 296/2/2 303/2/2
f 303/2/2 296/2/2 304/2/2
f 300/2/2 301/2/2 306/2/2
f 306/2/2 301/2/2 307/2/2
f 304/2/2 305/2/2 310/2/2
f 310/2/2 305/2/2 311/2/2
f 307/2/2 308/2/2 312/2/2
f 312/2/2 308/2/2 313/2/2
f 309/2/2 310/2/2 314/2/2
f 314/2/2 310/2/2 315/2/2
f 316/2/2 317/2/2 319/2/2
f 319/2/2 317/2/2 320/2/2
f 318/2/2 319/2/2 322/2/2
f 322/2/2 319/2/2 323/2/2
f 320/2/2 321/2/2 324/2/2
f 324/2/2 321/2/2 325/2/2
f 323/2/2 324/2/2 326/2/2
f 326/2/2 324/2/2 327/2/2
f 328/2/2 329/2/2 330/2/2
f 330/2/2 329/2/2 331/2/2
f 334/2/3 333/2/3 332/2/3
f 335/2/3 333/2/3 334/2/3
f 339/2/3 337/2/3 336/2/3
f 340/2/3 337/2/3 339/2/3
f 342/2/3 339/2/3 338/2/3
f 343/2/3 341/2/3 340/2/3
f 344/2/3 341/2/3 343/2/3
f 345/2/3 342/2/3 338/2/3
f 345/2/3 343/2/3 342/2/3
f 346/2/3 343/2/3 345/2/3
f 350/2/3 348/2/3 347/2/3
f 351/2/3 348/2/3 350/2/3
f 354/2/3 350/2/3 349/2/3
f 355/2/3 350/2/3 354/2/3
f 356/2/3 352/2/3 351/2/3
f 357/2/3 352/2/3 356/2/3
f 358/2/3 354/2/3 353/2/3
f 359/2/3 354/2/3 358/2/3
f 363/2/3 361/2/3 360/2/3
f 364/2/3 361/2/3 363/2/3
f 365/2/3 363/2/3 362/2/3
f 366/2/3 363/2/3 365/2/3
f 370/2/3 368/2/3 367/2/3
f 371/2/3 368/2/3 370/2/3
f 374/2/3 370/2/3 369/2/3
f 375/2/3 370/2/3 374/2/3
f 376/2/3 372/2/3 371/2/3
f 377/2/3 372/2/3 376/2/3
f 378/2/3 374/2/3 373/2/3
f 379/2/3 374/2/3 378/2/3
f 382/2/3 381/2/3 380/2/3
f 383/2/3 381/2/3 382/2/3
f 387/2/3 384/2/3 383/2/3
f 388/2/3 384/2/3 387/2/3
f 389/2/3 386/2/3 385/2/3
f 390/2/3 386/2/3 389/2/3
f 391/2/3 389/2/3 388/2/3
f 392/2/3 389/2/3 391/2/3
f 396/2/3 394/2/3 393/2/3
f 397/2/3 394/2/3 396/2/3
f 400/2/3 396/2/3 395/2/3
f 401/2/3 396/2/3 400/2/3
f 402/2/3 398/2/3 397/2/3
f 403/2/3 398/2/3 402/2/3
f 404/2/3 400/2/3 399/2/3
f 405/2/3 400/2/3 404/2/3
f 408/2/3 407/2/3 406/2/3
f 409/2/3 407/2/3 408/2/3
f 413/2/3 410/2/3 409/2/3
f 414/2/3 410/2/3 413/2/3
f 415/2/3 412/2/3 411/2/3
f 416/2/3 412/2/3 415/2/3
f 417/2/3 415/2/3 414/2/3
f 418/2/3 415/2/3 417/2/3
f 422/2/3 420/2/3 419/2/3
f 423/2/3 420/2/3 422/2/3
f 426/2/3 422/2/3 421/2/3
f 427/2/3 422/2/3 426/2/3
f 428/2/3 424/2/3 423/2/3
f 429/2/3 424/2/3 428/2/3
f 430/2/3 426/2/3 425/2/3
f 431/2/3 426/2/3 430/2/3
f 434/2/3 433/2/3 432/2/3
f 435/2/3 433/2/3 434/2/3
f 439/2/3 436/2/3 435/2/3
f 440/2/3 436/2/3 439/2/3
f 441/2/3 438/2/3 437/2/3
f 442/2/3 438/2/3 441/2/3
f 443/2/3 441/2/3 440/2/3
f 444/2/3 441/2/3 443/2/3
f 447/1/3 446/1/3 445/1/3
f 448/1/3 446/1/3 447/1/3
f 451/2/3 450/2/3 449/2/3
f 452/2/3 450/2/3 451/2/3
f 455/2/3 454/2/3 453/2/3
f 456/2/3 454/2/3 455/2/3
f 459/2/3 458/2/3 457/2/3
f 460/2/3 458/2/3 459/2/3
f 463/2/3 462/2/3 461/2/3
f 464/2/3 462/2/3 463/2/3
f 467/2/3 466/2/3 465/2/3
f 468/2/3 466/2/3 467/2/3
f 470/2/3 469/2/3 468/2/3
f 471/2/3 469/2/3 470/2/3
f 475/2/3 473/2/3 472/2/3
f 476/2/3 473/2/3 475/2/3
f 477/2/3 475/2/3 474/2/3
f 478/2/3 475/2/3 477/2/3
f 481/2/3 480/2/3 479/2/3
f 482/2/3 480/2/3 481/2/3
f 484/2/3 483/2/3 482/2/3
f 485/2/3 483/2/3 484/2/3
f 488/2/3 487/2/3 486/2/3
f 489/2/3 487/2/3 488/2/3
f 491/2/3 490/2/3 489/2/3
f 492/2/3 490/2/3 491/2/3
f 495/2/3 494/2/3 493/2/3
f 496/2/3 494/2/3 495/2/3
f 497/2/4 498/2/4 499/2/4
f 499/2/4 498/2/4 500/2/4
f 501/2/4 502/2/4 503/2/4
f 503/2/4 502/2/4 504/2/4
f 505/2/4 506/2/4 507/2/4
f 507/2/4 506/2/4 508/2/4
f 508/2/4 509/2/4 510/2/4
f 510/2/4 509/2/4 511/2/4
f 512/2/4 513/2/4 515/2/4
f 515/2/4 513/2/4 516/2/4
f 514/2/4 515/2/4 517/2/4
f 517/2/4 515/2/4 518/2/4
f 519/2/4 520/2/4 521/2/4
f 521/2/4 520/2/4 522/2/4
f 522/2/4 523/2/4 524/2/4
f 524/2/4 523/2/4 525/2/4
f 526/2/4 527/2/4 529/2/4
f 529/2/4 527/2/4 530/2/4
f 528/2/4 529/2/4 531/2/4
f 531/2/4 529/2/4 532/2/4
f 533/2/4 534/2/4 535/2/4
f 535/2/4 534/2/4 536/2/4
f 536/2/4 537/2/4 538/2/4
f 538/2/4 537/2/4 539/2/4
f 540/1/4 541/1/4 542/1/4
f 542/1/4 541/1/4 543/1/4
f 544/2/4 545/2/4 547/2/4
f 547/2/4 545/2/4 548/2/4
f 546/2/4 547/2/4 551/2/4
f 551/2/4 547/2/4 552/2/4
f 548/2/4 549/2/4 553/2/4
f 553/2/4 549/2/4 554/2/4
f 550/2/4 551/2/4 555/2/4
f 555/2/4 551/2/4 556/2/4
f 557/2/4 558/2/4 560/2/4
f 560/2/4 558/2/4 561/2/4
f 559/2/4 560/2/4 564/2/4
f 564/2/4 560/2/4 565/2/4
f 561/2/4 562/2/4 566/2/4
f 566/2/4 562/2/4 567/2/4
f 563/2/4 564/2/4 568/2/4
f 568/2/4 564/2/4 569/2/4
f 570/2/4 571/2/4 574/2/4
f 574/2/4 571/2/4 575/2/4
f 572/2/4 573/2/4 576/2/4
f 576/2/4 573/2/4 577/2/4
f 575/2/4 576/2/4 578/2/4
f 578/2/4 576/2/4 579/2/4
f 580/2/4 581/2/4 583/2/4
f 583/2/4 581/2/4 584/2/4
f 582/2/4 583/2/4 587/2/4
f 587/2/4 583/2/4 588/2/4
f 584/2/4 585/2/4 589/2/4
f 589/2/4 585/2/4 590/2/4
f 586/2/4 587/2/4 591/2/4
f 591/2/4 587/2/4 592/2/4
f 593/2/4 594/2/4 597/2/4
f 597/2/4 594/2/4 598/2/4
f 595/2/4 596/2/4 599/2/4
f 599/2/4 596/2/4 600/2/4
f 598/2/4 599/2/4 601/2/4
f 601/2/4 599/2/4 602/2/4
f 603/2/4 604/2/4 606/2/4
f 606/2/4 604/2/4 607/2/4
f 605/2/4 606/2/4 610/2/4
f 610/2/4 606/2/4 611/2/4
f 607/2/4 608/2/4 612/2/4
f 612/2/4 608/2/4 613/2/4
f 609/2/4 610/2/4 614/2/4
f 614/2/4 610/2/4 615/2/4
f 616/2/4 617/2/4 620/2/4
f 620/2/4 617/2/4 621/2/4
f 618/2/4 619/2/4 622/2/4
f 622/2/4 619/2/4 623/2/4
f 621/2/4 622/2/4 624/2/4
f 624/2/4 622/2/4 625/2/4
f 626/2/4 627/2/4 629/2/4
f 629/2/4 627/2/4 630/2/4
f 628/2/4 629/2/4 633/2/4
f 633/2/4 629/2/4 634/2/4
f 630/2/4 631/2/4 635/2/4
f 635/2/4 631/2/4 636/2/4
f 632/2/4 633/2/4 637/2/4
f 632/2/4 637/2/4 641/2/4
f 637/2/4 638/2/4 641/2/4
f 641/2/4 638/2/4 642/2/4
f 639/2/4 640/2/4 643/2/4
f 643/2/4 640/2/4 644/2/4
f 642/2/4 643/2/4 645/2/4
f 645/2/4 643/2/4 646/2/4
f 647/2/4 648/2/4 650/2/4
f 650/2/4 648/2/4 651/2/4
f 649/2/4 650/2/4 653/2/4
f 653/2/4 650/2/4 654/2/4
f 651/2/4 652/2/4 655/2/4
f 655/2/4 652/2/4 656/2/4
f 654/2/4 655/2/4 657/2/4
f 657/2/4 655/2/4 658/2/4
f 659/2/4 660/2/4 661/2/4
f 661/2/4 660/2/4 662/2/4
f 666/2/5 664/2/5 663/2/5
f 667/2/5 664/2/5 666/2/5
f 670/2/5 666/2/5 665/2/5
f 670/2/5 668/2/5 667/2/5
f 670/2/5 667/2/5 666/2/5
f 671/2/5 668/2/5 670/2/5
f 674/2/5 670/2/5 669/2/5
f 674/2/5 672/2/5 671/2/5
f 674/2/5 671/2/5 670/2/5
f 675/2/5 672/2/5 674/2/5
f 677/2/5 674/2/5 673/2/5
f 677/2/5 676/2/5 675/2/5
f 677/2/5 675/2/5 674/2/5
f 678/2/5 676/2/5 677/2/5
f 679/2/5 676/2/5 678/2/5
f 680/2/5 676/2/5 679/2/5
f 681/2/5 676/2/5 680/2/5
f 682/2/5 676/2/5 681/2/5
f 683/2/5 676/2/5 682/2/5
f 684/2/5 676/2/5 683/2/5
f 685/2/5 683/2/5 682/2/5
f 686/2/5 683/2/5 685/2/5
f 687/2/5 683/2/5 686/2/5
f 688/2/5 683/2/5 687/2/5
f 689/2/5 687/2/5 686/2/5
f 690/2/5 687/2/5 689/2/5
f 694/2/5 692/2/5 691/2/5
f 695/2/5 692/2/5 694/2/5
f 697/2/5 694/2/5 693/2/5
f 698/2/5 694/2/5 697/2/5
f 699/2/5 692/2/5 695/2/5
f 700/2/5 692/2/5 699/2/5
f 703/2/5 697/2/5 696/2/5
f 704/2/5 697/2/5 703/2/5
f 705/2/5 701/2/5 700/2/5
f 706/2/5 701/2/5 705/2/5
f 709/2/5 703/2/5 702/2/5
f 710/2/5 703/2/5 709/2/5
f 711/2/5 707/2/5 706/2/5
f 712/2/5 707/2/5 711/2/5
f 714/2/5 709/2/5 708/2/5
f 715/2/5 709/2/5 714/2/5
f 717/2/5 716/2/5 715/2/5
f 718/2/5 716/2/5 717/2/5
f 720/2/5 713/2/5 712/2/5
f 721/2/5 713/2/5 720/2/5
f 722/2/5 719/2/5 718/2/5
f 723/2/5 719/2/5 722/2/5
f 725/2/5 724/2/5 723/2/5
f 726/2/5 724/2/5 725/2/5
f 728/2/5 727/2/5 726/2/5
f 729/2/5 727/2/5 728/2/5
f 731/2/5 730/2/5 729/2/5
f 732/2/5 730/2/5 731/2/5
f 736/2/5 734/2/5 733/2/5
f 737/2/5 734/2/5 736/2/5
f 739/2/5 736/2/5 735/2/5
f 740/2/5 736/2/5 739/2/5
f 744/2/5 739/2/5 738/2/5
f 745/2/5 739/2/5 744/2/5
f 746/2/5 742/2/5 741/2/5
f 747/2/5 742/2/5 746/2/5
f 750/2/5 744/2/5 743/2/5
f 751/2/5 744/2/5 750/2/5
f 752/2/5 748/2/5 747/2/5
f 753/2/5 748/2/5 752/2/5
f 756/2/5 750/2/5 749/2/5
f 757/2/5 750/2/5 756/2/5
f 758/2/5 754/2/5 753/2/5
f 759/2/5 754/2/5 758/2/5
f 761/2/5 756/2/5 755/2/5
f 762/2/5 756/2/5 761/2/5
f 764/2/5 763/2/5 762/2/5
f 765/2/5 763/2/5 764/2/5
f 768/2/5 760/2/5 759/2/5
f 769/2/5 760/2/5 768/2/5
f 770/2/5 766/2/5 765/2/5
f 771/2/5 766/2/5 770/2/5
f 774/2/5 768/2/5 767/2/5
f 775/2/5 768/2/5 774/2/5
f 776/2/5 772/2/5 771/2/5
f 777/2/5 772/2/5 776/2/5
f 780/2/5 774/2/5 773/2/5
f 781/2/5 774/2/5 780/2/5
f 782/2/5 778/2/5 777/2/5
f 783/2/5 778/2/5 782/2/5
f 786/2/5 780/2/5 779/2/5
f 787/2/5 780/2/5 786/2/5
f 788/2/5 784/2/5 783/2/5
f 789/2/5 784/2/5 788/2/5
f 790/2/5 786/2/5 785/2/5
f 791/2/5 786/2/5 790/2/5
f 792/2/5 790/2/5 789/2/5
f 793/2/5 790/2/5 792/2/5
f 794/2/6 795/2/6 797/2/6
f 797/2/6 795/2/6 798/2/6
f 796/2/6 797/2/6 801/2/6
f 798/2/6 799/2/6 801/2/6
f 797/2/6 798/2/6 801/2/6
f 801/2/6 799/2/6 802/2/6
f 800/2/6 801/2/6 804/2/6
f 802/2/6 803/2/6 804/2/6
f 801/2/6 802/2/6 804/2/6
f 804/2/6 803/2/6 805/2/6
f 800/2/6 804/2/6 806/2/6
f 805/2/6 803/2/6 807/2/6
f 800/2/6 806/2/6 808/2/6
f 806/2/6 807/2/6 808/2/6
f 808/2/6 807/2/6 809/2/6
f 809/2/6 807/2/6 810/2/6
f 810/2/6 807/2/6 811/2/6
f 807/2/6 803/2/6 812/2/6
f 811/2/6 807/2/6 812/2/6
f 812/2/6 803/2/6 813/2/6
f 811/2/6 812/2/6 814/2/6
f 814/2/6 812/2/6 815/2/6
f 815/2/6 812/2/6 816/2/6
f 816/2/6 812/2/6 817/2/6
f 815/2/6 816/2/6 818/2/6
f 818/2/6 816/2/6 819/2/6
f 820/2/6 821/2/6 823/2/6
f 823/2/6 821/2/6 824/2/6
f 822/2/6 823/2/6 827/2/6
f 827/2/6 823/2/6 828/2/6
f 824/2/6 825/2/6 829/2/6
f 829/2/6 825/2/6 830/2/6
f 826/2/6 827/2/6 833/2/6
f 833/2/6 827/2/6 834/2/6
f 828/2/6 829/2/6 835/2/6
f 835/2/6 829/2/6 836/2/6
f 836/2/6 829/2/6 837/2/6
f 830/2/6 831/2/6 838/2/6
f 838/2/6 831/2/6 839/2/6
f 832/2/6 833/2/6 842/2/6
f 842/2/6 833/2/6 843/2/6
f 834/2/6 835/2/6 844/2/6
f 835/2/6 836/2/6 844/2/6
f 844/2/6 836/2/6 845/2/6
f 837/2/6 838/2/6 846/2/6
f 846/2/6 838/2/6 847/2/6
f 839/2/6 840/2/6 848/2/6
f 848/2/6 840/2/6 849/2/6
f 841/2/6 842/2/6 852/2/6
f 852/2/6 842/2/6 853/2/6
f 843/2/6 844/2/6 854/2/6
f 854/2/6 844/2/6 855/2/6
f 847/2/6 848/2/6 856/2/6
f 856/2/6 848/2/6 857/2/6
f 849/2/6 850/2/6 858/2/6
f 858/2/6 850/2/6 859/2/6
f 853/2/6 854/2/6 861/2/6
f 853/2/6 861/2/6 863/2/6
f 861/2/6 862/2/6 863/2/6
f 863/2/6 862/2/6 864/2/6
f 864/2/6 862/2/6 865/2/6
f 851/2/6 852/2/6 867/2/6
f 867/2/6 852/2/6 868/2/6
f 865/2/6 866/2/6 870/2/6
f 864/2/6 865/2/6 870/2/6
f 870/2/6 866/2/6 871/2/6
f 857/2/6 858/2/6 873/2/6
f 873/2/6 858/2/6 874/2/6
f 868/2/6 869/2/6 875/2/6
f 875/2/6 869/2/6 876/2/6
f 871/2/6 866/2/6 878/2/6
f 878/2/6 866/2/6 879/2/6
f 872/2/6 873/2/6 882/2/6
f 882/2/6 873/2/6 883/2/6
f 859/2/6 860/2/6 885/2/6
f 885/2/6 860/2/6 886/2/6
f 876/2/6 877/2/6 887/2/6
f 887/2/6 877/2/6 888/2/6
f 879/2/6 880/2/6 890/2/6
f 881/2/6 882/2/6 891/2/6
f 891/2/6 882/2/6 892/2/6
f 884/2/6 885/2/6 894/2/6
f 894/2/6 885/2/6 895/2/6
f 888/2/6 889/2/6 896/2/6
f 896/2/6 889/2/6 897/2/6
f 879/2/6 890/2/6 898/2/6
f 890/2/6 891/2/6 898/2/6
f 898/2/6 891/2/6 899/2/6
f 893/2/6 894/2/6 901/2/6
f 901/2/6 894/2/6 902/2/6
f 897/2/6 898/2/6 903/2/6
f 903/2/6 898/2/6 904/2/6
f 900/2/6 901/2/6 907/2/6
f 907/2/6 901/2/6 908/2/6
f 904/2/6 905/2/6 909/2/6
f 909/2/6 905/2/6 910/2/6
f 906/2/6 907/2/6 911/2/6
f 911/2/6 907/2/6 912/2/6
f 910/2/6 911/2/6 913/2/6
f 913/2/6 911/2/6 914/2/6
f 915/2/6 916/2/6 918/2/6
f 918/2/6 916/2/6 919/2/6
f 917/2/6 918/2/6 922/2/6
f 922/2/6 918/2/6 923/2/6
f 919/2/6 920/2/6 924/2/6
f 924/2/6 920/2/6 925/2/6
f 921/2/6 922/2/6 928/2/6
f 928/2/6 922/2/6 929/2/6
f 925/2/6 926/2/6 930/2/6
f 930/2/6 926/2/6 931/2/6
f 927/2/6 928/2/6 934/2/6
f 934/2/6 928/2/6 935/2/6
f 931/2/6 932/2/6 936/2/6
f 936/2/6 932/2/6 937/2/6
f 933/2/6 934/2/6 939/2/6
f 933/2/6 939/2/6 941/2/6
f 939/2/6 940/2/6 941/2/6
f 941/2/6 940/2/6 942/2/6
f 942/2/6 940/2/6 943/2/6
f 937/2/6 938/2/6 946/2/6
f 943/2/6 944/2/6 947/2/6
f 942/2/6 943/2/6 947/2/6
f 947/2/6 944/2/6 948/2/6
f 948/2/6 944/2/6 949/2/6
f 945/2/6 946/2/6 952/2/6
f 946/2/6 938/2/6 953/2/6
f 952/2/6 946/2/6 953/2/6
f 953/2/6 938/2/6 954/2/6
f 949/2/6 950/2/6 955/2/6
f 948/2/6 949/2/6 955/2/6
f 955/2/6 950/2/6 956/2/6
f 951/2/6 952/2/6 958/2/6
f 952/2/6 953/2/6 958/2/6
f 958/2/6 953/2/6 959/2/6
f 959/2/6 953/2/6 960/2/6
f 956/2/6 950/2/6 961/2/6
f 961/2/6 950/2/6 962/2/6
f 958/2/6 959/2/6 963/2/6
f 957/2/6 958/2/6 963/2/6
f 963/2/6 959/2/6 964/2/6
f 964/2/6 959/2/6 965/2/6
f 962/2/6 963/2/6 966/2/6
f 963/2/6 964/2/6 966/2/6
f 966/2/6 964/2/6 967/2/6
f 967/2/6 964/2/6 968/2/6
f 968/2/6 964/2/6 969/2/6
f 967/2/6 968/2/6 970/2/6
f 970/2/6 968/2/6 971/2/6
f 972/1/6 973/1/6 974/1/6
f 974/1/6 973/1/6 975/1/6
