<?xml version="1.0" encoding="UTF-8" standalone="no"?>
<!-- Created with Inkscape (http://www.inkscape.org/) -->

<svg
   width="189mm"
   height="94mm"
   viewBox="0 0 189 94"
   version="1.1"
   id="svg5"
   inkscape:version="1.2.2 (732a01da63, 2022-12-09)"
   sodipodi:docname="speakbox.svg"
   xmlns:inkscape="http://www.inkscape.org/namespaces/inkscape"
   xmlns:sodipodi="http://sodipodi.sourceforge.net/DTD/sodipodi-0.dtd"
   xmlns:xlink="http://www.w3.org/1999/xlink"
   xmlns="http://www.w3.org/2000/svg"
   xmlns:svg="http://www.w3.org/2000/svg">
  <sodipodi:namedview
     id="namedview7"
     pagecolor="#ffffff"
     bordercolor="#000000"
     borderopacity="0.25"
     inkscape:showpageshadow="2"
     inkscape:pageopacity="0.0"
     inkscape:pagecheckerboard="0"
     inkscape:deskcolor="#d1d1d1"
     inkscape:document-units="mm"
     showgrid="false"
     inkscape:zoom="2.6532575"
     inkscape:cx="406.29301"
     inkscape:cy="151.51187"
     inkscape:window-width="3840"
     inkscape:window-height="2054"
     inkscape:window-x="-11"
     inkscape:window-y="-11"
     inkscape:window-maximized="1"
     inkscape:current-layer="layer1" />
  <defs
     id="defs2">
    <linearGradient
       inkscape:collect="always"
       id="linearGradient503">
      <stop
         style="stop-color:#d45500;stop-opacity:1;"
         offset="0"
         id="stop499" />
      <stop
         style="stop-color:#d48b00;stop-opacity:0.90936553;"
         offset="1"
         id="stop501" />
    </linearGradient>
    <linearGradient
       inkscape:collect="always"
       xlink:href="#linearGradient503"
       id="linearGradient505"
       x1="133.26923"
       y1="185.30769"
       x2="169.51282"
       y2="77"
       gradientUnits="userSpaceOnUse"
       gradientTransform="translate(-14.807692,-101.96153)" />
  </defs>
  <g
     inkscape:label="Layer 1"
     inkscape:groupmode="layer"
     id="layer1">
    <rect
       style="fill:#ffffff;fill-opacity:1;stroke-width:0.275762"
       id="rect234-2"
       width="179.3421"
       height="88.572906"
       x="5.8608861"
       y="2.8811939"
       rx="11.440382"
       ry="31.357674" />
    <rect
       style="fill:url(#linearGradient505);fill-opacity:1;stroke-width:0.264583"
       id="rect234"
       width="175.15384"
       height="83.487175"
       x="7.7564106"
       y="4.9358997"
       rx="11.17321"
       ry="29.557159" />
  </g>
</svg>
