[gd_scene load_steps=4 format=3 uid="uid://8147etyxbsrj"]

[ext_resource type="Script" path="res://components/interactables/pickup_floating/_pickup_floating.gd" id="1_xmg50"]
[ext_resource type="PackedScene" uid="uid://cuko11auj7its" path="res://components/interactables/pickup_floating/_pickup_floating_animation.tscn" id="3_rax4n"]

[sub_resource type="CylinderShape3D" id="CylinderShape3D_0j5mo"]
height = 1.0

[node name="Pickup" type="Node3D"]
script = ExtResource("1_xmg50")
marker_color = Color(0, 0.501961, 0.25098, 1)
marker_size = 0.25
thought_text = "pick up the star fruit"

[node name="Area3D" type="Area3D" parent="."]
transform = Transform3D(0.1, 0, 0, 0, 0.1, 0, 0, 0, 0.1, 0, 0, 0)
collision_layer = 2
collision_mask = 0

[node name="CollisionShape3D" type="CollisionShape3D" parent="Area3D"]
transform = Transform3D(1, 0, 1.16527e-05, 0, 1, 0, -1.16527e-05, 0, 1, 0, 0.5, 0)
shape = SubResource("CylinderShape3D_0j5mo")

[node name="ModelAnchor" type="Marker3D" parent="."]
gizmo_extents = 0.01

[node name="AnimationPlayer" parent="ModelAnchor" instance=ExtResource("3_rax4n")]
unique_name_in_owner = true
