[gd_scene format=3 uid="uid://yib6vxyutb5e"]

[node name="Label" type="RichTextLabel"]
custom_minimum_size = Vector2(128, 0)
offset_right = 192.0
offset_bottom = 23.0
size_flags_vertical = 9
bbcode_enabled = true
fit_content = true
scroll_active = false

[node name="Back" type="ColorRect" parent="."]
show_behind_parent = true
layout_mode = 1
anchors_preset = 15
anchor_right = 1.0
anchor_bottom = 1.0
offset_left = 1.0
offset_top = 1.0
offset_right = -1.0
offset_bottom = -1.0
grow_horizontal = 2
grow_vertical = 2
mouse_filter = 2
color = Color(0.247059, 0.247059, 0.247059, 0.498039)

[node name="Selected" type="ColorRect" parent="."]
visible = false
layout_mode = 1
anchors_preset = 15
anchor_right = 1.0
anchor_bottom = 1.0
grow_horizontal = 2
grow_vertical = 2
mouse_filter = 2
color = Color(1, 1, 1, 0.247059)
