# MagicaVoxel @ Ephtracy

# group
o 

# material
mtllib bamboo1.mtl
usemtl palette

# normals
vn -1 0 0
vn 1 0 0
vn 0 0 1
vn 0 0 -1
vn 0 -1 0
vn 0 1 0

# texcoords
vt 0.845703 0.5
vt 0.849609 0.5
vt 0.853516 0.5

# verts
v -2.3 3.1 -5.96046e-008
v -2.3 3.1 -0.1
v -2.3 3.2 -5.96046e-008
v -2.3 3.2 -0.1
v -2.2 3 -5.96046e-008
v -2.2 3 -0.1
v -2.2 3.1 -5.96046e-008
v -2.2 3.1 -0.1
v -2.2 3.2 -5.96046e-008
v -2.2 3.2 -0.1
v -2.2 3.3 -5.96046e-008
v -2.2 3.3 -0.1
v -2.1 2.9 -5.96046e-008
v -2.1 2.9 -0.1
v -2.1 3 -5.96046e-008
v -2.1 3 -0.1
v -2.1 3.3 -5.96046e-008
v -2.1 3.3 -0.1
v -2.1 3.4 -5.96046e-008
v -2.1 3.4 -0.1
v -2 2.8 -5.96046e-008
v -2 2.8 -0.1
v -2 2.9 -5.96046e-008
v -2 2.9 -0.1
v -2 3.4 -5.96046e-008
v -2 3.4 -0.1
v -2 3.5 -5.96046e-008
v -2 3.5 -0.1
v -1.9 2.7 -5.96046e-008
v -1.9 2.7 -0.1
v -1.9 2.8 -5.96046e-008
v -1.9 2.8 -0.1
v -1.9 3.5 -5.96046e-008
v -1.9 3.5 -0.1
v -1.9 3.6 -5.96046e-008
v -1.9 3.6 -0.1
v -1.8 2.6 -5.96046e-008
v -1.8 2.6 -0.1
v -1.8 2.7 -5.96046e-008
v -1.8 2.7 -0.1
v -1.8 3.6 -5.96046e-008
v -1.8 3.6 -0.1
v -1.8 3.7 -5.96046e-008
v -1.8 3.7 -0.1
v -1.7 2.4 -5.96046e-008
v -1.7 2.4 -0.1
v -1.7 2.5 -5.96046e-008
v -1.7 2.5 -0.1
v -1.6 2.3 -5.96046e-008
v -1.6 2.3 -0.1
v -1.6 2.4 -5.96046e-008
v -1.6 2.4 -0.1
v -1.6 2.5 -5.96046e-008
v -1.6 2.5 -0.1
v -1.6 2.6 -5.96046e-008
v -1.6 2.6 -0.1
v -1.4 2.2 -5.96046e-008
v -1.4 2.2 -0.1
v -1.4 2.3 -5.96046e-008
v -1.4 2.3 -0.1
v -1.4 2.6 -5.96046e-008
v -1.4 2.6 -0.1
v -1.4 2.7 -5.96046e-008
v -1.4 2.7 -0.1
v -1.2 2.7 -5.96046e-008
v -1.2 2.7 -0.1
v -1.2 3.1 -5.96046e-008
v -1.2 3.1 -0.1
v -1.2 3.2 -5.96046e-008
v -1.2 3.2 -0.1
v -1.2 3.4 -5.96046e-008
v -1.2 3.4 -0.1
v -1.1 3.4 -5.96046e-008
v -1.1 3.4 -0.1
v -1.1 3.5 -5.96046e-008
v -1.1 3.5 -0.1
v -0.7 0.6 0.0999999
v -0.7 0.6 -0.1
v -0.7 0.7 0.0999999
v -0.7 0.7 -0.1
v -0.7 1.7 0.2
v -0.7 1.7 -0.1
v -0.7 1.8 0.2
v -0.7 1.8 -0.1
v -0.7 2.6 0.0999999
v -0.7 2.6 -0.1
v -0.7 2.7 0.0999999
v -0.7 2.7 -0.1
v -0.6 0 0.0999999
v -0.6 0 -0.1
v -0.6 0.6 0.2
v -0.6 0.6 0.0999999
v -0.6 0.6 -0.1
v -0.6 0.6 -0.2
v -0.6 0.7 0.2
v -0.6 0.7 0.0999999
v -0.6 0.7 -0.1
v -0.6 0.7 -0.2
v -0.6 1.7 0.0999999
v -0.6 1.7 -0.1
v -0.6 1.7 -0.2
v -0.6 1.8 0.0999999
v -0.6 1.8 -0.1
v -0.6 1.8 -0.2
v -0.6 2.6 0.2
v -0.6 2.6 0.0999999
v -0.6 2.6 -0.1
v -0.6 2.6 -0.2
v -0.6 2.7 0.2
v -0.6 2.7 0.0999999
v -0.6 2.7 -0.1
v -0.6 2.7 -0.2
v -0.6 3.2 0.0999999
v -0.6 3.2 -0.1
v -0.5 0 0.2
v -0.5 0 0.0999999
v -0.5 0 -0.1
v -0.5 0 -0.2
v -0.5 0.6 0.3
v -0.5 0.6 0.2
v -0.5 0.6 0.0999999
v -0.5 0.6 -0.1
v -0.5 0.6 -0.2
v -0.5 0.6 -0.3
v -0.5 0.7 0.3
v -0.5 0.7 0.2
v -0.5 0.7 0.0999999
v -0.5 0.7 -0.1
v -0.5 0.7 -0.2
v -0.5 0.7 -0.3
v -0.5 1.7 0.3
v -0.5 1.7 0.2
v -0.5 1.7 0.0999999
v -0.5 1.7 -0.1
v -0.5 1.7 -0.2
v -0.5 1.7 -0.3
v -0.5 1.8 0.3
v -0.5 1.8 0.2
v -0.5 1.8 0.0999999
v -0.5 1.8 -0.1
v -0.5 1.8 -0.2
v -0.5 1.8 -0.3
v -0.5 2.6 0.3
v -0.5 2.6 0.2
v -0.5 2.6 0.0999999
v -0.5 2.6 -0.1
v -0.5 2.6 -0.2
v -0.5 2.6 -0.3
v -0.5 2.7 0.3
v -0.5 2.7 0.2
v -0.5 2.7 0.0999999
v -0.5 2.7 -0.1
v -0.5 2.7 -0.2
v -0.5 2.7 -0.3
v -0.5 3.2 0.2
v -0.5 3.2 0.0999999
v -0.5 3.2 -5.96046e-008
v -0.5 3.2 -0.1
v -0.5 3.2 -0.2
v -0.5 3.4 -5.96046e-008
v -0.5 3.4 -0.1
v -0.4 0 0.3
v -0.4 0 0.2
v -0.4 0 -0.2
v -0.4 0 -0.3
v -0.4 0.6 0.4
v -0.4 0.6 0.3
v -0.4 0.6 0.2
v -0.4 0.6 -0.2
v -0.4 0.6 -0.3
v -0.4 0.6 -0.4
v -0.4 0.7 0.4
v -0.4 0.7 0.3
v -0.4 0.7 0.2
v -0.4 0.7 -0.2
v -0.4 0.7 -0.3
v -0.4 0.7 -0.4
v -0.4 1.7 0.4
v -0.4 1.7 0.3
v -0.4 1.7 0.2
v -0.4 1.7 -0.2
v -0.4 1.7 -0.3
v -0.4 1.7 -0.4
v -0.4 1.8 0.4
v -0.4 1.8 0.3
v -0.4 1.8 0.2
v -0.4 1.8 -0.2
v -0.4 1.8 -0.3
v -0.4 1.8 -0.4
v -0.4 2.6 0.4
v -0.4 2.6 0.3
v -0.4 2.6 0.2
v -0.4 2.6 -0.2
v -0.4 2.6 -0.3
v -0.4 2.6 -0.4
v -0.4 2.7 0.4
v -0.4 2.7 0.3
v -0.4 2.7 0.2
v -0.4 2.7 -0.2
v -0.4 2.7 -0.3
v -0.4 2.7 -0.4
v -0.4 3.2 0.3
v -0.4 3.2 0.2
v -0.4 3.2 -0.2
v -0.4 3.2 -0.3
v -0.3 0 0.4
v -0.3 0 0.3
v -0.3 0 -0.3
v -0.3 0 -0.4
v -0.3 0.6 0.5
v -0.3 0.6 0.4
v -0.3 0.6 0.3
v -0.3 0.6 -0.3
v -0.3 0.6 -0.4
v -0.3 0.6 -0.5
v -0.3 0.7 0.5
v -0.3 0.7 0.4
v -0.3 0.7 0.3
v -0.3 0.7 -0.3
v -0.3 0.7 -0.4
v -0.3 0.7 -0.5
v -0.3 1.7 0.5
v -0.3 1.7 0.4
v -0.3 1.7 0.3
v -0.3 1.7 -0.3
v -0.3 1.7 -0.4
v -0.3 1.7 -0.5
v -0.3 1.8 0.5
v -0.3 1.8 0.4
v -0.3 1.8 0.3
v -0.3 1.8 -0.3
v -0.3 1.8 -0.4
v -0.3 1.8 -0.5
v -0.3 2.6 0.5
v -0.3 2.6 0.4
v -0.3 2.6 0.3
v -0.3 2.6 -0.3
v -0.3 2.6 -0.4
v -0.3 2.6 -0.5
v -0.3 2.7 0.5
v -0.3 2.7 0.4
v -0.3 2.7 0.3
v -0.3 2.7 -0.3
v -0.3 2.7 -0.4
v -0.3 2.7 -0.5
v -0.3 3.2 0.4
v -0.3 3.2 0.3
v -0.3 3.2 -0.3
v -0.3 3.2 -0.4
v -0.2 0 0.5
v -0.2 0 0.4
v -0.2 0 -0.4
v -0.2 0 -0.5
v -0.2 0.6 0.6
v -0.2 0.6 0.5
v -0.2 0.6 0.4
v -0.2 0.6 -0.4
v -0.2 0.6 -0.5
v -0.2 0.6 -0.6
v -0.2 0.7 0.6
v -0.2 0.7 0.5
v -0.2 0.7 0.4
v -0.2 0.7 -0.4
v -0.2 0.7 -0.5
v -0.2 0.7 -0.6
v -0.2 1.7 0.6
v -0.2 1.7 0.5
v -0.2 1.7 0.4
v -0.2 1.7 -0.4
v -0.2 1.7 -0.5
v -0.2 1.7 -0.6
v -0.2 1.8 0.6
v -0.2 1.8 0.5
v -0.2 1.8 0.4
v -0.2 1.8 -0.4
v -0.2 1.8 -0.5
v -0.2 1.8 -0.6
v -0.2 2.6 0.6
v -0.2 2.6 0.5
v -0.2 2.6 0.4
v -0.2 2.6 -0.4
v -0.2 2.6 -0.5
v -0.2 2.6 -0.6
v -0.2 2.7 0.6
v -0.2 2.7 0.5
v -0.2 2.7 0.4
v -0.2 2.7 -0.4
v -0.2 2.7 -0.5
v -0.2 2.7 -0.6
v -0.2 3.2 0.5
v -0.2 3.2 0.4
v -0.2 3.2 -0.4
v -0.2 3.2 -0.5
v 0 2.9 0.4
v 0 2.9 0.3
v 0 3.1 -0.3
v 0 3.1 -0.4
v 0 3.2 0.4
v 0 3.2 0.3
v 0 3.2 -0.3
v 0 3.2 -0.4
v 0.0999999 2.9 0.3
v 0.0999999 2.9 0.2
v 0.0999999 2.9 -0.1
v 0.0999999 2.9 -0.3
v 0.0999999 3.2 0.3
v 0.0999999 3.2 0.2
v 0.0999999 3.2 -0.1
v 0.0999999 3.2 -0.3
v 0.2 2.9 0.2
v 0.2 2.9 0.0999999
v 0.2 3.2 0.2
v 0.2 3.2 0.0999999
v 0.3 2.9 0.0999999
v 0.3 2.9 -0.1
v 0.3 3.2 0.0999999
v 0.3 3.2 -0.1
v -1.7 2.6 -5.96046e-008
v -1.7 2.6 -0.1
v -1.7 2.7 -5.96046e-008
v -1.7 2.7 -0.1
v -1.7 3.6 -5.96046e-008
v -1.7 3.6 -0.1
v -1.7 3.7 -5.96046e-008
v -1.7 3.7 -0.1
v -1.6 2.7 -5.96046e-008
v -1.6 2.7 -0.1
v -1.6 2.8 -5.96046e-008
v -1.6 2.8 -0.1
v -1.6 3.5 -5.96046e-008
v -1.6 3.5 -0.1
v -1.6 3.6 -5.96046e-008
v -1.6 3.6 -0.1
v -1.5 2.8 -5.96046e-008
v -1.5 2.8 -0.1
v -1.5 2.9 -5.96046e-008
v -1.5 2.9 -0.1
v -1.5 3.4 -5.96046e-008
v -1.5 3.4 -0.1
v -1.5 3.5 -5.96046e-008
v -1.5 3.5 -0.1
v -1.4 2.9 -5.96046e-008
v -1.4 2.9 -0.1
v -1.4 3 -5.96046e-008
v -1.4 3 -0.1
v -1.4 3.3 -5.96046e-008
v -1.4 3.3 -0.1
v -1.4 3.4 -5.96046e-008
v -1.4 3.4 -0.1
v -1.3 3 -5.96046e-008
v -1.3 3 -0.1
v -1.3 3.1 -5.96046e-008
v -1.3 3.1 -0.1
v -1.3 3.2 -5.96046e-008
v -1.3 3.2 -0.1
v -1.3 3.3 -5.96046e-008
v -1.3 3.3 -0.1
v -1.1 2.2 -5.96046e-008
v -1.1 2.2 -0.1
v -1.1 3.4 -5.96046e-008
v -1.1 3.4 -0.1
v -0.5 3.4 -5.96046e-008
v -0.5 3.4 -0.1
v -0.5 3.5 -5.96046e-008
v -0.5 3.5 -0.1
v -0.4 2.9 0.2
v -0.4 2.9 -0.1
v -0.4 3.2 0.2
v -0.4 3.2 -5.96046e-008
v -0.4 3.2 -0.1
v -0.4 3.4 -5.96046e-008
v -0.4 3.4 -0.1
v -0.3 2.9 0.3
v -0.3 2.9 0.2
v -0.3 2.9 -0.1
v -0.3 2.9 -0.3
v -0.3 3.2 0.3
v -0.3 3.2 0.2
v -0.3 3.2 -0.1
v -0.3 3.2 -0.3
v -0.2 2.9 0.4
v -0.2 2.9 0.3
v -0.2 3.1 -0.3
v -0.2 3.1 -0.4
v -0.2 3.2 0.4
v -0.2 3.2 0.3
v -0.2 3.2 -0.3
v -0.2 3.2 -0.4
v 0 0 0.5
v 0 0 0.4
v 0 0 -0.4
v 0 0 -0.5
v 0 0.6 0.6
v 0 0.6 0.5
v 0 0.6 0.4
v 0 0.6 -0.4
v 0 0.6 -0.5
v 0 0.6 -0.6
v 0 0.7 0.6
v 0 0.7 0.5
v 0 0.7 0.4
v 0 0.7 -0.4
v 0 0.7 -0.5
v 0 0.7 -0.6
v 0 1.7 0.6
v 0 1.7 0.5
v 0 1.7 0.4
v 0 1.7 -0.4
v 0 1.7 -0.5
v 0 1.7 -0.6
v 0 1.8 0.6
v 0 1.8 0.5
v 0 1.8 0.4
v 0 1.8 -0.4
v 0 1.8 -0.5
v 0 1.8 -0.6
v 0 2.6 0.6
v 0 2.6 0.5
v 0 2.6 0.4
v 0 2.6 -0.4
v 0 2.6 -0.5
v 0 2.6 -0.6
v 0 2.7 0.6
v 0 2.7 0.5
v 0 2.7 0.4
v 0 2.7 -0.4
v 0 2.7 -0.5
v 0 2.7 -0.6
v 0 3.2 0.5
v 0 3.2 0.4
v 0 3.2 -0.4
v 0 3.2 -0.5
v 0.0999999 0 0.4
v 0.0999999 0 0.3
v 0.0999999 0 -0.3
v 0.0999999 0 -0.4
v 0.0999999 0.6 0.5
v 0.0999999 0.6 0.4
v 0.0999999 0.6 0.3
v 0.0999999 0.6 -0.3
v 0.0999999 0.6 -0.4
v 0.0999999 0.6 -0.5
v 0.0999999 0.7 0.5
v 0.0999999 0.7 0.4
v 0.0999999 0.7 0.3
v 0.0999999 0.7 -0.3
v 0.0999999 0.7 -0.4
v 0.0999999 0.7 -0.5
v 0.0999999 1.7 0.5
v 0.0999999 1.7 0.4
v 0.0999999 1.7 0.3
v 0.0999999 1.7 -0.3
v 0.0999999 1.7 -0.4
v 0.0999999 1.7 -0.5
v 0.0999999 1.8 0.5
v 0.0999999 1.8 0.4
v 0.0999999 1.8 0.3
v 0.0999999 1.8 -0.3
v 0.0999999 1.8 -0.4
v 0.0999999 1.8 -0.5
v 0.0999999 2.6 0.5
v 0.0999999 2.6 0.4
v 0.0999999 2.6 0.3
v 0.0999999 2.6 -0.3
v 0.0999999 2.6 -0.4
v 0.0999999 2.6 -0.5
v 0.0999999 2.7 0.5
v 0.0999999 2.7 0.4
v 0.0999999 2.7 0.3
v 0.0999999 2.7 -0.3
v 0.0999999 2.7 -0.4
v 0.0999999 2.7 -0.5
v 0.0999999 3.2 0.4
v 0.0999999 3.2 0.3
v 0.0999999 3.2 -0.3
v 0.0999999 3.2 -0.4
v 0.2 0 0.3
v 0.2 0 0.2
v 0.2 0 -0.2
v 0.2 0 -0.3
v 0.2 0.6 0.4
v 0.2 0.6 0.3
v 0.2 0.6 0.2
v 0.2 0.6 -0.2
v 0.2 0.6 -0.3
v 0.2 0.6 -0.4
v 0.2 0.7 0.4
v 0.2 0.7 0.3
v 0.2 0.7 0.2
v 0.2 0.7 -0.2
v 0.2 0.7 -0.3
v 0.2 0.7 -0.4
v 0.2 1.7 0.4
v 0.2 1.7 0.3
v 0.2 1.7 0.2
v 0.2 1.7 -0.2
v 0.2 1.7 -0.3
v 0.2 1.7 -0.4
v 0.2 1.8 0.4
v 0.2 1.8 0.3
v 0.2 1.8 0.2
v 0.2 1.8 -0.2
v 0.2 1.8 -0.3
v 0.2 1.8 -0.4
v 0.2 2.6 0.4
v 0.2 2.6 0.3
v 0.2 2.6 0.2
v 0.2 2.6 -0.2
v 0.2 2.6 -0.3
v 0.2 2.6 -0.4
v 0.2 2.7 0.4
v 0.2 2.7 0.3
v 0.2 2.7 0.2
v 0.2 2.7 -0.2
v 0.2 2.7 -0.3
v 0.2 2.7 -0.4
v 0.2 3.2 0.3
v 0.2 3.2 0.2
v 0.2 3.2 -0.2
v 0.2 3.2 -0.3
v 0.3 0 0.2
v 0.3 0 0.0999999
v 0.3 0 -0.1
v 0.3 0 -0.2
v 0.3 0.6 0.3
v 0.3 0.6 0.2
v 0.3 0.6 0.0999999
v 0.3 0.6 -0.1
v 0.3 0.6 -0.2
v 0.3 0.6 -0.3
v 0.3 0.7 0.3
v 0.3 0.7 0.2
v 0.3 0.7 0.0999999
v 0.3 0.7 -0.1
v 0.3 0.7 -0.2
v 0.3 0.7 -0.3
v 0.3 1.7 0.3
v 0.3 1.7 0.2
v 0.3 1.7 0.0999999
v 0.3 1.7 -0.1
v 0.3 1.7 -0.2
v 0.3 1.7 -0.3
v 0.3 1.8 0.3
v 0.3 1.8 0.2
v 0.3 1.8 0.0999999
v 0.3 1.8 -0.1
v 0.3 1.8 -0.2
v 0.3 1.8 -0.3
v 0.3 2.6 0.3
v 0.3 2.6 0.2
v 0.3 2.6 0.0999999
v 0.3 2.6 -0.1
v 0.3 2.6 -0.2
v 0.3 2.6 -0.3
v 0.3 2.7 0.3
v 0.3 2.7 0.2
v 0.3 2.7 0.0999999
v 0.3 2.7 -0.1
v 0.3 2.7 -0.2
v 0.3 2.7 -0.3
v 0.3 3.2 0.2
v 0.3 3.2 0.0999999
v 0.3 3.2 -0.1
v 0.3 3.2 -0.2
v 0.4 0 0.0999999
v 0.4 0 -0.1
v 0.4 0.6 0.2
v 0.4 0.6 0.0999999
v 0.4 0.6 -0.1
v 0.4 0.6 -0.2
v 0.4 0.7 0.2
v 0.4 0.7 0.0999999
v 0.4 0.7 -0.1
v 0.4 0.7 -0.2
v 0.4 1.7 0.2
v 0.4 1.7 0.0999999
v 0.4 1.7 -0.1
v 0.4 1.7 -0.2
v 0.4 1.8 0.2
v 0.4 1.8 0.0999999
v 0.4 1.8 -0.1
v 0.4 1.8 -0.2
v 0.4 2.6 0.2
v 0.4 2.6 0.0999999
v 0.4 2.6 -0.1
v 0.4 2.6 -0.2
v 0.4 2.7 0.2
v 0.4 2.7 0.0999999
v 0.4 2.7 -0.1
v 0.4 2.7 -0.2
v 0.4 3.2 0.0999999
v 0.4 3.2 -0.1
v 0.5 0.6 0.0999999
v 0.5 0.6 -0.1
v 0.5 0.7 0.0999999
v 0.5 0.7 -0.1
v 0.5 1.7 0.0999999
v 0.5 1.7 -0.1
v 0.5 1.8 0.0999999
v 0.5 1.8 -0.1
v 0.5 2.6 0.0999999
v 0.5 2.6 -0.1
v 0.5 2.7 0.0999999
v 0.5 2.7 -0.1
v -0.2 0.6 0.6
v -0.2 0.7 0.6
v -0.2 1.7 0.6
v -0.2 1.8 0.6
v -0.2 2.6 0.6
v -0.2 2.7 0.6
v 0 0.6 0.6
v 0 0.7 0.6
v 0 1.7 0.6
v 0 1.8 0.6
v 0 2.6 0.6
v 0 2.7 0.6
v -0.3 0.6 0.5
v -0.3 0.7 0.5
v -0.3 1.7 0.5
v -0.3 1.8 0.5
v -0.3 2.6 0.5
v -0.3 2.7 0.5
v -0.2 0 0.5
v -0.2 0.6 0.5
v -0.2 0.7 0.5
v -0.2 1.7 0.5
v -0.2 1.8 0.5
v -0.2 2.6 0.5
v -0.2 2.7 0.5
v -0.2 3.2 0.5
v 0 0 0.5
v 0 0.6 0.5
v 0 0.7 0.5
v 0 1.7 0.5
v 0 1.8 0.5
v 0 2.6 0.5
v 0 2.7 0.5
v 0 3.2 0.5
v 0.0999999 0.6 0.5
v 0.0999999 0.7 0.5
v 0.0999999 1.7 0.5
v 0.0999999 1.8 0.5
v 0.0999999 2.6 0.5
v 0.0999999 2.7 0.5
v -0.4 0.6 0.4
v -0.4 0.7 0.4
v -0.4 1.7 0.4
v -0.4 1.8 0.4
v -0.4 2.6 0.4
v -0.4 2.7 0.4
v -0.3 0 0.4
v -0.3 0.6 0.4
v -0.3 0.7 0.4
v -0.3 1.7 0.4
v -0.3 1.8 0.4
v -0.3 2.6 0.4
v -0.3 2.7 0.4
v -0.3 3.2 0.4
v -0.2 0 0.4
v -0.2 0.6 0.4
v -0.2 0.7 0.4
v -0.2 1.7 0.4
v -0.2 1.8 0.4
v -0.2 2.6 0.4
v -0.2 2.7 0.4
v -0.2 3.2 0.4
v 0 0 0.4
v 0 0.6 0.4
v 0 0.7 0.4
v 0 1.7 0.4
v 0 1.8 0.4
v 0 2.6 0.4
v 0 2.7 0.4
v 0 3.2 0.4
v 0.0999999 0 0.4
v 0.0999999 0.6 0.4
v 0.0999999 0.7 0.4
v 0.0999999 1.7 0.4
v 0.0999999 1.8 0.4
v 0.0999999 2.6 0.4
v 0.0999999 2.7 0.4
v 0.0999999 3.2 0.4
v 0.2 0.6 0.4
v 0.2 0.7 0.4
v 0.2 1.7 0.4
v 0.2 1.8 0.4
v 0.2 2.6 0.4
v 0.2 2.7 0.4
v -0.5 0.6 0.3
v -0.5 0.7 0.3
v -0.5 1.7 0.3
v -0.5 1.8 0.3
v -0.5 2.6 0.3
v -0.5 2.7 0.3
v -0.4 0 0.3
v -0.4 0.6 0.3
v -0.4 0.7 0.3
v -0.4 1.7 0.3
v -0.4 1.8 0.3
v -0.4 2.6 0.3
v -0.4 2.7 0.3
v -0.4 3.2 0.3
v -0.3 0 0.3
v -0.3 0.6 0.3
v -0.3 0.7 0.3
v -0.3 1.7 0.3
v -0.3 1.8 0.3
v -0.3 2.6 0.3
v -0.3 2.7 0.3
v -0.3 3.2 0.3
v 0.0999999 0 0.3
v 0.0999999 0.6 0.3
v 0.0999999 0.7 0.3
v 0.0999999 1.7 0.3
v 0.0999999 1.8 0.3
v 0.0999999 2.6 0.3
v 0.0999999 2.7 0.3
v 0.0999999 3.2 0.3
v 0.2 0 0.3
v 0.2 0.6 0.3
v 0.2 0.7 0.3
v 0.2 1.7 0.3
v 0.2 1.8 0.3
v 0.2 2.6 0.3
v 0.2 2.7 0.3
v 0.2 3.2 0.3
v 0.3 0.6 0.3
v 0.3 0.7 0.3
v 0.3 1.7 0.3
v 0.3 1.8 0.3
v 0.3 2.6 0.3
v 0.3 2.7 0.3
v -0.7 1.7 0.2
v -0.7 1.8 0.2
v -0.6 0.6 0.2
v -0.6 0.7 0.2
v -0.6 2.6 0.2
v -0.6 2.7 0.2
v -0.5 0 0.2
v -0.5 0.6 0.2
v -0.5 0.7 0.2
v -0.5 1.7 0.2
v -0.5 1.8 0.2
v -0.5 2.6 0.2
v -0.5 2.7 0.2
v -0.5 3.2 0.2
v -0.4 0 0.2
v -0.4 0.6 0.2
v -0.4 0.7 0.2
v -0.4 1.7 0.2
v -0.4 1.8 0.2
v -0.4 2.6 0.2
v -0.4 2.7 0.2
v -0.4 3.2 0.2
v 0.2 0 0.2
v 0.2 0.6 0.2
v 0.2 0.7 0.2
v 0.2 1.7 0.2
v 0.2 1.8 0.2
v 0.2 2.6 0.2
v 0.2 2.7 0.2
v 0.2 3.2 0.2
v 0.3 0 0.2
v 0.3 0.6 0.2
v 0.3 0.7 0.2
v 0.3 1.7 0.2
v 0.3 1.8 0.2
v 0.3 2.6 0.2
v 0.3 2.7 0.2
v 0.3 3.2 0.2
v 0.4 0.6 0.2
v 0.4 0.7 0.2
v 0.4 1.7 0.2
v 0.4 1.8 0.2
v 0.4 2.6 0.2
v 0.4 2.7 0.2
v -0.7 0.6 0.0999999
v -0.7 0.7 0.0999999
v -0.7 2.6 0.0999999
v -0.7 2.7 0.0999999
v -0.6 0 0.0999999
v -0.6 0.6 0.0999999
v -0.6 0.7 0.0999999
v -0.6 1.7 0.0999999
v -0.6 1.8 0.0999999
v -0.6 2.6 0.0999999
v -0.6 2.7 0.0999999
v -0.6 3.2 0.0999999
v -0.5 0 0.0999999
v -0.5 0.6 0.0999999
v -0.5 0.7 0.0999999
v -0.5 1.7 0.0999999
v -0.5 1.8 0.0999999
v -0.5 2.6 0.0999999
v -0.5 2.7 0.0999999
v -0.5 3.2 0.0999999
v 0.3 0 0.0999999
v 0.3 0.6 0.0999999
v 0.3 0.7 0.0999999
v 0.3 1.7 0.0999999
v 0.3 1.8 0.0999999
v 0.3 2.6 0.0999999
v 0.3 2.7 0.0999999
v 0.3 3.2 0.0999999
v 0.4 0 0.0999999
v 0.4 0.6 0.0999999
v 0.4 0.7 0.0999999
v 0.4 1.7 0.0999999
v 0.4 1.8 0.0999999
v 0.4 2.6 0.0999999
v 0.4 2.7 0.0999999
v 0.4 3.2 0.0999999
v 0.5 0.6 0.0999999
v 0.5 0.7 0.0999999
v 0.5 1.7 0.0999999
v 0.5 1.8 0.0999999
v 0.5 2.6 0.0999999
v 0.5 2.7 0.0999999
v -2.3 3.1 -5.96046e-008
v -2.3 3.2 -5.96046e-008
v -2.2 3 -5.96046e-008
v -2.2 3.1 -5.96046e-008
v -2.2 3.2 -5.96046e-008
v -2.2 3.3 -5.96046e-008
v -2.1 2.9 -5.96046e-008
v -2.1 3 -5.96046e-008
v -2.1 3.1 -5.96046e-008
v -2.1 3.2 -5.96046e-008
v -2.1 3.3 -5.96046e-008
v -2.1 3.4 -5.96046e-008
v -2 2.8 -5.96046e-008
v -2 2.9 -5.96046e-008
v -2 3 -5.96046e-008
v -2 3.1 -5.96046e-008
v -2 3.2 -5.96046e-008
v -2 3.4 -5.96046e-008
v -2 3.5 -5.96046e-008
v -1.9 2.7 -5.96046e-008
v -1.9 2.8 -5.96046e-008
v -1.9 2.9 -5.96046e-008
v -1.9 3 -5.96046e-008
v -1.9 3.1 -5.96046e-008
v -1.9 3.2 -5.96046e-008
v -1.9 3.3 -5.96046e-008
v -1.9 3.4 -5.96046e-008
v -1.9 3.5 -5.96046e-008
v -1.9 3.6 -5.96046e-008
v -1.8 2.6 -5.96046e-008
v -1.8 2.7 -5.96046e-008
v -1.8 2.8 -5.96046e-008
v -1.8 2.9 -5.96046e-008
v -1.8 3 -5.96046e-008
v -1.8 3.1 -5.96046e-008
v -1.8 3.2 -5.96046e-008
v -1.8 3.3 -5.96046e-008
v -1.8 3.4 -5.96046e-008
v -1.8 3.5 -5.96046e-008
v -1.8 3.6 -5.96046e-008
v -1.8 3.7 -5.96046e-008
v -1.7 2.4 -5.96046e-008
v -1.7 2.5 -5.96046e-008
v -1.7 2.6 -5.96046e-008
v -1.7 2.7 -5.96046e-008
v -1.7 2.8 -5.96046e-008
v -1.7 2.9 -5.96046e-008
v -1.7 3 -5.96046e-008
v -1.7 3.1 -5.96046e-008
v -1.7 3.2 -5.96046e-008
v -1.7 3.3 -5.96046e-008
v -1.7 3.4 -5.96046e-008
v -1.7 3.5 -5.96046e-008
v -1.7 3.6 -5.96046e-008
v -1.7 3.7 -5.96046e-008
v -1.6 2.3 -5.96046e-008
v -1.6 2.4 -5.96046e-008
v -1.6 2.5 -5.96046e-008
v -1.6 2.6 -5.96046e-008
v -1.6 2.7 -5.96046e-008
v -1.6 2.8 -5.96046e-008
v -1.6 2.9 -5.96046e-008
v -1.6 3 -5.96046e-008
v -1.6 3.1 -5.96046e-008
v -1.6 3.2 -5.96046e-008
v -1.6 3.3 -5.96046e-008
v -1.6 3.4 -5.96046e-008
v -1.6 3.5 -5.96046e-008
v -1.6 3.6 -5.96046e-008
v -1.5 2.3 -5.96046e-008
v -1.5 2.4 -5.96046e-008
v -1.5 2.5 -5.96046e-008
v -1.5 2.6 -5.96046e-008
v -1.5 2.8 -5.96046e-008
v -1.5 2.9 -5.96046e-008
v -1.5 3 -5.96046e-008
v -1.5 3.1 -5.96046e-008
v -1.5 3.2 -5.96046e-008
v -1.5 3.3 -5.96046e-008
v -1.5 3.4 -5.96046e-008
v -1.5 3.5 -5.96046e-008
v -1.4 2.2 -5.96046e-008
v -1.4 2.3 -5.96046e-008
v -1.4 2.4 -5.96046e-008
v -1.4 2.5 -5.96046e-008
v -1.4 2.6 -5.96046e-008
v -1.4 2.7 -5.96046e-008
v -1.4 2.9 -5.96046e-008
v -1.4 3 -5.96046e-008
v -1.4 3.1 -5.96046e-008
v -1.4 3.2 -5.96046e-008
v -1.4 3.3 -5.96046e-008
v -1.4 3.4 -5.96046e-008
v -1.3 2.2 -5.96046e-008
v -1.3 2.3 -5.96046e-008
v -1.3 2.4 -5.96046e-008
v -1.3 2.5 -5.96046e-008
v -1.3 2.6 -5.96046e-008
v -1.3 2.7 -5.96046e-008
v -1.3 3 -5.96046e-008
v -1.3 3.1 -5.96046e-008
v -1.3 3.2 -5.96046e-008
v -1.3 3.3 -5.96046e-008
v -1.2 2.2 -5.96046e-008
v -1.2 2.3 -5.96046e-008
v -1.2 2.5 -5.96046e-008
v -1.2 2.6 -5.96046e-008
v -1.2 2.7 -5.96046e-008
v -1.2 3.1 -5.96046e-008
v -1.2 3.2 -5.96046e-008
v -1.2 3.4 -5.96046e-008
v -1.1 2.2 -5.96046e-008
v -1.1 3.4 -5.96046e-008
v -1.1 3.5 -5.96046e-008
v -0.5 3.2 -5.96046e-008
v -0.5 3.4 -5.96046e-008
v -0.5 3.5 -5.96046e-008
v -0.4 3.2 -5.96046e-008
v -0.4 3.4 -5.96046e-008
v -0.4 2.9 -0.1
v -0.4 3.2 -0.1
v -0.3 2.9 -0.1
v -0.3 3.2 -0.1
v 0.0999999 2.9 -0.1
v 0.0999999 3.2 -0.1
v 0.3 2.9 -0.1
v 0.3 3.2 -0.1
v -0.3 2.9 -0.3
v -0.3 3.2 -0.3
v -0.2 3.1 -0.3
v -0.2 3.2 -0.3
v 0 3.1 -0.3
v 0 3.2 -0.3
v 0.0999999 2.9 -0.3
v 0.0999999 3.2 -0.3
v -0.2 3.1 -0.4
v -0.2 3.2 -0.4
v 0 3.1 -0.4
v 0 3.2 -0.4
v -0.2 2.9 0.4
v -0.2 3.2 0.4
v 0 2.9 0.4
v 0 3.2 0.4
v -0.3 2.9 0.3
v -0.3 3.2 0.3
v -0.2 2.9 0.3
v -0.2 3.2 0.3
v 0 2.9 0.3
v 0 3.2 0.3
v 0.0999999 2.9 0.3
v 0.0999999 3.2 0.3
v -0.4 2.9 0.2
v -0.4 3.2 0.2
v -0.3 2.9 0.2
v -0.3 3.2 0.2
v 0.0999999 2.9 0.2
v 0.0999999 3.2 0.2
v 0.2 2.9 0.2
v 0.2 3.2 0.2
v 0.2 2.9 0.0999999
v 0.2 3.2 0.0999999
v 0.3 2.9 0.0999999
v 0.3 3.2 0.0999999
v -2.3 3.1 -0.1
v -2.3 3.2 -0.1
v -2.2 3 -0.1
v -2.2 3.1 -0.1
v -2.2 3.2 -0.1
v -2.2 3.3 -0.1
v -2.1 2.9 -0.1
v -2.1 3 -0.1
v -2.1 3.1 -0.1
v -2.1 3.2 -0.1
v -2.1 3.3 -0.1
v -2.1 3.4 -0.1
v -2 2.8 -0.1
v -2 2.9 -0.1
v -2 3 -0.1
v -2 3.1 -0.1
v -2 3.2 -0.1
v -2 3.4 -0.1
v -2 3.5 -0.1
v -1.9 2.7 -0.1
v -1.9 2.8 -0.1
v -1.9 2.9 -0.1
v -1.9 3 -0.1
v -1.9 3.1 -0.1
v -1.9 3.2 -0.1
v -1.9 3.3 -0.1
v -1.9 3.4 -0.1
v -1.9 3.5 -0.1
v -1.9 3.6 -0.1
v -1.8 2.6 -0.1
v -1.8 2.7 -0.1
v -1.8 2.8 -0.1
v -1.8 2.9 -0.1
v -1.8 3 -0.1
v -1.8 3.1 -0.1
v -1.8 3.2 -0.1
v -1.8 3.3 -0.1
v -1.8 3.4 -0.1
v -1.8 3.5 -0.1
v -1.8 3.6 -0.1
v -1.8 3.7 -0.1
v -1.7 2.4 -0.1
v -1.7 2.5 -0.1
v -1.7 2.6 -0.1
v -1.7 2.7 -0.1
v -1.7 2.8 -0.1
v -1.7 2.9 -0.1
v -1.7 3 -0.1
v -1.7 3.1 -0.1
v -1.7 3.2 -0.1
v -1.7 3.3 -0.1
v -1.7 3.4 -0.1
v -1.7 3.5 -0.1
v -1.7 3.6 -0.1
v -1.7 3.7 -0.1
v -1.6 2.3 -0.1
v -1.6 2.4 -0.1
v -1.6 2.5 -0.1
v -1.6 2.6 -0.1
v -1.6 2.7 -0.1
v -1.6 2.8 -0.1
v -1.6 2.9 -0.1
v -1.6 3 -0.1
v -1.6 3.1 -0.1
v -1.6 3.2 -0.1
v -1.6 3.3 -0.1
v -1.6 3.4 -0.1
v -1.6 3.5 -0.1
v -1.6 3.6 -0.1
v -1.5 2.3 -0.1
v -1.5 2.4 -0.1
v -1.5 2.5 -0.1
v -1.5 2.6 -0.1
v -1.5 2.8 -0.1
v -1.5 2.9 -0.1
v -1.5 3 -0.1
v -1.5 3.1 -0.1
v -1.5 3.2 -0.1
v -1.5 3.3 -0.1
v -1.5 3.4 -0.1
v -1.5 3.5 -0.1
v -1.4 2.2 -0.1
v -1.4 2.3 -0.1
v -1.4 2.4 -0.1
v -1.4 2.5 -0.1
v -1.4 2.6 -0.1
v -1.4 2.7 -0.1
v -1.4 2.9 -0.1
v -1.4 3 -0.1
v -1.4 3.1 -0.1
v -1.4 3.2 -0.1
v -1.4 3.3 -0.1
v -1.4 3.4 -0.1
v -1.3 2.2 -0.1
v -1.3 2.3 -0.1
v -1.3 2.4 -0.1
v -1.3 2.5 -0.1
v -1.3 2.6 -0.1
v -1.3 2.7 -0.1
v -1.3 3 -0.1
v -1.3 3.1 -0.1
v -1.3 3.2 -0.1
v -1.3 3.3 -0.1
v -1.2 2.2 -0.1
v -1.2 2.3 -0.1
v -1.2 2.5 -0.1
v -1.2 2.6 -0.1
v -1.2 2.7 -0.1
v -1.2 3.1 -0.1
v -1.2 3.2 -0.1
v -1.2 3.4 -0.1
v -1.1 2.2 -0.1
v -1.1 3.4 -0.1
v -1.1 3.5 -0.1
v -0.7 0.6 -0.1
v -0.7 0.7 -0.1
v -0.7 1.7 -0.1
v -0.7 1.8 -0.1
v -0.7 2.6 -0.1
v -0.7 2.7 -0.1
v -0.6 0 -0.1
v -0.6 0.6 -0.1
v -0.6 0.7 -0.1
v -0.6 1.7 -0.1
v -0.6 1.8 -0.1
v -0.6 2.6 -0.1
v -0.6 2.7 -0.1
v -0.6 3.2 -0.1
v -0.5 0 -0.1
v -0.5 0.6 -0.1
v -0.5 0.7 -0.1
v -0.5 1.7 -0.1
v -0.5 1.8 -0.1
v -0.5 2.6 -0.1
v -0.5 2.7 -0.1
v -0.5 3.2 -0.1
v -0.5 3.4 -0.1
v -0.5 3.5 -0.1
v -0.4 3.2 -0.1
v -0.4 3.4 -0.1
v 0.3 0 -0.1
v 0.3 0.6 -0.1
v 0.3 0.7 -0.1
v 0.3 1.7 -0.1
v 0.3 1.8 -0.1
v 0.3 2.6 -0.1
v 0.3 2.7 -0.1
v 0.3 3.2 -0.1
v 0.4 0 -0.1
v 0.4 0.6 -0.1
v 0.4 0.7 -0.1
v 0.4 1.7 -0.1
v 0.4 1.8 -0.1
v 0.4 2.6 -0.1
v 0.4 2.7 -0.1
v 0.4 3.2 -0.1
v 0.5 0.6 -0.1
v 0.5 0.7 -0.1
v 0.5 1.7 -0.1
v 0.5 1.8 -0.1
v 0.5 2.6 -0.1
v 0.5 2.7 -0.1
v -0.6 0.6 -0.2
v -0.6 0.7 -0.2
v -0.6 1.7 -0.2
v -0.6 1.8 -0.2
v -0.6 2.6 -0.2
v -0.6 2.7 -0.2
v -0.5 0 -0.2
v -0.5 0.6 -0.2
v -0.5 0.7 -0.2
v -0.5 1.7 -0.2
v -0.5 1.8 -0.2
v -0.5 2.6 -0.2
v -0.5 2.7 -0.2
v -0.5 3.2 -0.2
v -0.4 0 -0.2
v -0.4 0.6 -0.2
v -0.4 0.7 -0.2
v -0.4 1.7 -0.2
v -0.4 1.8 -0.2
v -0.4 2.6 -0.2
v -0.4 2.7 -0.2
v -0.4 3.2 -0.2
v 0.2 0 -0.2
v 0.2 0.6 -0.2
v 0.2 0.7 -0.2
v 0.2 1.7 -0.2
v 0.2 1.8 -0.2
v 0.2 2.6 -0.2
v 0.2 2.7 -0.2
v 0.2 3.2 -0.2
v 0.3 0 -0.2
v 0.3 0.6 -0.2
v 0.3 0.7 -0.2
v 0.3 1.7 -0.2
v 0.3 1.8 -0.2
v 0.3 2.6 -0.2
v 0.3 2.7 -0.2
v 0.3 3.2 -0.2
v 0.4 0.6 -0.2
v 0.4 0.7 -0.2
v 0.4 1.7 -0.2
v 0.4 1.8 -0.2
v 0.4 2.6 -0.2
v 0.4 2.7 -0.2
v -0.5 0.6 -0.3
v -0.5 0.7 -0.3
v -0.5 1.7 -0.3
v -0.5 1.8 -0.3
v -0.5 2.6 -0.3
v -0.5 2.7 -0.3
v -0.4 0 -0.3
v -0.4 0.6 -0.3
v -0.4 0.7 -0.3
v -0.4 1.7 -0.3
v -0.4 1.8 -0.3
v -0.4 2.6 -0.3
v -0.4 2.7 -0.3
v -0.4 3.2 -0.3
v -0.3 0 -0.3
v -0.3 0.6 -0.3
v -0.3 0.7 -0.3
v -0.3 1.7 -0.3
v -0.3 1.8 -0.3
v -0.3 2.6 -0.3
v -0.3 2.7 -0.3
v -0.3 3.2 -0.3
v 0.0999999 0 -0.3
v 0.0999999 0.6 -0.3
v 0.0999999 0.7 -0.3
v 0.0999999 1.7 -0.3
v 0.0999999 1.8 -0.3
v 0.0999999 2.6 -0.3
v 0.0999999 2.7 -0.3
v 0.0999999 3.2 -0.3
v 0.2 0 -0.3
v 0.2 0.6 -0.3
v 0.2 0.7 -0.3
v 0.2 1.7 -0.3
v 0.2 1.8 -0.3
v 0.2 2.6 -0.3
v 0.2 2.7 -0.3
v 0.2 3.2 -0.3
v 0.3 0.6 -0.3
v 0.3 0.7 -0.3
v 0.3 1.7 -0.3
v 0.3 1.8 -0.3
v 0.3 2.6 -0.3
v 0.3 2.7 -0.3
v -0.4 0.6 -0.4
v -0.4 0.7 -0.4
v -0.4 1.7 -0.4
v -0.4 1.8 -0.4
v -0.4 2.6 -0.4
v -0.4 2.7 -0.4
v -0.3 0 -0.4
v -0.3 0.6 -0.4
v -0.3 0.7 -0.4
v -0.3 1.7 -0.4
v -0.3 1.8 -0.4
v -0.3 2.6 -0.4
v -0.3 2.7 -0.4
v -0.3 3.2 -0.4
v -0.2 0 -0.4
v -0.2 0.6 -0.4
v -0.2 0.7 -0.4
v -0.2 1.7 -0.4
v -0.2 1.8 -0.4
v -0.2 2.6 -0.4
v -0.2 2.7 -0.4
v -0.2 3.2 -0.4
v 0 0 -0.4
v 0 0.6 -0.4
v 0 0.7 -0.4
v 0 1.7 -0.4
v 0 1.8 -0.4
v 0 2.6 -0.4
v 0 2.7 -0.4
v 0 3.2 -0.4
v 0.0999999 0 -0.4
v 0.0999999 0.6 -0.4
v 0.0999999 0.7 -0.4
v 0.0999999 1.7 -0.4
v 0.0999999 1.8 -0.4
v 0.0999999 2.6 -0.4
v 0.0999999 2.7 -0.4
v 0.0999999 3.2 -0.4
v 0.2 0.6 -0.4
v 0.2 0.7 -0.4
v 0.2 1.7 -0.4
v 0.2 1.8 -0.4
v 0.2 2.6 -0.4
v 0.2 2.7 -0.4
v -0.3 0.6 -0.5
v -0.3 0.7 -0.5
v -0.3 1.7 -0.5
v -0.3 1.8 -0.5
v -0.3 2.6 -0.5
v -0.3 2.7 -0.5
v -0.2 0 -0.5
v -0.2 0.6 -0.5
v -0.2 0.7 -0.5
v -0.2 1.7 -0.5
v -0.2 1.8 -0.5
v -0.2 2.6 -0.5
v -0.2 2.7 -0.5
v -0.2 3.2 -0.5
v 0 0 -0.5
v 0 0.6 -0.5
v 0 0.7 -0.5
v 0 1.7 -0.5
v 0 1.8 -0.5
v 0 2.6 -0.5
v 0 2.7 -0.5
v 0 3.2 -0.5
v 0.0999999 0.6 -0.5
v 0.0999999 0.7 -0.5
v 0.0999999 1.7 -0.5
v 0.0999999 1.8 -0.5
v 0.0999999 2.6 -0.5
v 0.0999999 2.7 -0.5
v -0.2 0.6 -0.6
v -0.2 0.7 -0.6
v -0.2 1.7 -0.6
v -0.2 1.8 -0.6
v -0.2 2.6 -0.6
v -0.2 2.7 -0.6
v 0 0.6 -0.6
v 0 0.7 -0.6
v 0 1.7 -0.6
v 0 1.8 -0.6
v 0 2.6 -0.6
v 0 2.7 -0.6
v -0.2 0 0.5
v 0 0 0.5
v -0.3 0 0.4
v -0.2 0 0.4
v 0 0 0.4
v 0.0999999 0 0.4
v -0.4 0 0.3
v -0.3 0 0.3
v 0.0999999 0 0.3
v 0.2 0 0.3
v -0.5 0 0.2
v -0.4 0 0.2
v 0.2 0 0.2
v 0.3 0 0.2
v -0.6 0 0.0999999
v -0.5 0 0.0999999
v 0.3 0 0.0999999
v 0.4 0 0.0999999
v -0.6 0 -0.1
v -0.5 0 -0.1
v 0.3 0 -0.1
v 0.4 0 -0.1
v -0.5 0 -0.2
v -0.4 0 -0.2
v 0.2 0 -0.2
v 0.3 0 -0.2
v -0.4 0 -0.3
v -0.3 0 -0.3
v 0.0999999 0 -0.3
v 0.2 0 -0.3
v -0.3 0 -0.4
v -0.2 0 -0.4
v 0 0 -0.4
v 0.0999999 0 -0.4
v -0.2 0 -0.5
v 0 0 -0.5
v -0.2 0.6 0.6
v 0 0.6 0.6
v -0.3 0.6 0.5
v -0.2 0.6 0.5
v 0 0.6 0.5
v 0.0999999 0.6 0.5
v -0.4 0.6 0.4
v -0.3 0.6 0.4
v -0.2 0.6 0.4
v 0 0.6 0.4
v 0.0999999 0.6 0.4
v 0.2 0.6 0.4
v -0.5 0.6 0.3
v -0.4 0.6 0.3
v -0.3 0.6 0.3
v 0.0999999 0.6 0.3
v 0.2 0.6 0.3
v 0.3 0.6 0.3
v -0.6 0.6 0.2
v -0.5 0.6 0.2
v -0.4 0.6 0.2
v 0.2 0.6 0.2
v 0.3 0.6 0.2
v 0.4 0.6 0.2
v -0.7 0.6 0.0999999
v -0.6 0.6 0.0999999
v -0.5 0.6 0.0999999
v 0.3 0.6 0.0999999
v 0.4 0.6 0.0999999
v 0.5 0.6 0.0999999
v -0.7 0.6 -0.1
v -0.6 0.6 -0.1
v -0.5 0.6 -0.1
v 0.3 0.6 -0.1
v 0.4 0.6 -0.1
v 0.5 0.6 -0.1
v -0.6 0.6 -0.2
v -0.5 0.6 -0.2
v -0.4 0.6 -0.2
v 0.2 0.6 -0.2
v 0.3 0.6 -0.2
v 0.4 0.6 -0.2
v -0.5 0.6 -0.3
v -0.4 0.6 -0.3
v -0.3 0.6 -0.3
v 0.0999999 0.6 -0.3
v 0.2 0.6 -0.3
v 0.3 0.6 -0.3
v -0.4 0.6 -0.4
v -0.3 0.6 -0.4
v -0.2 0.6 -0.4
v 0 0.6 -0.4
v 0.0999999 0.6 -0.4
v 0.2 0.6 -0.4
v -0.3 0.6 -0.5
v -0.2 0.6 -0.5
v 0 0.6 -0.5
v 0.0999999 0.6 -0.5
v -0.2 0.6 -0.6
v 0 0.6 -0.6
v -0.2 1.7 0.6
v 0 1.7 0.6
v -0.3 1.7 0.5
v -0.2 1.7 0.5
v 0 1.7 0.5
v 0.0999999 1.7 0.5
v -0.4 1.7 0.4
v -0.3 1.7 0.4
v -0.2 1.7 0.4
v 0 1.7 0.4
v 0.0999999 1.7 0.4
v 0.2 1.7 0.4
v -0.5 1.7 0.3
v -0.4 1.7 0.3
v -0.3 1.7 0.3
v 0.0999999 1.7 0.3
v 0.2 1.7 0.3
v 0.3 1.7 0.3
v -0.7 1.7 0.2
v -0.5 1.7 0.2
v -0.4 1.7 0.2
v 0.2 1.7 0.2
v 0.3 1.7 0.2
v 0.4 1.7 0.2
v -0.6 1.7 0.0999999
v -0.5 1.7 0.0999999
v 0.3 1.7 0.0999999
v 0.4 1.7 0.0999999
v 0.5 1.7 0.0999999
v -0.7 1.7 -0.1
v -0.6 1.7 -0.1
v -0.5 1.7 -0.1
v 0.3 1.7 -0.1
v 0.4 1.7 -0.1
v 0.5 1.7 -0.1
v -0.6 1.7 -0.2
v -0.5 1.7 -0.2
v -0.4 1.7 -0.2
v 0.2 1.7 -0.2
v 0.3 1.7 -0.2
v 0.4 1.7 -0.2
v -0.5 1.7 -0.3
v -0.4 1.7 -0.3
v -0.3 1.7 -0.3
v 0.0999999 1.7 -0.3
v 0.2 1.7 -0.3
v 0.3 1.7 -0.3
v -0.4 1.7 -0.4
v -0.3 1.7 -0.4
v -0.2 1.7 -0.4
v 0 1.7 -0.4
v 0.0999999 1.7 -0.4
v 0.2 1.7 -0.4
v -0.3 1.7 -0.5
v -0.2 1.7 -0.5
v 0 1.7 -0.5
v 0.0999999 1.7 -0.5
v -0.2 1.7 -0.6
v 0 1.7 -0.6
v -1.4 2.2 -5.96046e-008
v -1.3 2.2 -5.96046e-008
v -1.2 2.2 -5.96046e-008
v -1.1 2.2 -5.96046e-008
v -1.4 2.2 -0.1
v -1.3 2.2 -0.1
v -1.2 2.2 -0.1
v -1.1 2.2 -0.1
v -1.6 2.3 -5.96046e-008
v -1.5 2.3 -5.96046e-008
v -1.4 2.3 -5.96046e-008
v -1.6 2.3 -0.1
v -1.5 2.3 -0.1
v -1.4 2.3 -0.1
v -1.7 2.4 -5.96046e-008
v -1.6 2.4 -5.96046e-008
v -1.7 2.4 -0.1
v -1.6 2.4 -0.1
v -0.2 2.6 0.6
v 0 2.6 0.6
v -0.3 2.6 0.5
v -0.2 2.6 0.5
v 0 2.6 0.5
v 0.0999999 2.6 0.5
v -0.4 2.6 0.4
v -0.3 2.6 0.4
v -0.2 2.6 0.4
v 0 2.6 0.4
v 0.0999999 2.6 0.4
v 0.2 2.6 0.4
v -0.5 2.6 0.3
v -0.4 2.6 0.3
v -0.3 2.6 0.3
v 0.0999999 2.6 0.3
v 0.2 2.6 0.3
v 0.3 2.6 0.3
v -0.6 2.6 0.2
v -0.5 2.6 0.2
v -0.4 2.6 0.2
v 0.2 2.6 0.2
v 0.3 2.6 0.2
v 0.4 2.6 0.2
v -0.7 2.6 0.0999999
v -0.6 2.6 0.0999999
v -0.5 2.6 0.0999999
v 0.3 2.6 0.0999999
v 0.4 2.6 0.0999999
v 0.5 2.6 0.0999999
v -1.8 2.6 -5.96046e-008
v -1.7 2.6 -5.96046e-008
v -1.8 2.6 -0.1
v -1.7 2.6 -0.1
v -0.7 2.6 -0.1
v -0.6 2.6 -0.1
v -0.5 2.6 -0.1
v 0.3 2.6 -0.1
v 0.4 2.6 -0.1
v 0.5 2.6 -0.1
v -0.6 2.6 -0.2
v -0.5 2.6 -0.2
v -0.4 2.6 -0.2
v 0.2 2.6 -0.2
v 0.3 2.6 -0.2
v 0.4 2.6 -0.2
v -0.5 2.6 -0.3
v -0.4 2.6 -0.3
v -0.3 2.6 -0.3
v 0.0999999 2.6 -0.3
v 0.2 2.6 -0.3
v 0.3 2.6 -0.3
v -0.4 2.6 -0.4
v -0.3 2.6 -0.4
v -0.2 2.6 -0.4
v 0 2.6 -0.4
v 0.0999999 2.6 -0.4
v 0.2 2.6 -0.4
v -0.3 2.6 -0.5
v -0.2 2.6 -0.5
v 0 2.6 -0.5
v 0.0999999 2.6 -0.5
v -0.2 2.6 -0.6
v 0 2.6 -0.6
v -1.9 2.7 -5.96046e-008
v -1.8 2.7 -5.96046e-008
v -1.7 2.7 -5.96046e-008
v -1.6 2.7 -5.96046e-008
v -1.9 2.7 -0.1
v -1.8 2.7 -0.1
v -1.7 2.7 -0.1
v -1.6 2.7 -0.1
v -2 2.8 -5.96046e-008
v -1.9 2.8 -5.96046e-008
v -1.6 2.8 -5.96046e-008
v -1.5 2.8 -5.96046e-008
v -2 2.8 -0.1
v -1.9 2.8 -0.1
v -1.6 2.8 -0.1
v -1.5 2.8 -0.1
v -2.1 2.9 -5.96046e-008
v -2 2.9 -5.96046e-008
v -1.5 2.9 -5.96046e-008
v -1.4 2.9 -5.96046e-008
v -2.1 2.9 -0.1
v -2 2.9 -0.1
v -1.5 2.9 -0.1
v -1.4 2.9 -0.1
v -2.2 3 -5.96046e-008
v -2.1 3 -5.96046e-008
v -1.4 3 -5.96046e-008
v -1.3 3 -5.96046e-008
v -2.2 3 -0.1
v -2.1 3 -0.1
v -1.4 3 -0.1
v -1.3 3 -0.1
v -2.3 3.1 -5.96046e-008
v -2.2 3.1 -5.96046e-008
v -1.3 3.1 -5.96046e-008
v -1.2 3.1 -5.96046e-008
v -2.3 3.1 -0.1
v -2.2 3.1 -0.1
v -1.3 3.1 -0.1
v -1.2 3.1 -0.1
v -1.1 3.4 -5.96046e-008
v -0.5 3.4 -5.96046e-008
v -1.1 3.4 -0.1
v -0.5 3.4 -0.1
v -0.2 0.7 0.6
v 0 0.7 0.6
v -0.3 0.7 0.5
v -0.2 0.7 0.5
v 0 0.7 0.5
v 0.0999999 0.7 0.5
v -0.4 0.7 0.4
v -0.3 0.7 0.4
v -0.2 0.7 0.4
v 0 0.7 0.4
v 0.0999999 0.7 0.4
v 0.2 0.7 0.4
v -0.5 0.7 0.3
v -0.4 0.7 0.3
v -0.3 0.7 0.3
v 0.0999999 0.7 0.3
v 0.2 0.7 0.3
v 0.3 0.7 0.3
v -0.6 0.7 0.2
v -0.5 0.7 0.2
v -0.4 0.7 0.2
v 0.2 0.7 0.2
v 0.3 0.7 0.2
v 0.4 0.7 0.2
v -0.7 0.7 0.0999999
v -0.6 0.7 0.0999999
v -0.5 0.7 0.0999999
v 0.3 0.7 0.0999999
v 0.4 0.7 0.0999999
v 0.5 0.7 0.0999999
v -0.7 0.7 -0.1
v -0.6 0.7 -0.1
v -0.5 0.7 -0.1
v 0.3 0.7 -0.1
v 0.4 0.7 -0.1
v 0.5 0.7 -0.1
v -0.6 0.7 -0.2
v -0.5 0.7 -0.2
v -0.4 0.7 -0.2
v 0.2 0.7 -0.2
v 0.3 0.7 -0.2
v 0.4 0.7 -0.2
v -0.5 0.7 -0.3
v -0.4 0.7 -0.3
v -0.3 0.7 -0.3
v 0.0999999 0.7 -0.3
v 0.2 0.7 -0.3
v 0.3 0.7 -0.3
v -0.4 0.7 -0.4
v -0.3 0.7 -0.4
v -0.2 0.7 -0.4
v 0 0.7 -0.4
v 0.0999999 0.7 -0.4
v 0.2 0.7 -0.4
v -0.3 0.7 -0.5
v -0.2 0.7 -0.5
v 0 0.7 -0.5
v 0.0999999 0.7 -0.5
v -0.2 0.7 -0.6
v 0 0.7 -0.6
v -0.2 1.8 0.6
v 0 1.8 0.6
v -0.3 1.8 0.5
v -0.2 1.8 0.5
v 0 1.8 0.5
v 0.0999999 1.8 0.5
v -0.4 1.8 0.4
v -0.3 1.8 0.4
v -0.2 1.8 0.4
v 0 1.8 0.4
v 0.0999999 1.8 0.4
v 0.2 1.8 0.4
v -0.5 1.8 0.3
v -0.4 1.8 0.3
v -0.3 1.8 0.3
v 0.0999999 1.8 0.3
v 0.2 1.8 0.3
v 0.3 1.8 0.3
v -0.7 1.8 0.2
v -0.5 1.8 0.2
v -0.4 1.8 0.2
v 0.2 1.8 0.2
v 0.3 1.8 0.2
v 0.4 1.8 0.2
v -0.6 1.8 0.0999999
v -0.5 1.8 0.0999999
v 0.3 1.8 0.0999999
v 0.4 1.8 0.0999999
v 0.5 1.8 0.0999999
v -0.7 1.8 -0.1
v -0.6 1.8 -0.1
v -0.5 1.8 -0.1
v 0.3 1.8 -0.1
v 0.4 1.8 -0.1
v 0.5 1.8 -0.1
v -0.6 1.8 -0.2
v -0.5 1.8 -0.2
v -0.4 1.8 -0.2
v 0.2 1.8 -0.2
v 0.3 1.8 -0.2
v 0.4 1.8 -0.2
v -0.5 1.8 -0.3
v -0.4 1.8 -0.3
v -0.3 1.8 -0.3
v 0.0999999 1.8 -0.3
v 0.2 1.8 -0.3
v 0.3 1.8 -0.3
v -0.4 1.8 -0.4
v -0.3 1.8 -0.4
v -0.2 1.8 -0.4
v 0 1.8 -0.4
v 0.0999999 1.8 -0.4
v 0.2 1.8 -0.4
v -0.3 1.8 -0.5
v -0.2 1.8 -0.5
v 0 1.8 -0.5
v 0.0999999 1.8 -0.5
v -0.2 1.8 -0.6
v 0 1.8 -0.6
v -1.7 2.5 -5.96046e-008
v -1.6 2.5 -5.96046e-008
v -1.7 2.5 -0.1
v -1.6 2.5 -0.1
v -1.6 2.6 -5.96046e-008
v -1.5 2.6 -5.96046e-008
v -1.4 2.6 -5.96046e-008
v -1.6 2.6 -0.1
v -1.5 2.6 -0.1
v -1.4 2.6 -0.1
v -0.2 2.7 0.6
v 0 2.7 0.6
v -0.3 2.7 0.5
v -0.2 2.7 0.5
v 0 2.7 0.5
v 0.0999999 2.7 0.5
v -0.4 2.7 0.4
v -0.3 2.7 0.4
v -0.2 2.7 0.4
v 0 2.7 0.4
v 0.0999999 2.7 0.4
v 0.2 2.7 0.4
v -0.5 2.7 0.3
v -0.4 2.7 0.3
v -0.3 2.7 0.3
v 0.0999999 2.7 0.3
v 0.2 2.7 0.3
v 0.3 2.7 0.3
v -0.6 2.7 0.2
v -0.5 2.7 0.2
v -0.4 2.7 0.2
v 0.2 2.7 0.2
v 0.3 2.7 0.2
v 0.4 2.7 0.2
v -0.7 2.7 0.0999999
v -0.6 2.7 0.0999999
v -0.5 2.7 0.0999999
v 0.3 2.7 0.0999999
v 0.4 2.7 0.0999999
v 0.5 2.7 0.0999999
v -1.4 2.7 -5.96046e-008
v -1.3 2.7 -5.96046e-008
v -1.2 2.7 -5.96046e-008
v -1.4 2.7 -0.1
v -1.3 2.7 -0.1
v -1.2 2.7 -0.1
v -0.7 2.7 -0.1
v -0.6 2.7 -0.1
v -0.5 2.7 -0.1
v 0.3 2.7 -0.1
v 0.4 2.7 -0.1
v 0.5 2.7 -0.1
v -0.6 2.7 -0.2
v -0.5 2.7 -0.2
v -0.4 2.7 -0.2
v 0.2 2.7 -0.2
v 0.3 2.7 -0.2
v 0.4 2.7 -0.2
v -0.5 2.7 -0.3
v -0.4 2.7 -0.3
v -0.3 2.7 -0.3
v 0.0999999 2.7 -0.3
v 0.2 2.7 -0.3
v 0.3 2.7 -0.3
v -0.4 2.7 -0.4
v -0.3 2.7 -0.4
v -0.2 2.7 -0.4
v 0 2.7 -0.4
v 0.0999999 2.7 -0.4
v 0.2 2.7 -0.4
v -0.3 2.7 -0.5
v -0.2 2.7 -0.5
v 0 2.7 -0.5
v 0.0999999 2.7 -0.5
v -0.2 2.7 -0.6
v 0 2.7 -0.6
v -0.2 2.9 0.4
v 0 2.9 0.4
v -0.3 2.9 0.3
v -0.2 2.9 0.3
v 0 2.9 0.3
v 0.0999999 2.9 0.3
v -0.4 2.9 0.2
v -0.3 2.9 0.2
v 0.0999999 2.9 0.2
v 0.2 2.9 0.2
v 0.2 2.9 0.0999999
v 0.3 2.9 0.0999999
v -0.4 2.9 -0.1
v -0.3 2.9 -0.1
v 0.0999999 2.9 -0.1
v 0.3 2.9 -0.1
v -0.3 2.9 -0.3
v 0.0999999 2.9 -0.3
v -0.2 3.1 -0.3
v 0 3.1 -0.3
v -0.2 3.1 -0.4
v 0 3.1 -0.4
v -0.2 3.2 0.5
v 0 3.2 0.5
v -0.3 3.2 0.4
v -0.2 3.2 0.4
v 0 3.2 0.4
v 0.0999999 3.2 0.4
v -0.4 3.2 0.3
v -0.3 3.2 0.3
v -0.2 3.2 0.3
v 0 3.2 0.3
v 0.0999999 3.2 0.3
v 0.2 3.2 0.3
v -0.5 3.2 0.2
v -0.4 3.2 0.2
v -0.3 3.2 0.2
v 0.0999999 3.2 0.2
v 0.2 3.2 0.2
v 0.3 3.2 0.2
v -0.6 3.2 0.0999999
v -0.5 3.2 0.0999999
v 0.2 3.2 0.0999999
v 0.3 3.2 0.0999999
v 0.4 3.2 0.0999999
v -2.3 3.2 -5.96046e-008
v -2.2 3.2 -5.96046e-008
v -1.3 3.2 -5.96046e-008
v -1.2 3.2 -5.96046e-008
v -0.5 3.2 -5.96046e-008
v -0.4 3.2 -5.96046e-008
v -2.3 3.2 -0.1
v -2.2 3.2 -0.1
v -1.3 3.2 -0.1
v -1.2 3.2 -0.1
v -0.6 3.2 -0.1
v -0.5 3.2 -0.1
v -0.4 3.2 -0.1
v -0.3 3.2 -0.1
v 0.0999999 3.2 -0.1
v 0.3 3.2 -0.1
v 0.4 3.2 -0.1
v -0.5 3.2 -0.2
v -0.4 3.2 -0.2
v 0.2 3.2 -0.2
v 0.3 3.2 -0.2
v -0.4 3.2 -0.3
v -0.3 3.2 -0.3
v -0.2 3.2 -0.3
v 0 3.2 -0.3
v 0.0999999 3.2 -0.3
v 0.2 3.2 -0.3
v -0.3 3.2 -0.4
v -0.2 3.2 -0.4
v 0 3.2 -0.4
v 0.0999999 3.2 -0.4
v -0.2 3.2 -0.5
v 0 3.2 -0.5
v -2.2 3.3 -5.96046e-008
v -2.1 3.3 -5.96046e-008
v -1.4 3.3 -5.96046e-008
v -1.3 3.3 -5.96046e-008
v -2.2 3.3 -0.1
v -2.1 3.3 -0.1
v -1.4 3.3 -0.1
v -1.3 3.3 -0.1
v -2.1 3.4 -5.96046e-008
v -2 3.4 -5.96046e-008
v -1.5 3.4 -5.96046e-008
v -1.4 3.4 -5.96046e-008
v -1.2 3.4 -5.96046e-008
v -1.1 3.4 -5.96046e-008
v -0.5 3.4 -5.96046e-008
v -0.4 3.4 -5.96046e-008
v -2.1 3.4 -0.1
v -2 3.4 -0.1
v -1.5 3.4 -0.1
v -1.4 3.4 -0.1
v -1.2 3.4 -0.1
v -1.1 3.4 -0.1
v -0.5 3.4 -0.1
v -0.4 3.4 -0.1
v -2 3.5 -5.96046e-008
v -1.9 3.5 -5.96046e-008
v -1.6 3.5 -5.96046e-008
v -1.5 3.5 -5.96046e-008
v -1.1 3.5 -5.96046e-008
v -0.5 3.5 -5.96046e-008
v -2 3.5 -0.1
v -1.9 3.5 -0.1
v -1.6 3.5 -0.1
v -1.5 3.5 -0.1
v -1.1 3.5 -0.1
v -0.5 3.5 -0.1
v -1.9 3.6 -5.96046e-008
v -1.8 3.6 -5.96046e-008
v -1.7 3.6 -5.96046e-008
v -1.6 3.6 -5.96046e-008
v -1.9 3.6 -0.1
v -1.8 3.6 -0.1
v -1.7 3.6 -0.1
v -1.6 3.6 -0.1
v -1.8 3.7 -5.96046e-008
v -1.7 3.7 -5.96046e-008
v -1.8 3.7 -0.1
v -1.7 3.7 -0.1

# faces
f 3/2/1 2/2/1 1/2/1
f 4/2/1 2/2/1 3/2/1
f 7/2/1 6/2/1 5/2/1
f 8/2/1 6/2/1 7/2/1
f 11/2/1 10/2/1 9/2/1
f 12/2/1 10/2/1 11/2/1
f 15/2/1 14/2/1 13/2/1
f 16/2/1 14/2/1 15/2/1
f 19/2/1 18/2/1 17/2/1
f 20/2/1 18/2/1 19/2/1
f 23/2/1 22/2/1 21/2/1
f 24/2/1 22/2/1 23/2/1
f 27/2/1 26/2/1 25/2/1
f 28/2/1 26/2/1 27/2/1
f 31/2/1 30/2/1 29/2/1
f 32/2/1 30/2/1 31/2/1
f 35/2/1 34/2/1 33/2/1
f 36/2/1 34/2/1 35/2/1
f 39/2/1 38/2/1 37/2/1
f 40/2/1 38/2/1 39/2/1
f 43/2/1 42/2/1 41/2/1
f 44/2/1 42/2/1 43/2/1
f 47/3/1 46/3/1 45/3/1
f 48/3/1 46/3/1 47/3/1
f 51/3/1 50/3/1 49/3/1
f 52/3/1 50/3/1 51/3/1
f 55/3/1 54/3/1 53/3/1
f 56/3/1 54/3/1 55/3/1
f 59/3/1 58/3/1 57/3/1
f 60/3/1 58/3/1 59/3/1
f 63/2/1 62/2/1 61/2/1
f 64/2/1 62/2/1 63/2/1
f 67/2/1 66/2/1 65/2/1
f 68/2/1 66/2/1 67/2/1
f 71/2/1 70/2/1 69/2/1
f 72/2/1 70/2/1 71/2/1
f 75/2/1 74/2/1 73/2/1
f 76/2/1 74/2/1 75/2/1
f 79/1/1 78/1/1 77/1/1
f 80/1/1 78/1/1 79/1/1
f 83/1/1 82/1/1 81/1/1
f 84/1/1 82/1/1 83/1/1
f 87/1/1 86/1/1 85/1/1
f 88/1/1 86/1/1 87/1/1
f 92/3/1 90/3/1 89/3/1
f 93/3/1 90/3/1 92/3/1
f 95/1/1 92/1/1 91/1/1
f 96/1/1 92/1/1 95/1/1
f 97/1/1 94/1/1 93/1/1
f 98/1/1 94/1/1 97/1/1
f 99/3/1 97/3/1 96/3/1
f 100/3/1 97/3/1 99/3/1
f 103/1/1 101/1/1 100/1/1
f 104/1/1 101/1/1 103/1/1
f 106/3/1 103/3/1 102/3/1
f 107/3/1 103/3/1 106/3/1
f 109/1/1 106/1/1 105/1/1
f 110/1/1 106/1/1 109/1/1
f 111/1/1 108/1/1 107/1/1
f 112/1/1 108/1/1 111/1/1
f 113/3/1 111/3/1 110/3/1
f 114/3/1 111/3/1 113/3/1
f 120/3/1 116/3/1 115/3/1
f 121/3/1 116/3/1 120/3/1
f 122/3/1 118/3/1 117/3/1
f 123/3/1 118/3/1 122/3/1
f 125/1/1 120/1/1 119/1/1
f 126/1/1 120/1/1 125/1/1
f 129/1/1 124/1/1 123/1/1
f 130/1/1 124/1/1 129/1/1
f 132/3/1 127/3/1 126/3/1
f 133/3/1 127/3/1 132/3/1
f 134/3/1 129/3/1 128/3/1
f 135/3/1 129/3/1 134/3/1
f 137/1/1 132/1/1 131/1/1
f 138/1/1 132/1/1 137/1/1
f 141/1/1 136/1/1 135/1/1
f 142/1/1 136/1/1 141/1/1
f 144/3/1 139/3/1 138/3/1
f 145/3/1 139/3/1 144/3/1
f 146/3/1 141/3/1 140/3/1
f 147/3/1 141/3/1 146/3/1
f 149/1/1 144/1/1 143/1/1
f 150/1/1 144/1/1 149/1/1
f 153/1/1 148/1/1 147/1/1
f 154/1/1 148/1/1 153/1/1
f 155/3/1 151/3/1 150/3/1
f 156/3/1 151/3/1 155/3/1
f 158/3/1 153/3/1 152/3/1
f 159/3/1 153/3/1 158/3/1
f 160/2/1 158/2/1 157/2/1
f 161/2/1 158/2/1 160/2/1
f 167/3/1 163/3/1 162/3/1
f 168/3/1 163/3/1 167/3/1
f 169/3/1 165/3/1 164/3/1
f 170/3/1 165/3/1 169/3/1
f 172/1/1 167/1/1 166/1/1
f 173/1/1 167/1/1 172/1/1
f 176/1/1 171/1/1 170/1/1
f 177/1/1 171/1/1 176/1/1
f 179/3/1 174/3/1 173/3/1
f 180/3/1 174/3/1 179/3/1
f 181/3/1 176/3/1 175/3/1
f 182/3/1 176/3/1 181/3/1
f 184/1/1 179/1/1 178/1/1
f 185/1/1 179/1/1 184/1/1
f 188/1/1 183/1/1 182/1/1
f 189/1/1 183/1/1 188/1/1
f 191/3/1 186/3/1 185/3/1
f 192/3/1 186/3/1 191/3/1
f 193/3/1 188/3/1 187/3/1
f 194/3/1 188/3/1 193/3/1
f 196/1/1 191/1/1 190/1/1
f 197/1/1 191/1/1 196/1/1
f 200/1/1 195/1/1 194/1/1
f 201/1/1 195/1/1 200/1/1
f 202/3/1 198/3/1 197/3/1
f 203/3/1 198/3/1 202/3/1
f 204/3/1 200/3/1 199/3/1
f 205/3/1 200/3/1 204/3/1
f 211/3/1 207/3/1 206/3/1
f 212/3/1 207/3/1 211/3/1
f 213/3/1 209/3/1 208/3/1
f 214/3/1 209/3/1 213/3/1
f 216/1/1 211/1/1 210/1/1
f 217/1/1 211/1/1 216/1/1
f 220/1/1 215/1/1 214/1/1
f 221/1/1 215/1/1 220/1/1
f 223/3/1 218/3/1 217/3/1
f 224/3/1 218/3/1 223/3/1
f 225/3/1 220/3/1 219/3/1
f 226/3/1 220/3/1 225/3/1
f 228/1/1 223/1/1 222/1/1
f 229/1/1 223/1/1 228/1/1
f 232/1/1 227/1/1 226/1/1
f 233/1/1 227/1/1 232/1/1
f 235/3/1 230/3/1 229/3/1
f 236/3/1 230/3/1 235/3/1
f 237/3/1 232/3/1 231/3/1
f 238/3/1 232/3/1 237/3/1
f 240/1/1 235/1/1 234/1/1
f 241/1/1 235/1/1 240/1/1
f 244/1/1 239/1/1 238/1/1
f 245/1/1 239/1/1 244/1/1
f 246/3/1 242/3/1 241/3/1
f 247/3/1 242/3/1 246/3/1
f 248/3/1 244/3/1 243/3/1
f 249/3/1 244/3/1 248/3/1
f 255/3/1 251/3/1 250/3/1
f 256/3/1 251/3/1 255/3/1
f 257/3/1 253/3/1 252/3/1
f 258/3/1 253/3/1 257/3/1
f 260/1/1 255/1/1 254/1/1
f 261/1/1 255/1/1 260/1/1
f 264/1/1 259/1/1 258/1/1
f 265/1/1 259/1/1 264/1/1
f 267/3/1 262/3/1 261/3/1
f 268/3/1 262/3/1 267/3/1
f 269/3/1 264/3/1 263/3/1
f 270/3/1 264/3/1 269/3/1
f 272/1/1 267/1/1 266/1/1
f 273/1/1 267/1/1 272/1/1
f 276/1/1 271/1/1 270/1/1
f 277/1/1 271/1/1 276/1/1
f 279/3/1 274/3/1 273/3/1
f 280/3/1 274/3/1 279/3/1
f 281/3/1 276/3/1 275/3/1
f 282/3/1 276/3/1 281/3/1
f 284/1/1 279/1/1 278/1/1
f 285/1/1 279/1/1 284/1/1
f 288/1/1 283/1/1 282/1/1
f 289/1/1 283/1/1 288/1/1
f 290/3/1 286/3/1 285/3/1
f 291/3/1 286/3/1 290/3/1
f 292/3/1 288/3/1 287/3/1
f 293/3/1 288/3/1 292/3/1
f 298/3/1 295/3/1 294/3/1
f 299/3/1 295/3/1 298/3/1
f 300/3/1 297/3/1 296/3/1
f 301/3/1 297/3/1 300/3/1
f 306/3/1 303/3/1 302/3/1
f 307/3/1 303/3/1 306/3/1
f 308/3/1 305/3/1 304/3/1
f 309/3/1 305/3/1 308/3/1
f 312/3/1 311/3/1 310/3/1
f 313/3/1 311/3/1 312/3/1
f 316/3/1 315/3/1 314/3/1
f 317/3/1 315/3/1 316/3/1
f 318/2/2 319/2/2 320/2/2
f 320/2/2 319/2/2 321/2/2
f 322/2/2 323/2/2 324/2/2
f 324/2/2 323/2/2 325/2/2
f 326/2/2 327/2/2 328/2/2
f 328/2/2 327/2/2 329/2/2
f 330/2/2 331/2/2 332/2/2
f 332/2/2 331/2/2 333/2/2
f 334/2/2 335/2/2 336/2/2
f 336/2/2 335/2/2 337/2/2
f 338/2/2 339/2/2 340/2/2
f 340/2/2 339/2/2 341/2/2
f 342/2/2 343/2/2 344/2/2
f 344/2/2 343/2/2 345/2/2
f 346/2/2 347/2/2 348/2/2
f 348/2/2 347/2/2 349/2/2
f 350/2/2 351/2/2 352/2/2
f 352/2/2 351/2/2 353/2/2
f 354/2/2 355/2/2 356/2/2
f 356/2/2 355/2/2 357/2/2
f 358/2/2 359/2/2 360/2/2
f 360/2/2 359/2/2 361/2/2
f 362/2/2 363/2/2 364/2/2
f 364/2/2 363/2/2 365/2/2
f 366/3/2 367/3/2 368/3/2
f 368/3/2 367/3/2 369/3/2
f 369/3/2 367/3/2 370/3/2
f 369/2/2 370/2/2 371/2/2
f 371/2/2 370/2/2 372/2/2
f 373/3/2 374/3/2 377/3/2
f 377/3/2 374/3/2 378/3/2
f 375/3/2 376/3/2 379/3/2
f 379/3/2 376/3/2 380/3/2
f 381/3/2 382/3/2 385/3/2
f 385/3/2 382/3/2 386/3/2
f 383/3/2 384/3/2 387/3/2
f 387/3/2 384/3/2 388/3/2
f 389/3/2 390/3/2 394/3/2
f 394/3/2 390/3/2 395/3/2
f 391/3/2 392/3/2 396/3/2
f 396/3/2 392/3/2 397/3/2
f 393/1/2 394/1/2 399/1/2
f 399/1/2 394/1/2 400/1/2
f 397/1/2 398/1/2 403/1/2
f 403/1/2 398/1/2 404/1/2
f 400/3/2 401/3/2 406/3/2
f 406/3/2 401/3/2 407/3/2
f 402/3/2 403/3/2 408/3/2
f 408/3/2 403/3/2 409/3/2
f 405/1/2 406/1/2 411/1/2
f 411/1/2 406/1/2 412/1/2
f 409/1/2 410/1/2 415/1/2
f 415/1/2 410/1/2 416/1/2
f 412/3/2 413/3/2 418/3/2
f 418/3/2 413/3/2 419/3/2
f 414/3/2 415/3/2 420/3/2
f 420/3/2 415/3/2 421/3/2
f 417/1/2 418/1/2 423/1/2
f 423/1/2 418/1/2 424/1/2
f 421/1/2 422/1/2 427/1/2
f 427/1/2 422/1/2 428/1/2
f 424/3/2 425/3/2 429/3/2
f 429/3/2 425/3/2 430/3/2
f 426/3/2 427/3/2 431/3/2
f 431/3/2 427/3/2 432/3/2
f 433/3/2 434/3/2 438/3/2
f 438/3/2 434/3/2 439/3/2
f 435/3/2 436/3/2 440/3/2
f 440/3/2 436/3/2 441/3/2
f 437/1/2 438/1/2 443/1/2
f 443/1/2 438/1/2 444/1/2
f 441/1/2 442/1/2 447/1/2
f 447/1/2 442/1/2 448/1/2
f 444/3/2 445/3/2 450/3/2
f 450/3/2 445/3/2 451/3/2
f 446/3/2 447/3/2 452/3/2
f 452/3/2 447/3/2 453/3/2
f 449/1/2 450/1/2 455/1/2
f 455/1/2 450/1/2 456/1/2
f 453/1/2 454/1/2 459/1/2
f 459/1/2 454/1/2 460/1/2
f 456/3/2 457/3/2 462/3/2
f 462/3/2 457/3/2 463/3/2
f 458/3/2 459/3/2 464/3/2
f 464/3/2 459/3/2 465/3/2
f 461/1/2 462/1/2 467/1/2
f 467/1/2 462/1/2 468/1/2
f 465/1/2 466/1/2 471/1/2
f 471/1/2 466/1/2 472/1/2
f 468/3/2 469/3/2 473/3/2
f 473/3/2 469/3/2 474/3/2
f 470/3/2 471/3/2 475/3/2
f 475/3/2 471/3/2 476/3/2
f 477/3/2 478/3/2 482/3/2
f 482/3/2 478/3/2 483/3/2
f 479/3/2 480/3/2 484/3/2
f 484/3/2 480/3/2 485/3/2
f 481/1/2 482/1/2 487/1/2
f 487/1/2 482/1/2 488/1/2
f 485/1/2 486/1/2 491/1/2
f 491/1/2 486/1/2 492/1/2
f 488/3/2 489/3/2 494/3/2
f 494/3/2 489/3/2 495/3/2
f 490/3/2 491/3/2 496/3/2
f 496/3/2 491/3/2 497/3/2
f 493/1/2 494/1/2 499/1/2
f 499/1/2 494/1/2 500/1/2
f 497/1/2 498/1/2 503/1/2
f 503/1/2 498/1/2 504/1/2
f 500/3/2 501/3/2 506/3/2
f 506/3/2 501/3/2 507/3/2
f 502/3/2 503/3/2 508/3/2
f 508/3/2 503/3/2 509/3/2
f 505/1/2 506/1/2 511/1/2
f 511/1/2 506/1/2 512/1/2
f 509/1/2 510/1/2 515/1/2
f 515/1/2 510/1/2 516/1/2
f 512/3/2 513/3/2 517/3/2
f 517/3/2 513/3/2 518/3/2
f 514/3/2 515/3/2 519/3/2
f 519/3/2 515/3/2 520/3/2
f 521/3/2 522/3/2 526/3/2
f 526/3/2 522/3/2 527/3/2
f 523/3/2 524/3/2 528/3/2
f 528/3/2 524/3/2 529/3/2
f 525/1/2 526/1/2 531/1/2
f 531/1/2 526/1/2 532/1/2
f 529/1/2 530/1/2 535/1/2
f 535/1/2 530/1/2 536/1/2
f 532/3/2 533/3/2 538/3/2
f 538/3/2 533/3/2 539/3/2
f 534/3/2 535/3/2 540/3/2
f 540/3/2 535/3/2 541/3/2
f 537/1/2 538/1/2 543/1/2
f 543/1/2 538/1/2 544/1/2
f 541/1/2 542/1/2 547/1/2
f 547/1/2 542/1/2 548/1/2
f 544/3/2 545/3/2 550/3/2
f 550/3/2 545/3/2 551/3/2
f 546/3/2 547/3/2 552/3/2
f 552/3/2 547/3/2 553/3/2
f 549/1/2 550/1/2 555/1/2
f 555/1/2 550/1/2 556/1/2
f 553/1/2 554/1/2 559/1/2
f 559/1/2 554/1/2 560/1/2
f 556/3/2 557/3/2 561/3/2
f 561/3/2 557/3/2 562/3/2
f 558/3/2 559/3/2 563/3/2
f 563/3/2 559/3/2 564/3/2
f 565/3/2 566/3/2 568/3/2
f 568/3/2 566/3/2 569/3/2
f 567/1/2 568/1/2 571/1/2
f 571/1/2 568/1/2 572/1/2
f 569/1/2 570/1/2 573/1/2
f 573/1/2 570/1/2 574/1/2
f 572/3/2 573/3/2 576/3/2
f 576/3/2 573/3/2 577/3/2
f 575/1/2 576/1/2 579/1/2
f 579/1/2 576/1/2 580/1/2
f 577/1/2 578/1/2 581/1/2
f 581/1/2 578/1/2 582/1/2
f 580/3/2 581/3/2 584/3/2
f 584/3/2 581/3/2 585/3/2
f 583/1/2 584/1/2 587/1/2
f 587/1/2 584/1/2 588/1/2
f 585/1/2 586/1/2 589/1/2
f 589/1/2 586/1/2 590/1/2
f 588/3/2 589/3/2 591/3/2
f 591/3/2 589/3/2 592/3/2
f 593/1/2 594/1/2 595/1/2
f 595/1/2 594/1/2 596/1/2
f 597/1/2 598/1/2 599/1/2
f 599/1/2 598/1/2 600/1/2
f 601/1/2 602/1/2 603/1/2
f 603/1/2 602/1/2 604/1/2
f 611/1/3 606/1/3 605/1/3
f 612/1/3 606/1/3 611/1/3
f 613/1/3 608/1/3 607/1/3
f 614/1/3 608/1/3 613/1/3
f 615/1/3 610/1/3 609/1/3
f 616/1/3 610/1/3 615/1/3
f 624/1/3 618/1/3 617/1/3
f 625/1/3 618/1/3 624/1/3
f 626/1/3 620/1/3 619/1/3
f 627/1/3 620/1/3 626/1/3
f 628/1/3 622/1/3 621/1/3
f 629/1/3 622/1/3 628/1/3
f 631/3/3 624/3/3 623/3/3
f 632/3/3 624/3/3 631/3/3
f 633/3/3 626/3/3 625/3/3
f 634/3/3 626/3/3 633/3/3
f 635/3/3 628/3/3 627/3/3
f 636/3/3 628/3/3 635/3/3
f 637/3/3 630/3/3 629/3/3
f 638/3/3 630/3/3 637/3/3
f 639/1/3 633/1/3 632/1/3
f 640/1/3 633/1/3 639/1/3
f 641/1/3 635/1/3 634/1/3
f 642/1/3 635/1/3 641/1/3
f 643/1/3 637/1/3 636/1/3
f 644/1/3 637/1/3 643/1/3
f 652/1/3 646/1/3 645/1/3
f 653/1/3 646/1/3 652/1/3
f 654/1/3 648/1/3 647/1/3
f 655/1/3 648/1/3 654/1/3
f 656/1/3 650/1/3 649/1/3
f 657/1/3 650/1/3 656/1/3
f 659/3/3 652/3/3 651/3/3
f 660/3/3 652/3/3 659/3/3
f 661/3/3 654/3/3 653/3/3
f 662/3/3 654/3/3 661/3/3
f 663/3/3 656/3/3 655/3/3
f 664/3/3 656/3/3 663/3/3
f 665/3/3 658/3/3 657/3/3
f 666/3/3 658/3/3 665/3/3
f 675/3/3 668/3/3 667/3/3
f 676/3/3 668/3/3 675/3/3
f 677/3/3 670/3/3 669/3/3
f 678/3/3 670/3/3 677/3/3
f 679/3/3 672/3/3 671/3/3
f 680/3/3 672/3/3 679/3/3
f 681/3/3 674/3/3 673/3/3
f 682/3/3 674/3/3 681/3/3
f 683/1/3 677/1/3 676/1/3
f 684/1/3 677/1/3 683/1/3
f 685/1/3 679/1/3 678/1/3
f 686/1/3 679/1/3 685/1/3
f 687/1/3 681/1/3 680/1/3
f 688/1/3 681/1/3 687/1/3
f 696/1/3 690/1/3 689/1/3
f 697/1/3 690/1/3 696/1/3
f 698/1/3 692/1/3 691/1/3
f 699/1/3 692/1/3 698/1/3
f 700/1/3 694/1/3 693/1/3
f 701/1/3 694/1/3 700/1/3
f 703/3/3 696/3/3 695/3/3
f 704/3/3 696/3/3 703/3/3
f 705/3/3 698/3/3 697/3/3
f 706/3/3 698/3/3 705/3/3
f 707/3/3 700/3/3 699/3/3
f 708/3/3 700/3/3 707/3/3
f 709/3/3 702/3/3 701/3/3
f 710/3/3 702/3/3 709/3/3
f 719/3/3 712/3/3 711/3/3
f 720/3/3 712/3/3 719/3/3
f 721/3/3 714/3/3 713/3/3
f 722/3/3 714/3/3 721/3/3
f 723/3/3 716/3/3 715/3/3
f 724/3/3 716/3/3 723/3/3
f 725/3/3 718/3/3 717/3/3
f 726/3/3 718/3/3 725/3/3
f 727/1/3 721/1/3 720/1/3
f 728/1/3 721/1/3 727/1/3
f 729/1/3 723/1/3 722/1/3
f 730/1/3 723/1/3 729/1/3
f 731/1/3 725/1/3 724/1/3
f 732/1/3 725/1/3 731/1/3
f 740/1/3 736/1/3 735/1/3
f 741/1/3 736/1/3 740/1/3
f 742/1/3 734/1/3 733/1/3
f 743/1/3 734/1/3 742/1/3
f 744/1/3 738/1/3 737/1/3
f 745/1/3 738/1/3 744/1/3
f 747/3/3 740/3/3 739/3/3
f 748/3/3 740/3/3 747/3/3
f 749/3/3 742/3/3 741/3/3
f 750/3/3 742/3/3 749/3/3
f 751/3/3 744/3/3 743/3/3
f 752/3/3 744/3/3 751/3/3
f 753/3/3 746/3/3 745/3/3
f 754/3/3 746/3/3 753/3/3
f 763/3/3 756/3/3 755/3/3
f 764/3/3 756/3/3 763/3/3
f 765/3/3 758/3/3 757/3/3
f 766/3/3 758/3/3 765/3/3
f 767/3/3 760/3/3 759/3/3
f 768/3/3 760/3/3 767/3/3
f 769/3/3 762/3/3 761/3/3
f 770/3/3 762/3/3 769/3/3
f 771/1/3 765/1/3 764/1/3
f 772/1/3 765/1/3 771/1/3
f 773/1/3 767/1/3 766/1/3
f 774/1/3 767/1/3 773/1/3
f 775/1/3 769/1/3 768/1/3
f 776/1/3 769/1/3 775/1/3
f 782/1/3 778/1/3 777/1/3
f 783/1/3 778/1/3 782/1/3
f 786/1/3 780/1/3 779/1/3
f 787/1/3 780/1/3 786/1/3
f 789/3/3 782/3/3 781/3/3
f 790/3/3 782/3/3 789/3/3
f 791/3/3 784/3/3 783/3/3
f 792/3/3 784/3/3 791/3/3
f 793/3/3 786/3/3 785/3/3
f 794/3/3 786/3/3 793/3/3
f 795/3/3 788/3/3 787/3/3
f 796/3/3 788/3/3 795/3/3
f 805/3/3 798/3/3 797/3/3
f 806/3/3 798/3/3 805/3/3
f 807/3/3 800/3/3 799/3/3
f 808/3/3 800/3/3 807/3/3
f 809/3/3 802/3/3 801/3/3
f 810/3/3 802/3/3 809/3/3
f 811/3/3 804/3/3 803/3/3
f 812/3/3 804/3/3 811/3/3
f 813/1/3 807/1/3 806/1/3
f 814/1/3 807/1/3 813/1/3
f 815/1/3 809/1/3 808/1/3
f 816/1/3 809/1/3 815/1/3
f 817/1/3 811/1/3 810/1/3
f 818/1/3 811/1/3 817/1/3
f 822/2/3 820/2/3 819/2/3
f 823/2/3 820/2/3 822/2/3
f 826/2/3 822/2/3 821/2/3
f 827/1/3 823/1/3 822/1/3
f 827/2/3 822/2/3 826/2/3
f 828/2/3 824/2/3 823/2/3
f 828/1/3 823/1/3 827/1/3
f 829/2/3 824/2/3 828/2/3
f 832/2/3 826/2/3 825/2/3
f 833/1/3 827/1/3 826/1/3
f 833/2/3 826/2/3 832/2/3
f 834/2/3 828/2/3 827/2/3
f 834/1/3 827/1/3 833/1/3
f 835/3/3 829/3/3 828/3/3
f 835/2/3 828/2/3 834/2/3
f 836/2/3 830/2/3 829/2/3
f 839/2/3 832/2/3 831/2/3
f 840/3/3 833/3/3 832/3/3
f 840/2/3 832/2/3 839/2/3
f 841/2/3 834/2/3 833/2/3
f 841/3/3 833/3/3 840/3/3
f 842/1/3 835/1/3 834/1/3
f 842/2/3 834/2/3 841/2/3
f 843/3/3 829/3/3 835/3/3
f 843/1/3 835/1/3 842/1/3
f 844/2/3 837/2/3 836/2/3
f 844/3/3 829/3/3 843/3/3
f 844/2/3 836/2/3 829/2/3
f 845/2/3 837/2/3 844/2/3
f 846/2/3 837/2/3 845/2/3
f 849/2/3 839/2/3 838/2/3
f 850/1/3 840/1/3 839/1/3
f 850/2/3 839/2/3 849/2/3
f 851/2/3 841/2/3 840/2/3
f 851/1/3 840/1/3 850/1/3
f 852/1/3 842/1/3 841/1/3
f 852/2/3 841/2/3 851/2/3
f 853/3/3 843/3/3 842/3/3
f 853/1/3 842/1/3 852/1/3
f 854/2/3 844/2/3 843/2/3
f 854/3/3 843/3/3 853/3/3
f 855/1/3 845/1/3 844/1/3
f 855/2/3 844/2/3 854/2/3
f 856/3/3 846/3/3 845/3/3
f 856/1/3 845/1/3 855/1/3
f 857/2/3 847/2/3 846/2/3
f 857/3/3 846/3/3 856/3/3
f 858/2/3 847/2/3 857/2/3
f 862/2/3 849/2/3 848/2/3
f 863/3/3 850/3/3 849/3/3
f 863/2/3 849/2/3 862/2/3
f 864/2/3 851/2/3 850/2/3
f 864/3/3 850/3/3 863/3/3
f 865/3/3 852/3/3 851/3/3
f 865/2/3 851/2/3 864/2/3
f 866/2/3 853/2/3 852/2/3
f 866/3/3 852/3/3 865/3/3
f 866/2/3 854/2/3 853/2/3
f 867/2/3 854/2/3 866/2/3
f 868/3/3 855/3/3 854/3/3
f 868/2/3 854/2/3 867/2/3
f 869/2/3 856/2/3 855/2/3
f 869/3/3 855/3/3 868/3/3
f 869/2/3 857/2/3 856/2/3
f 870/2/3 857/2/3 869/2/3
f 871/1/3 858/1/3 857/1/3
f 871/2/3 857/2/3 870/2/3
f 872/2/3 859/2/3 858/2/3
f 872/1/3 858/1/3 871/1/3
f 873/2/3 859/2/3 872/2/3
f 875/3/3 861/3/3 860/3/3
f 876/3/3 861/3/3 875/3/3
f 878/2/3 864/2/3 863/2/3
f 879/3/3 865/3/3 864/3/3
f 879/2/3 864/2/3 878/2/3
f 880/2/3 866/2/3 865/2/3
f 880/3/3 865/3/3 879/3/3
f 881/1/3 867/1/3 866/1/3
f 881/2/3 866/2/3 880/2/3
f 882/3/3 868/3/3 867/3/3
f 882/1/3 867/1/3 881/1/3
f 883/2/3 870/2/3 869/2/3
f 883/3/3 868/3/3 882/3/3
f 883/2/3 869/2/3 868/2/3
f 884/2/3 870/2/3 883/2/3
f 885/3/3 871/3/3 870/3/3
f 885/2/3 870/2/3 884/2/3
f 886/2/3 872/2/3 871/2/3
f 886/3/3 871/3/3 885/3/3
f 887/2/3 872/2/3 886/2/3
f 888/3/3 875/3/3 874/3/3
f 889/1/3 876/1/3 875/1/3
f 889/3/3 875/3/3 888/3/3
f 890/3/3 877/3/3 876/3/3
f 890/1/3 876/1/3 889/1/3
f 891/3/3 877/3/3 890/3/3
f 892/2/3 880/2/3 879/2/3
f 893/1/3 881/1/3 880/1/3
f 893/2/3 880/2/3 892/2/3
f 894/2/3 882/2/3 881/2/3
f 894/1/3 881/1/3 893/1/3
f 894/2/3 883/2/3 882/2/3
f 895/2/3 883/2/3 894/2/3
f 896/3/3 884/3/3 883/3/3
f 896/2/3 883/2/3 895/2/3
f 897/1/3 885/1/3 884/1/3
f 897/3/3 884/3/3 896/3/3
f 898/2/3 886/2/3 885/2/3
f 898/1/3 885/1/3 897/1/3
f 899/2/3 886/2/3 898/2/3
f 901/2/3 889/2/3 888/2/3
f 901/2/3 891/2/3 890/2/3
f 901/2/3 890/2/3 889/2/3
f 902/2/3 891/2/3 901/2/3
f 903/2/3 891/2/3 902/2/3
f 904/2/3 891/2/3 903/2/3
f 906/2/3 894/2/3 893/2/3
f 907/3/3 895/3/3 894/3/3
f 907/2/3 894/2/3 906/2/3
f 908/2/3 896/2/3 895/2/3
f 908/3/3 895/3/3 907/3/3
f 909/1/3 897/1/3 896/1/3
f 909/2/3 896/2/3 908/2/3
f 910/2/3 898/2/3 897/2/3
f 910/1/3 897/1/3 909/1/3
f 911/2/3 898/2/3 910/2/3
f 912/3/3 901/3/3 900/3/3
f 913/1/3 902/1/3 901/1/3
f 913/3/3 901/3/3 912/3/3
f 914/3/3 903/3/3 902/3/3
f 914/1/3 902/1/3 913/1/3
f 915/2/3 905/2/3 904/2/3
f 915/3/3 903/3/3 914/3/3
f 915/2/3 904/2/3 903/2/3
f 916/2/3 905/2/3 915/2/3
f 917/2/3 905/2/3 916/2/3
f 918/2/3 908/2/3 907/2/3
f 919/3/3 909/3/3 908/3/3
f 919/2/3 908/2/3 918/2/3
f 920/2/3 910/2/3 909/2/3
f 920/3/3 909/3/3 919/3/3
f 921/2/3 910/2/3 920/2/3
f 922/1/3 913/1/3 912/1/3
f 923/2/3 914/2/3 913/2/3
f 923/1/3 913/1/3 922/1/3
f 923/2/3 915/2/3 914/2/3
f 924/1/3 916/1/3 915/1/3
f 924/2/3 915/2/3 923/2/3
f 925/3/3 917/3/3 916/3/3
f 925/1/3 916/1/3 924/1/3
f 926/3/3 917/3/3 925/3/3
f 927/2/3 920/2/3 919/2/3
f 928/2/3 920/2/3 927/2/3
f 930/2/3 924/2/3 923/2/3
f 930/2/3 929/2/3 928/2/3
f 930/2/3 927/2/3 926/2/3
f 930/2/3 928/2/3 927/2/3
f 930/2/3 925/2/3 924/2/3
f 930/2/3 923/2/3 922/2/3
f 930/2/3 926/2/3 925/2/3
f 931/2/3 929/2/3 930/2/3
f 934/2/3 932/2/3 931/2/3
f 935/2/3 932/2/3 934/2/3
f 936/2/3 934/2/3 933/2/3
f 937/2/3 934/2/3 936/2/3
f 940/3/3 939/3/3 938/3/3
f 941/3/3 939/3/3 940/3/3
f 944/3/3 943/3/3 942/3/3
f 945/3/3 943/3/3 944/3/3
f 948/3/3 947/3/3 946/3/3
f 949/3/3 947/3/3 948/3/3
f 950/3/3 948/3/3 946/3/3
f 952/3/3 950/3/3 946/3/3
f 952/3/3 951/3/3 950/3/3
f 953/3/3 951/3/3 952/3/3
f 956/3/3 955/3/3 954/3/3
f 957/3/3 955/3/3 956/3/3
f 958/3/4 959/3/4 960/3/4
f 960/3/4 959/3/4 961/3/4
f 962/3/4 963/3/4 964/3/4
f 964/3/4 963/3/4 965/3/4
f 966/3/4 967/3/4 968/3/4
f 968/3/4 967/3/4 969/3/4
f 970/3/4 971/3/4 972/3/4
f 972/3/4 971/3/4 973/3/4
f 974/3/4 975/3/4 976/3/4
f 976/3/4 975/3/4 977/3/4
f 978/3/4 979/3/4 980/3/4
f 980/3/4 979/3/4 981/3/4
f 982/2/4 983/2/4 985/2/4
f 985/2/4 983/2/4 986/2/4
f 984/2/4 985/2/4 989/2/4
f 985/1/4 986/1/4 990/1/4
f 989/2/4 985/2/4 990/2/4
f 986/2/4 987/2/4 991/2/4
f 990/1/4 986/1/4 991/1/4
f 991/2/4 987/2/4 992/2/4
f 988/2/4 989/2/4 995/2/4
f 989/1/4 990/1/4 996/1/4
f 995/2/4 989/2/4 996/2/4
f 990/2/4 991/2/4 997/2/4
f 996/1/4 990/1/4 997/1/4
f 991/3/4 992/3/4 998/3/4
f 997/2/4 991/2/4 998/2/4
f 992/2/4 993/2/4 999/2/4
f 994/2/4 995/2/4 1002/2/4
f 995/3/4 996/3/4 1003/3/4
f 1002/2/4 995/2/4 1003/2/4
f 996/2/4 997/2/4 1004/2/4
f 1003/3/4 996/3/4 1004/3/4
f 997/1/4 998/1/4 1005/1/4
f 1004/2/4 997/2/4 1005/2/4
f 998/3/4 992/3/4 1006/3/4
f 1005/1/4 998/1/4 1006/1/4
f 999/2/4 1000/2/4 1007/2/4
f 1006/3/4 992/3/4 1007/3/4
f 992/2/4 999/2/4 1007/2/4
f 1007/2/4 1000/2/4 1008/2/4
f 1008/2/4 1000/2/4 1009/2/4
f 1001/2/4 1002/2/4 1012/2/4
f 1002/1/4 1003/1/4 1013/1/4
f 1012/2/4 1002/2/4 1013/2/4
f 1003/2/4 1004/2/4 1014/2/4
f 1013/1/4 1003/1/4 1014/1/4
f 1004/1/4 1005/1/4 1015/1/4
f 1014/2/4 1004/2/4 1015/2/4
f 1005/3/4 1006/3/4 1016/3/4
f 1015/1/4 1005/1/4 1016/1/4
f 1006/2/4 1007/2/4 1017/2/4
f 1016/3/4 1006/3/4 1017/3/4
f 1007/1/4 1008/1/4 1018/1/4
f 1017/2/4 1007/2/4 1018/2/4
f 1008/3/4 1009/3/4 1019/3/4
f 1018/1/4 1008/1/4 1019/1/4
f 1009/2/4 1010/2/4 1020/2/4
f 1019/3/4 1009/3/4 1020/3/4
f 1020/2/4 1010/2/4 1021/2/4
f 1011/2/4 1012/2/4 1025/2/4
f 1012/3/4 1013/3/4 1026/3/4
f 1025/2/4 1012/2/4 1026/2/4
f 1013/2/4 1014/2/4 1027/2/4
f 1026/3/4 1013/3/4 1027/3/4
f 1014/3/4 1015/3/4 1028/3/4
f 1027/2/4 1014/2/4 1028/2/4
f 1015/2/4 1016/2/4 1029/2/4
f 1028/3/4 1015/3/4 1029/3/4
f 1016/2/4 1017/2/4 1029/2/4
f 1029/2/4 1017/2/4 1030/2/4
f 1017/3/4 1018/3/4 1031/3/4
f 1030/2/4 1017/2/4 1031/2/4
f 1018/2/4 1019/2/4 1032/2/4
f 1031/3/4 1018/3/4 1032/3/4
f 1019/2/4 1020/2/4 1032/2/4
f 1032/2/4 1020/2/4 1033/2/4
f 1020/1/4 1021/1/4 1034/1/4
f 1033/2/4 1020/2/4 1034/2/4
f 1021/2/4 1022/2/4 1035/2/4
f 1034/1/4 1021/1/4 1035/1/4
f 1035/2/4 1022/2/4 1036/2/4
f 1023/3/4 1024/3/4 1038/3/4
f 1038/3/4 1024/3/4 1039/3/4
f 1026/2/4 1027/2/4 1041/2/4
f 1027/3/4 1028/3/4 1042/3/4
f 1041/2/4 1027/2/4 1042/2/4
f 1028/2/4 1029/2/4 1043/2/4
f 1042/3/4 1028/3/4 1043/3/4
f 1029/1/4 1030/1/4 1044/1/4
f 1043/2/4 1029/2/4 1044/2/4
f 1030/3/4 1031/3/4 1045/3/4
f 1044/1/4 1030/1/4 1045/1/4
f 1032/2/4 1033/2/4 1046/2/4
f 1045/3/4 1031/3/4 1046/3/4
f 1031/2/4 1032/2/4 1046/2/4
f 1046/2/4 1033/2/4 1047/2/4
f 1033/3/4 1034/3/4 1048/3/4
f 1047/2/4 1033/2/4 1048/2/4
f 1034/2/4 1035/2/4 1049/2/4
f 1048/3/4 1034/3/4 1049/3/4
f 1049/2/4 1035/2/4 1050/2/4
f 1037/3/4 1038/3/4 1051/3/4
f 1038/1/4 1039/1/4 1052/1/4
f 1051/3/4 1038/3/4 1052/3/4
f 1039/3/4 1040/3/4 1053/3/4
f 1052/1/4 1039/1/4 1053/1/4
f 1053/3/4 1040/3/4 1054/3/4
f 1042/2/4 1043/2/4 1055/2/4
f 1043/1/4 1044/1/4 1056/1/4
f 1055/2/4 1043/2/4 1056/2/4
f 1044/2/4 1045/2/4 1057/2/4
f 1056/1/4 1044/1/4 1057/1/4
f 1045/2/4 1046/2/4 1057/2/4
f 1057/2/4 1046/2/4 1058/2/4
f 1046/3/4 1047/3/4 1059/3/4
f 1058/2/4 1046/2/4 1059/2/4
f 1047/1/4 1048/1/4 1060/1/4
f 1059/3/4 1047/3/4 1060/3/4
f 1048/2/4 1049/2/4 1061/2/4
f 1060/1/4 1048/1/4 1061/1/4
f 1061/2/4 1049/2/4 1062/2/4
f 1051/2/4 1052/2/4 1064/2/4
f 1053/2/4 1054/2/4 1064/2/4
f 1052/2/4 1053/2/4 1064/2/4
f 1064/2/4 1054/2/4 1065/2/4
f 1065/2/4 1054/2/4 1066/2/4
f 1066/2/4 1054/2/4 1067/2/4
f 1056/2/4 1057/2/4 1069/2/4
f 1057/3/4 1058/3/4 1070/3/4
f 1069/2/4 1057/2/4 1070/2/4
f 1058/2/4 1059/2/4 1071/2/4
f 1070/3/4 1058/3/4 1071/3/4
f 1059/1/4 1060/1/4 1072/1/4
f 1071/2/4 1059/2/4 1072/2/4
f 1060/2/4 1061/2/4 1073/2/4
f 1072/1/4 1060/1/4 1073/1/4
f 1073/2/4 1061/2/4 1074/2/4
f 1063/3/4 1064/3/4 1075/3/4
f 1064/1/4 1065/1/4 1076/1/4
f 1075/3/4 1064/3/4 1076/3/4
f 1065/3/4 1066/3/4 1077/3/4
f 1076/1/4 1065/1/4 1077/1/4
f 1067/2/4 1068/2/4 1078/2/4
f 1077/3/4 1066/3/4 1078/3/4
f 1066/2/4 1067/2/4 1078/2/4
f 1078/2/4 1068/2/4 1079/2/4
f 1079/2/4 1068/2/4 1080/2/4
f 1070/2/4 1071/2/4 1081/2/4
f 1071/3/4 1072/3/4 1082/3/4
f 1081/2/4 1071/2/4 1082/2/4
f 1072/2/4 1073/2/4 1083/2/4
f 1082/3/4 1072/3/4 1083/3/4
f 1083/2/4 1073/2/4 1084/2/4
f 1075/1/4 1076/1/4 1085/1/4
f 1076/2/4 1077/2/4 1086/2/4
f 1085/1/4 1076/1/4 1086/1/4
f 1077/2/4 1078/2/4 1086/2/4
f 1078/1/4 1079/1/4 1087/1/4
f 1086/2/4 1078/2/4 1087/2/4
f 1079/3/4 1080/3/4 1088/3/4
f 1087/1/4 1079/1/4 1088/1/4
f 1088/3/4 1080/3/4 1089/3/4
f 1082/2/4 1083/2/4 1090/2/4
f 1090/2/4 1083/2/4 1091/2/4
f 1086/2/4 1087/2/4 1093/2/4
f 1091/2/4 1092/2/4 1093/2/4
f 1089/2/4 1090/2/4 1093/2/4
f 1090/2/4 1091/2/4 1093/2/4
f 1087/2/4 1088/2/4 1093/2/4
f 1085/2/4 1086/2/4 1093/2/4
f 1088/2/4 1089/2/4 1093/2/4
f 1093/2/4 1092/2/4 1094/2/4
f 1096/1/4 1097/1/4 1103/1/4
f 1103/1/4 1097/1/4 1104/1/4
f 1098/1/4 1099/1/4 1105/1/4
f 1105/1/4 1099/1/4 1106/1/4
f 1100/1/4 1101/1/4 1107/1/4
f 1107/1/4 1101/1/4 1108/1/4
f 1102/3/4 1103/3/4 1110/3/4
f 1110/3/4 1103/3/4 1111/3/4
f 1104/3/4 1105/3/4 1112/3/4
f 1112/3/4 1105/3/4 1113/3/4
f 1106/3/4 1107/3/4 1114/3/4
f 1114/3/4 1107/3/4 1115/3/4
f 1108/3/4 1109/3/4 1116/3/4
f 1116/3/4 1109/3/4 1117/3/4
f 1094/2/4 1095/2/4 1118/2/4
f 1118/2/4 1095/2/4 1119/2/4
f 1117/2/4 1118/2/4 1120/2/4
f 1120/2/4 1118/2/4 1121/2/4
f 1122/3/4 1123/3/4 1130/3/4
f 1130/3/4 1123/3/4 1131/3/4
f 1124/3/4 1125/3/4 1132/3/4
f 1132/3/4 1125/3/4 1133/3/4
f 1126/3/4 1127/3/4 1134/3/4
f 1134/3/4 1127/3/4 1135/3/4
f 1128/3/4 1129/3/4 1136/3/4
f 1136/3/4 1129/3/4 1137/3/4
f 1131/1/4 1132/1/4 1138/1/4
f 1138/1/4 1132/1/4 1139/1/4
f 1133/1/4 1134/1/4 1140/1/4
f 1140/1/4 1134/1/4 1141/1/4
f 1135/1/4 1136/1/4 1142/1/4
f 1142/1/4 1136/1/4 1143/1/4
f 1144/1/4 1145/1/4 1151/1/4
f 1151/1/4 1145/1/4 1152/1/4
f 1146/1/4 1147/1/4 1153/1/4
f 1153/1/4 1147/1/4 1154/1/4
f 1148/1/4 1149/1/4 1155/1/4
f 1155/1/4 1149/1/4 1156/1/4
f 1150/3/4 1151/3/4 1158/3/4
f 1158/3/4 1151/3/4 1159/3/4
f 1152/3/4 1153/3/4 1160/3/4
f 1160/3/4 1153/3/4 1161/3/4
f 1154/3/4 1155/3/4 1162/3/4
f 1162/3/4 1155/3/4 1163/3/4
f 1156/3/4 1157/3/4 1164/3/4
f 1164/3/4 1157/3/4 1165/3/4
f 1166/3/4 1167/3/4 1174/3/4
f 1174/3/4 1167/3/4 1175/3/4
f 1168/3/4 1169/3/4 1176/3/4
f 1176/3/4 1169/3/4 1177/3/4
f 1170/3/4 1171/3/4 1178/3/4
f 1178/3/4 1171/3/4 1179/3/4
f 1172/3/4 1173/3/4 1180/3/4
f 1180/3/4 1173/3/4 1181/3/4
f 1175/1/4 1176/1/4 1182/1/4
f 1182/1/4 1176/1/4 1183/1/4
f 1177/1/4 1178/1/4 1184/1/4
f 1184/1/4 1178/1/4 1185/1/4
f 1179/1/4 1180/1/4 1186/1/4
f 1186/1/4 1180/1/4 1187/1/4
f 1188/1/4 1189/1/4 1195/1/4
f 1195/1/4 1189/1/4 1196/1/4
f 1190/1/4 1191/1/4 1197/1/4
f 1197/1/4 1191/1/4 1198/1/4
f 1192/1/4 1193/1/4 1199/1/4
f 1199/1/4 1193/1/4 1200/1/4
f 1194/3/4 1195/3/4 1202/3/4
f 1202/3/4 1195/3/4 1203/3/4
f 1196/3/4 1197/3/4 1204/3/4
f 1204/3/4 1197/3/4 1205/3/4
f 1198/3/4 1199/3/4 1206/3/4
f 1206/3/4 1199/3/4 1207/3/4
f 1200/3/4 1201/3/4 1208/3/4
f 1208/3/4 1201/3/4 1209/3/4
f 1210/3/4 1211/3/4 1218/3/4
f 1218/3/4 1211/3/4 1219/3/4
f 1212/3/4 1213/3/4 1220/3/4
f 1220/3/4 1213/3/4 1221/3/4
f 1214/3/4 1215/3/4 1222/3/4
f 1222/3/4 1215/3/4 1223/3/4
f 1216/3/4 1217/3/4 1224/3/4
f 1224/3/4 1217/3/4 1225/3/4
f 1219/1/4 1220/1/4 1226/1/4
f 1226/1/4 1220/1/4 1227/1/4
f 1221/1/4 1222/1/4 1228/1/4
f 1228/1/4 1222/1/4 1229/1/4
f 1223/1/4 1224/1/4 1230/1/4
f 1230/1/4 1224/1/4 1231/1/4
f 1232/1/4 1233/1/4 1239/1/4
f 1239/1/4 1233/1/4 1240/1/4
f 1234/1/4 1235/1/4 1241/1/4
f 1241/1/4 1235/1/4 1242/1/4
f 1236/1/4 1237/1/4 1243/1/4
f 1243/1/4 1237/1/4 1244/1/4
f 1238/3/4 1239/3/4 1246/3/4
f 1246/3/4 1239/3/4 1247/3/4
f 1240/3/4 1241/3/4 1248/3/4
f 1248/3/4 1241/3/4 1249/3/4
f 1242/3/4 1243/3/4 1250/3/4
f 1250/3/4 1243/3/4 1251/3/4
f 1244/3/4 1245/3/4 1252/3/4
f 1252/3/4 1245/3/4 1253/3/4
f 1254/3/4 1255/3/4 1262/3/4
f 1262/3/4 1255/3/4 1263/3/4
f 1256/3/4 1257/3/4 1264/3/4
f 1264/3/4 1257/3/4 1265/3/4
f 1258/3/4 1259/3/4 1266/3/4
f 1266/3/4 1259/3/4 1267/3/4
f 1260/3/4 1261/3/4 1268/3/4
f 1268/3/4 1261/3/4 1269/3/4
f 1263/1/4 1264/1/4 1270/1/4
f 1270/1/4 1264/1/4 1271/1/4
f 1265/1/4 1266/1/4 1272/1/4
f 1272/1/4 1266/1/4 1273/1/4
f 1267/1/4 1268/1/4 1274/1/4
f 1274/1/4 1268/1/4 1275/1/4
f 1276/1/4 1277/1/4 1283/1/4
f 1283/1/4 1277/1/4 1284/1/4
f 1278/1/4 1279/1/4 1285/1/4
f 1285/1/4 1279/1/4 1286/1/4
f 1280/1/4 1281/1/4 1287/1/4
f 1287/1/4 1281/1/4 1288/1/4
f 1282/3/4 1283/3/4 1290/3/4
f 1290/3/4 1283/3/4 1291/3/4
f 1284/3/4 1285/3/4 1292/3/4
f 1292/3/4 1285/3/4 1293/3/4
f 1286/3/4 1287/3/4 1294/3/4
f 1294/3/4 1287/3/4 1295/3/4
f 1288/3/4 1289/3/4 1296/3/4
f 1296/3/4 1289/3/4 1297/3/4
f 1291/1/4 1292/1/4 1298/1/4
f 1298/1/4 1292/1/4 1299/1/4
f 1293/1/4 1294/1/4 1300/1/4
f 1300/1/4 1294/1/4 1301/1/4
f 1295/1/4 1296/1/4 1302/1/4
f 1302/1/4 1296/1/4 1303/1/4
f 1304/1/4 1305/1/4 1310/1/4
f 1310/1/4 1305/1/4 1311/1/4
f 1306/1/4 1307/1/4 1312/1/4
f 1312/1/4 1307/1/4 1313/1/4
f 1308/1/4 1309/1/4 1314/1/4
f 1314/1/4 1309/1/4 1315/1/4
f 1319/3/5 1317/3/5 1316/3/5
f 1320/3/5 1317/3/5 1319/3/5
f 1323/3/5 1319/3/5 1318/3/5
f 1323/3/5 1321/3/5 1320/3/5
f 1323/3/5 1320/3/5 1319/3/5
f 1324/3/5 1321/3/5 1323/3/5
f 1327/3/5 1323/3/5 1322/3/5
f 1327/3/5 1325/3/5 1324/3/5
f 1327/3/5 1324/3/5 1323/3/5
f 1328/3/5 1325/3/5 1327/3/5
f 1331/3/5 1327/3/5 1326/3/5
f 1331/3/5 1329/3/5 1328/3/5
f 1331/3/5 1328/3/5 1327/3/5
f 1332/3/5 1329/3/5 1331/3/5
f 1334/3/5 1331/3/5 1330/3/5
f 1334/3/5 1333/3/5 1332/3/5
f 1334/3/5 1332/3/5 1331/3/5
f 1335/3/5 1333/3/5 1334/3/5
f 1336/3/5 1333/3/5 1335/3/5
f 1337/3/5 1333/3/5 1336/3/5
f 1338/3/5 1336/3/5 1335/3/5
f 1339/3/5 1336/3/5 1338/3/5
f 1340/3/5 1336/3/5 1339/3/5
f 1341/3/5 1336/3/5 1340/3/5
f 1342/3/5 1340/3/5 1339/3/5
f 1343/3/5 1340/3/5 1342/3/5
f 1344/3/5 1340/3/5 1343/3/5
f 1345/3/5 1340/3/5 1344/3/5
f 1346/3/5 1344/3/5 1343/3/5
f 1347/3/5 1344/3/5 1346/3/5
f 1348/3/5 1344/3/5 1347/3/5
f 1349/3/5 1344/3/5 1348/3/5
f 1350/3/5 1348/3/5 1347/3/5
f 1351/3/5 1348/3/5 1350/3/5
f 1355/1/5 1353/1/5 1352/1/5
f 1356/1/5 1353/1/5 1355/1/5
f 1359/1/5 1355/1/5 1354/1/5
f 1360/1/5 1355/1/5 1359/1/5
f 1361/1/5 1357/1/5 1356/1/5
f 1362/1/5 1357/1/5 1361/1/5
f 1365/1/5 1359/1/5 1358/1/5
f 1366/1/5 1359/1/5 1365/1/5
f 1367/1/5 1363/1/5 1362/1/5
f 1368/1/5 1363/1/5 1367/1/5
f 1371/1/5 1365/1/5 1364/1/5
f 1372/1/5 1365/1/5 1371/1/5
f 1373/1/5 1369/1/5 1368/1/5
f 1374/1/5 1369/1/5 1373/1/5
f 1377/1/5 1371/1/5 1370/1/5
f 1378/1/5 1371/1/5 1377/1/5
f 1379/1/5 1375/1/5 1374/1/5
f 1380/1/5 1375/1/5 1379/1/5
f 1382/1/5 1377/1/5 1376/1/5
f 1383/1/5 1377/1/5 1382/1/5
f 1386/1/5 1381/1/5 1380/1/5
f 1387/1/5 1381/1/5 1386/1/5
f 1388/1/5 1384/1/5 1383/1/5
f 1389/1/5 1384/1/5 1388/1/5
f 1392/1/5 1386/1/5 1385/1/5
f 1393/1/5 1386/1/5 1392/1/5
f 1394/1/5 1390/1/5 1389/1/5
f 1395/1/5 1390/1/5 1394/1/5
f 1398/1/5 1392/1/5 1391/1/5
f 1399/1/5 1392/1/5 1398/1/5
f 1400/1/5 1396/1/5 1395/1/5
f 1401/1/5 1396/1/5 1400/1/5
f 1404/1/5 1398/1/5 1397/1/5
f 1405/1/5 1398/1/5 1404/1/5
f 1406/1/5 1402/1/5 1401/1/5
f 1407/1/5 1402/1/5 1406/1/5
f 1408/1/5 1404/1/5 1403/1/5
f 1409/1/5 1404/1/5 1408/1/5
f 1410/1/5 1408/1/5 1407/1/5
f 1411/1/5 1408/1/5 1410/1/5
f 1415/1/5 1413/1/5 1412/1/5
f 1416/1/5 1413/1/5 1415/1/5
f 1419/1/5 1415/1/5 1414/1/5
f 1420/1/5 1415/1/5 1419/1/5
f 1421/1/5 1417/1/5 1416/1/5
f 1422/1/5 1417/1/5 1421/1/5
f 1425/1/5 1419/1/5 1418/1/5
f 1426/1/5 1419/1/5 1425/1/5
f 1427/1/5 1423/1/5 1422/1/5
f 1428/1/5 1423/1/5 1427/1/5
f 1431/1/5 1425/1/5 1424/1/5
f 1432/1/5 1425/1/5 1431/1/5
f 1433/1/5 1429/1/5 1428/1/5
f 1434/1/5 1429/1/5 1433/1/5
f 1436/1/5 1431/1/5 1430/1/5
f 1437/1/5 1431/1/5 1436/1/5
f 1438/1/5 1435/1/5 1434/1/5
f 1439/1/5 1435/1/5 1438/1/5
f 1441/1/5 1436/1/5 1430/1/5
f 1442/1/5 1436/1/5 1441/1/5
f 1445/1/5 1440/1/5 1439/1/5
f 1446/1/5 1440/1/5 1445/1/5
f 1447/1/5 1443/1/5 1442/1/5
f 1448/1/5 1443/1/5 1447/1/5
f 1451/1/5 1445/1/5 1444/1/5
f 1452/1/5 1445/1/5 1451/1/5
f 1453/1/5 1449/1/5 1448/1/5
f 1454/1/5 1449/1/5 1453/1/5
f 1457/1/5 1451/1/5 1450/1/5
f 1458/1/5 1451/1/5 1457/1/5
f 1459/1/5 1455/1/5 1454/1/5
f 1460/1/5 1455/1/5 1459/1/5
f 1463/1/5 1457/1/5 1456/1/5
f 1464/1/5 1457/1/5 1463/1/5
f 1465/1/5 1461/1/5 1460/1/5
f 1466/1/5 1461/1/5 1465/1/5
f 1467/1/5 1463/1/5 1462/1/5
f 1468/1/5 1463/1/5 1467/1/5
f 1469/1/5 1467/1/5 1466/1/5
f 1470/1/5 1467/1/5 1469/1/5
f 1475/3/5 1472/3/5 1471/3/5
f 1476/1/5 1473/1/5 1472/1/5
f 1476/3/5 1472/3/5 1475/3/5
f 1477/2/5 1474/2/5 1473/2/5
f 1477/1/5 1473/1/5 1476/1/5
f 1478/2/5 1474/2/5 1477/2/5
f 1482/3/5 1480/3/5 1479/3/5
f 1483/2/5 1481/2/5 1480/2/5
f 1483/3/5 1480/3/5 1482/3/5
f 1484/2/5 1481/2/5 1483/2/5
f 1487/3/5 1486/3/5 1485/3/5
f 1488/3/5 1486/3/5 1487/3/5
f 1492/1/5 1490/1/5 1489/1/5
f 1493/1/5 1490/1/5 1492/1/5
f 1496/1/5 1492/1/5 1491/1/5
f 1497/1/5 1492/1/5 1496/1/5
f 1498/1/5 1494/1/5 1493/1/5
f 1499/1/5 1494/1/5 1498/1/5
f 1502/1/5 1496/1/5 1495/1/5
f 1503/1/5 1496/1/5 1502/1/5
f 1504/1/5 1500/1/5 1499/1/5
f 1505/1/5 1500/1/5 1504/1/5
f 1508/1/5 1502/1/5 1501/1/5
f 1509/1/5 1502/1/5 1508/1/5
f 1510/1/5 1506/1/5 1505/1/5
f 1511/1/5 1506/1/5 1510/1/5
f 1514/1/5 1508/1/5 1507/1/5
f 1515/1/5 1508/1/5 1514/1/5
f 1516/1/5 1512/1/5 1511/1/5
f 1517/1/5 1512/1/5 1516/1/5
f 1521/2/5 1520/2/5 1519/2/5
f 1522/2/5 1520/2/5 1521/2/5
f 1523/1/5 1514/1/5 1513/1/5
f 1524/1/5 1514/1/5 1523/1/5
f 1527/1/5 1518/1/5 1517/1/5
f 1528/1/5 1518/1/5 1527/1/5
f 1529/1/5 1525/1/5 1524/1/5
f 1530/1/5 1525/1/5 1529/1/5
f 1533/1/5 1527/1/5 1526/1/5
f 1534/1/5 1527/1/5 1533/1/5
f 1535/1/5 1531/1/5 1530/1/5
f 1536/1/5 1531/1/5 1535/1/5
f 1539/1/5 1533/1/5 1532/1/5
f 1540/1/5 1533/1/5 1539/1/5
f 1541/1/5 1537/1/5 1536/1/5
f 1542/1/5 1537/1/5 1541/1/5
f 1545/1/5 1539/1/5 1538/1/5
f 1546/1/5 1539/1/5 1545/1/5
f 1547/1/5 1543/1/5 1542/1/5
f 1548/1/5 1543/1/5 1547/1/5
f 1549/1/5 1545/1/5 1544/1/5
f 1550/1/5 1545/1/5 1549/1/5
f 1551/1/5 1549/1/5 1548/1/5
f 1552/1/5 1549/1/5 1551/1/5
f 1557/2/5 1554/2/5 1553/2/5
f 1558/2/5 1554/2/5 1557/2/5
f 1559/2/5 1556/2/5 1555/2/5
f 1560/2/5 1556/2/5 1559/2/5
f 1565/2/5 1562/2/5 1561/2/5
f 1566/2/5 1562/2/5 1565/2/5
f 1567/2/5 1564/2/5 1563/2/5
f 1568/2/5 1564/2/5 1567/2/5
f 1573/2/5 1570/2/5 1569/2/5
f 1574/2/5 1570/2/5 1573/2/5
f 1575/2/5 1572/2/5 1571/2/5
f 1576/2/5 1572/2/5 1575/2/5
f 1581/2/5 1578/2/5 1577/2/5
f 1582/2/5 1578/2/5 1581/2/5
f 1583/2/5 1580/2/5 1579/2/5
f 1584/2/5 1580/2/5 1583/2/5
f 1589/2/5 1586/2/5 1585/2/5
f 1590/2/5 1586/2/5 1589/2/5
f 1591/2/5 1588/2/5 1587/2/5
f 1592/2/5 1588/2/5 1591/2/5
f 1595/2/5 1594/2/5 1593/2/5
f 1596/2/5 1594/2/5 1595/2/5
f 1597/1/6 1598/1/6 1600/1/6
f 1600/1/6 1598/1/6 1601/1/6
f 1599/1/6 1600/1/6 1604/1/6
f 1604/1/6 1600/1/6 1605/1/6
f 1601/1/6 1602/1/6 1606/1/6
f 1606/1/6 1602/1/6 1607/1/6
f 1603/1/6 1604/1/6 1610/1/6
f 1610/1/6 1604/1/6 1611/1/6
f 1607/1/6 1608/1/6 1612/1/6
f 1612/1/6 1608/1/6 1613/1/6
f 1609/1/6 1610/1/6 1616/1/6
f 1616/1/6 1610/1/6 1617/1/6
f 1613/1/6 1614/1/6 1618/1/6
f 1618/1/6 1614/1/6 1619/1/6
f 1615/1/6 1616/1/6 1622/1/6
f 1622/1/6 1616/1/6 1623/1/6
f 1619/1/6 1620/1/6 1624/1/6
f 1624/1/6 1620/1/6 1625/1/6
f 1621/1/6 1622/1/6 1627/1/6
f 1627/1/6 1622/1/6 1628/1/6
f 1625/1/6 1626/1/6 1631/1/6
f 1631/1/6 1626/1/6 1632/1/6
f 1628/1/6 1629/1/6 1633/1/6
f 1633/1/6 1629/1/6 1634/1/6
f 1630/1/6 1631/1/6 1637/1/6
f 1637/1/6 1631/1/6 1638/1/6
f 1634/1/6 1635/1/6 1639/1/6
f 1639/1/6 1635/1/6 1640/1/6
f 1636/1/6 1637/1/6 1643/1/6
f 1643/1/6 1637/1/6 1644/1/6
f 1640/1/6 1641/1/6 1645/1/6
f 1645/1/6 1641/1/6 1646/1/6
f 1642/1/6 1643/1/6 1649/1/6
f 1649/1/6 1643/1/6 1650/1/6
f 1646/1/6 1647/1/6 1651/1/6
f 1651/1/6 1647/1/6 1652/1/6
f 1648/1/6 1649/1/6 1653/1/6
f 1653/1/6 1649/1/6 1654/1/6
f 1652/1/6 1653/1/6 1655/1/6
f 1655/1/6 1653/1/6 1656/1/6
f 1657/1/6 1658/1/6 1660/1/6
f 1660/1/6 1658/1/6 1661/1/6
f 1659/1/6 1660/1/6 1664/1/6
f 1664/1/6 1660/1/6 1665/1/6
f 1661/1/6 1662/1/6 1666/1/6
f 1666/1/6 1662/1/6 1667/1/6
f 1663/1/6 1664/1/6 1670/1/6
f 1670/1/6 1664/1/6 1671/1/6
f 1667/1/6 1668/1/6 1672/1/6
f 1672/1/6 1668/1/6 1673/1/6
f 1669/1/6 1670/1/6 1676/1/6
f 1676/1/6 1670/1/6 1677/1/6
f 1673/1/6 1674/1/6 1678/1/6
f 1678/1/6 1674/1/6 1679/1/6
f 1675/1/6 1676/1/6 1681/1/6
f 1681/1/6 1676/1/6 1682/1/6
f 1679/1/6 1680/1/6 1683/1/6
f 1683/1/6 1680/1/6 1684/1/6
f 1675/1/6 1681/1/6 1686/1/6
f 1686/1/6 1681/1/6 1687/1/6
f 1684/1/6 1685/1/6 1690/1/6
f 1690/1/6 1685/1/6 1691/1/6
f 1687/1/6 1688/1/6 1692/1/6
f 1692/1/6 1688/1/6 1693/1/6
f 1689/1/6 1690/1/6 1696/1/6
f 1696/1/6 1690/1/6 1697/1/6
f 1693/1/6 1694/1/6 1698/1/6
f 1698/1/6 1694/1/6 1699/1/6
f 1695/1/6 1696/1/6 1702/1/6
f 1702/1/6 1696/1/6 1703/1/6
f 1699/1/6 1700/1/6 1704/1/6
f 1704/1/6 1700/1/6 1705/1/6
f 1701/1/6 1702/1/6 1708/1/6
f 1708/1/6 1702/1/6 1709/1/6
f 1705/1/6 1706/1/6 1710/1/6
f 1710/1/6 1706/1/6 1711/1/6
f 1707/1/6 1708/1/6 1712/1/6
f 1712/1/6 1708/1/6 1713/1/6
f 1711/1/6 1712/1/6 1714/1/6
f 1714/1/6 1712/1/6 1715/1/6
f 1716/3/6 1717/3/6 1718/3/6
f 1718/3/6 1717/3/6 1719/3/6
f 1720/3/6 1721/3/6 1723/3/6
f 1721/2/6 1722/2/6 1724/2/6
f 1723/3/6 1721/3/6 1724/3/6
f 1724/2/6 1722/2/6 1725/2/6
f 1726/1/6 1727/1/6 1729/1/6
f 1729/1/6 1727/1/6 1730/1/6
f 1728/1/6 1729/1/6 1733/1/6
f 1733/1/6 1729/1/6 1734/1/6
f 1730/1/6 1731/1/6 1735/1/6
f 1735/1/6 1731/1/6 1736/1/6
f 1732/1/6 1733/1/6 1739/1/6
f 1739/1/6 1733/1/6 1740/1/6
f 1736/1/6 1737/1/6 1741/1/6
f 1741/1/6 1737/1/6 1742/1/6
f 1738/1/6 1739/1/6 1745/1/6
f 1745/1/6 1739/1/6 1746/1/6
f 1742/1/6 1743/1/6 1747/1/6
f 1747/1/6 1743/1/6 1748/1/6
f 1744/1/6 1745/1/6 1751/1/6
f 1751/1/6 1745/1/6 1752/1/6
f 1748/1/6 1749/1/6 1753/1/6
f 1753/1/6 1749/1/6 1754/1/6
f 1756/2/6 1757/2/6 1759/2/6
f 1757/3/6 1758/3/6 1760/3/6
f 1759/2/6 1757/2/6 1760/2/6
f 1760/3/6 1758/3/6 1761/3/6
f 1750/1/6 1751/1/6 1762/1/6
f 1762/1/6 1751/1/6 1763/1/6
f 1754/1/6 1755/1/6 1766/1/6
f 1766/1/6 1755/1/6 1767/1/6
f 1763/1/6 1764/1/6 1768/1/6
f 1768/1/6 1764/1/6 1769/1/6
f 1765/1/6 1766/1/6 1772/1/6
f 1772/1/6 1766/1/6 1773/1/6
f 1769/1/6 1770/1/6 1774/1/6
f 1774/1/6 1770/1/6 1775/1/6
f 1771/1/6 1772/1/6 1778/1/6
f 1778/1/6 1772/1/6 1779/1/6
f 1775/1/6 1776/1/6 1780/1/6
f 1780/1/6 1776/1/6 1781/1/6
f 1777/1/6 1778/1/6 1784/1/6
f 1784/1/6 1778/1/6 1785/1/6
f 1781/1/6 1782/1/6 1786/1/6
f 1786/1/6 1782/1/6 1787/1/6
f 1783/1/6 1784/1/6 1788/1/6
f 1788/1/6 1784/1/6 1789/1/6
f 1787/1/6 1788/1/6 1790/1/6
f 1790/1/6 1788/1/6 1791/1/6
f 1792/3/6 1793/3/6 1795/3/6
f 1795/3/6 1793/3/6 1796/3/6
f 1794/3/6 1795/3/6 1799/3/6
f 1796/3/6 1797/3/6 1799/3/6
f 1795/3/6 1796/3/6 1799/3/6
f 1799/3/6 1797/3/6 1800/3/6
f 1798/3/6 1799/3/6 1802/3/6
f 1800/3/6 1801/3/6 1802/3/6
f 1799/3/6 1800/3/6 1802/3/6
f 1798/3/6 1802/3/6 1804/3/6
f 1802/3/6 1803/3/6 1804/3/6
f 1804/3/6 1803/3/6 1805/3/6
f 1805/3/6 1803/3/6 1806/3/6
f 1806/3/6 1803/3/6 1807/3/6
f 1805/3/6 1806/3/6 1808/3/6
f 1808/3/6 1806/3/6 1809/3/6
f 1810/3/6 1811/3/6 1812/3/6
f 1812/3/6 1811/3/6 1813/3/6
f 1814/3/6 1815/3/6 1817/3/6
f 1817/3/6 1815/3/6 1818/3/6
f 1816/3/6 1817/3/6 1821/3/6
f 1821/3/6 1817/3/6 1822/3/6
f 1818/3/6 1819/3/6 1823/3/6
f 1823/3/6 1819/3/6 1824/3/6
f 1820/3/6 1821/3/6 1827/3/6
f 1827/3/6 1821/3/6 1828/3/6
f 1824/3/6 1825/3/6 1829/3/6
f 1829/3/6 1825/3/6 1830/3/6
f 1826/3/6 1827/3/6 1833/3/6
f 1830/3/6 1831/3/6 1834/3/6
f 1834/3/6 1831/3/6 1835/3/6
f 1832/3/6 1833/3/6 1841/3/6
f 1833/3/6 1827/3/6 1841/3/6
f 1841/3/6 1827/3/6 1842/3/6
f 1837/2/6 1838/2/6 1843/2/6
f 1843/2/6 1838/2/6 1844/2/6
f 1839/2/6 1840/2/6 1845/2/6
f 1845/2/6 1840/2/6 1846/2/6
f 1832/3/6 1841/3/6 1847/3/6
f 1847/3/6 1841/3/6 1848/3/6
f 1835/3/6 1836/3/6 1852/3/6
f 1852/3/6 1836/3/6 1853/3/6
f 1848/3/6 1849/3/6 1854/3/6
f 1849/3/6 1850/3/6 1854/3/6
f 1854/3/6 1850/3/6 1855/3/6
f 1851/3/6 1852/3/6 1856/3/6
f 1856/3/6 1852/3/6 1857/3/6
f 1855/3/6 1850/3/6 1858/3/6
f 1858/3/6 1850/3/6 1859/3/6
f 1851/3/6 1856/3/6 1862/3/6
f 1862/3/6 1856/3/6 1863/3/6
f 1859/3/6 1860/3/6 1864/3/6
f 1864/3/6 1860/3/6 1865/3/6
f 1861/3/6 1862/3/6 1866/3/6
f 1866/3/6 1862/3/6 1867/3/6
f 1865/3/6 1866/3/6 1868/3/6
f 1868/3/6 1866/3/6 1869/3/6
f 1870/2/6 1871/2/6 1874/2/6
f 1874/2/6 1871/2/6 1875/2/6
f 1872/2/6 1873/2/6 1876/2/6
f 1876/2/6 1873/2/6 1877/2/6
f 1878/2/6 1879/2/6 1886/2/6
f 1886/2/6 1879/2/6 1887/2/6
f 1880/2/6 1881/2/6 1888/2/6
f 1888/2/6 1881/2/6 1889/2/6
f 1882/2/6 1883/2/6 1890/2/6
f 1890/2/6 1883/2/6 1891/2/6
f 1884/2/6 1885/2/6 1892/2/6
f 1892/2/6 1885/2/6 1893/2/6
f 1894/2/6 1895/2/6 1900/2/6
f 1900/2/6 1895/2/6 1901/2/6
f 1896/2/6 1897/2/6 1902/2/6
f 1902/2/6 1897/2/6 1903/2/6
f 1898/2/6 1899/2/6 1904/2/6
f 1904/2/6 1899/2/6 1905/2/6
f 1906/2/6 1907/2/6 1910/2/6
f 1910/2/6 1907/2/6 1911/2/6
f 1908/2/6 1909/2/6 1912/2/6
f 1912/2/6 1909/2/6 1913/2/6
f 1914/2/6 1915/2/6 1916/2/6
f 1916/2/6 1915/2/6 1917/2/6
