[gd_scene load_steps=6 format=3 uid="uid://bvdhjc6w26b2x"]

[ext_resource type="Script" path="res://components/interactables/helper_red_panda/helper_red_panda.gd" id="1_0i82b"]
[ext_resource type="PackedScene" uid="uid://djk61cv2ohysy" path="res://assets/models/redpanda/redpanda.obj" id="2_iex6d"]

[sub_resource type="BoxShape3D" id="BoxShape3D_36emw"]
size = Vector3(1.5, 2, 5)

[sub_resource type="BoxShape3D" id="BoxShape3D_xcmur"]
size = Vector3(1.25, 2, 4.8)

[sub_resource type="BoxShape3D" id="BoxShape3D_fx4el"]
size = Vector3(0.3, 0.75, 1.575)

[node name="HelperRedPanda" type="Node3D"]
script = ExtResource("1_0i82b")
main_dialogue = Array[String](["Hey kiddo, you want some tips? Khajit has the best tips on the market, but of course only if you have coin.", "Where I am? Well right here in the wall.", "Good good, I see you have coin. Feel free to ask me once you need a tip for the next constellation.", "If I find the time, I will help you out once you struggle to find the answer.", "Here I am again. Like last time, just ask and I will give you tips."])
quip_texts = Array[String](["The first one is really easy, it even tells you already.", "You just need to follow the line that's already there.", "Are you even trying to solve this?", "Oh I see, this one is just a little harder, maybe try the items that you didn't use for the first one.", "It needs one item from the Nebula island and one from the Desert island.", "I've never tried to eat both of the items, but I hear they are quite tasty.", "The item that wasn't used yet is from the newest island and I personally hate it, as does my doctor.", "You see, all the stars in the universe can go out at any time, especially if they are covered by the moon.", "The starting island has a big mountain and it has a name. I can't pronounce it correctly, but it goes something like this: \"[shake]Ghoogerftrype[/shake]\"", "Although this is the easiest one, because it just uses all of the unused items, it is the hardest, because you need to know which item connects to which other item.", "The two ores have the same magnetic charge, so they repel each other. Maybe they are just not meant to be together.", "I wonder where all the other panda's went ... there were so many on the islands that I easily lost count."])
marker_color = Color(1, 0.54902, 0, 1)
marker_size = 1.0
thought_text = ""

[node name="Area3D" type="Area3D" parent="."]
transform = Transform3D(0.1, 0, 0, 0, 0.1, 0, 0, 0, 0.1, 0, 0, 0)
collision_layer = 2
collision_mask = 0

[node name="CollisionShape3D" type="CollisionShape3D" parent="Area3D"]
transform = Transform3D(1, 0, 1.16527e-05, 0, 1, 0, -1.16527e-05, 0, 1, 0.16156, 1, 0.383911)
shape = SubResource("BoxShape3D_36emw")

[node name="StaticBody3D" type="StaticBody3D" parent="."]

[node name="CollisionShape3D" type="CollisionShape3D" parent="StaticBody3D"]
transform = Transform3D(0.1, 0, 1.16527e-06, 0, 0.1, 0, -1.16527e-06, 0, 0.1, 0.016156, 0.1, 0.0383911)
shape = SubResource("BoxShape3D_xcmur")

[node name="redpanda" parent="." instance=ExtResource("2_iex6d")]
transform = Transform3D(1, 0, 0, 0, 1, 0, 0, 0, 1, 0, 0, 0.2)

[node name="Reaction" type="Area3D" parent="."]
transform = Transform3D(1, 0, 0, 0, 1, 0, 0, 0, 1, 0, 0.517, -1.163)
collision_layer = 2
collision_mask = 0

[node name="CollisionShape3D" type="CollisionShape3D" parent="Reaction"]
transform = Transform3D(1, 0, 0, 0, 1, 0, 0, 0, 1, 0, 0, 0.000383019)
shape = SubResource("BoxShape3D_fx4el")
