[gd_resource type="Environment" load_steps=2 format=3 uid="uid://b3s7lpgdvlxug"]

[ext_resource type="Sky" uid="uid://dm7a0icval0fy" path="res://assets/sky.tres" id="1_j504l"]

[resource]
background_mode = 2
background_energy_multiplier = 4.0
sky = ExtResource("1_j504l")
ambient_light_source = 2
ambient_light_color = Color(1, 1, 1, 1)
ambient_light_energy = 0.33
tonemap_mode = 2
tonemap_exposure = 0.6
fog_enabled = true
fog_light_color = Color(0.141176, 0.00392157, 0.223529, 1)
adjustment_brightness = 8.0
adjustment_contrast = 4.55
