[gd_resource type="Environment" load_steps=2 format=3 uid="uid://bi46opoj8q05s"]

[ext_resource type="Sky" uid="uid://dm7a0icval0fy" path="res://assets/sky.tres" id="1_fdwg6"]

[resource]
background_mode = 2
background_energy_multiplier = 3.0
sky = ExtResource("1_fdwg6")
sky_custom_fov = 57.0
ambient_light_source = 2
ambient_light_color = Color(1, 1, 1, 1)
ambient_light_energy = 0.2
tonemap_mode = 2
tonemap_exposure = 0.9
tonemap_white = 2.0
fog_enabled = true
fog_light_color = Color(0.108913, 0.0034, 0.17, 1)
fog_light_energy = 2.0
fog_density = 0.05
fog_sky_affect = 0.0
adjustment_brightness = 8.0
adjustment_contrast = 4.55
