# MagicaVoxel @ Ephtracy

# group
o 

# material
mtllib kwardium.mtl
usemtl palette

# normals
vn -1 0 0
vn 1 0 0
vn 0 0 1
vn 0 0 -1
vn 0 -1 0
vn 0 1 0

# texcoords
vt 0.0214844 0.5
vt 0.181641 0.5
vt 0.212891 0.5
vt 0.376953 0.5
vt 0.404297 0.5
vt 0.958984 0.5
vt 0.974609 0.5
vt 0.986328 0.5

# verts
v -4.6 0.5 0.5
v -4.6 0.5 -0.1
v -4.6 0.7 0.5
v -4.6 0.7 0.1
v -4.6 0.7 -0.1
v -4.6 0.9 0.3
v -4.6 0.9 0.1
v -4.6 1.1 0.1
v -4.6 1.1 -0.1
v -4.6 1.3 0.3
v -4.6 1.3 0.1
v -4.4 0.1 -0.3
v -4.4 0.1 -0.5
v -4.4 0.3 0.7
v -4.4 0.3 -0.3
v -4.4 0.5 0.7
v -4.4 0.5 0.5
v -4.4 0.5 -0.1
v -4.4 0.5 -0.3
v -4.4 0.5 -0.5
v -4.4 0.7 0.5
v -4.4 0.7 0.3
v -4.4 0.7 0.1
v -4.4 0.7 -0.1
v -4.4 0.7 -0.3
v -4.4 0.9 0.3
v -4.4 0.9 0.1
v -4.4 1.1 0.1
v -4.4 1.1 -0.1
v -4.4 1.3 0.5
v -4.4 1.3 0.3
v -4.4 1.3 0.1
v -4.4 1.3 -0.1
v -4.4 1.3 -0.3
v -4.4 1.5 0.3
v -4.4 1.5 0.1
v -4.4 1.5 -0.1
v -4.2 0.1 0.5
v -4.2 0.1 -0.3
v -4.2 0.3 0.5
v -4.2 0.3 -0.3
v -4.2 0.3 -0.5
v -4.2 0.3 -0.7
v -4.2 0.5 0.7
v -4.2 0.5 0.5
v -4.2 0.5 -0.3
v -4.2 0.5 -0.5
v -4.2 0.5 -0.7
v -4.2 0.7 0.7
v -4.2 0.7 0.5
v -4.2 0.7 -0.3
v -4.2 0.7 -0.5
v -4.2 0.9 0.7
v -4.2 0.9 0.5
v -4.2 1.1 0.7
v -4.2 1.1 0.5
v -4.2 1.1 -0.3
v -4.2 1.1 -0.5
v -4.2 1.3 0.5
v -4.2 1.3 0.3
v -4.2 1.3 -0.1
v -4.2 1.3 -0.3
v -4.2 1.5 0.5
v -4.2 1.5 0.3
v -4.2 1.5 0.1
v -4.2 1.5 -0.1
v -4.2 1.5 -0.3
v -4.2 1.7 0.3
v -4.2 1.7 -0.1
v -4 0.1 0.7
v -4 0.1 0.5
v -4 0.1 -0.3
v -4 0.1 -0.5
v -4 0.3 0.7
v -4 0.3 0.5
v -4 0.3 -0.3
v -4 0.3 -0.5
v -4 0.7 0.7
v -4 0.7 0.5
v -4 0.9 0.7
v -4 0.9 0.5
v -4 1.1 0.7
v -4 1.1 0.5
v -4 1.1 -0.3
v -4 1.1 -0.5
v -4 1.3 -0.3
v -4 1.3 -0.5
v -4 1.5 0.7
v -4 1.5 0.5
v -4 1.5 0.3
v -4 1.5 -0.1
v -4 1.5 -0.3
v -4 1.7 0.5
v -4 1.7 0.3
v -4 1.7 0.1
v -4 1.7 -0.1
v -4 1.7 -0.3
v -4 1.9 0.3
v -4 1.9 0.1
v -4 1.9 -0.1
v -3.6 0.3 -0.5
v -3.6 0.3 -0.7
v -3.6 0.5 -0.5
v -3.6 0.5 -0.7
v -4.2 0.1 -0.3
v -4.2 0.1 -0.5
v -4.2 0.3 -0.3
v -4.2 0.3 -0.5
v -4 0.3 -0.5
v -4 0.3 -0.7
v -4 0.5 -0.5
v -4 0.5 -0.7
v -3.8 0.1 -0.3
v -3.8 0.1 -0.5
v -3.8 0.3 -0.3
v -3.8 0.3 -0.5
v -3.8 0.7 0.7
v -3.8 0.7 0.5
v -3.8 0.7 -0.3
v -3.8 0.7 -0.5
v -3.8 0.9 0.7
v -3.8 0.9 0.5
v -3.8 0.9 -0.3
v -3.8 0.9 -0.5
v -3.8 1.3 0.7
v -3.8 1.3 0.5
v -3.8 1.5 0.7
v -3.8 1.5 0.5
v -3.8 1.5 0.3
v -3.8 1.5 -0.1
v -3.8 1.5 -0.3
v -3.8 1.7 0.5
v -3.8 1.7 0.3
v -3.8 1.7 0.1
v -3.8 1.7 -0.1
v -3.8 1.7 -0.3
v -3.8 1.9 0.3
v -3.8 1.9 0.1
v -3.8 1.9 -0.1
v -3.6 0.1 0.7
v -3.6 0.1 0.3
v -3.6 0.3 0.7
v -3.6 0.3 0.3
v -3.6 0.5 0.7
v -3.6 0.5 0.5
v -3.6 0.5 -0.3
v -3.6 0.5 -0.5
v -3.6 0.7 0.7
v -3.6 0.7 0.5
v -3.6 0.7 -0.3
v -3.6 0.7 -0.5
v -3.6 0.9 0.7
v -3.6 0.9 0.5
v -3.6 0.9 -0.3
v -3.6 0.9 -0.5
v -3.6 1.3 0.7
v -3.6 1.3 0.5
v -3.6 1.3 0.3
v -3.6 1.3 -0.1
v -3.6 1.3 -0.3
v -3.6 1.3 -0.5
v -3.6 1.5 0.5
v -3.6 1.5 0.3
v -3.6 1.5 0.1
v -3.6 1.5 -0.1
v -3.6 1.5 -0.3
v -3.6 1.7 0.3
v -3.6 1.7 -0.1
v -3.4 0.1 0.3
v -3.4 0.1 -0.3
v -3.4 0.3 0.3
v -3.4 0.3 -0.3
v -3.4 0.3 -0.7
v -3.4 0.5 -0.1
v -3.4 0.5 -0.3
v -3.4 0.5 -0.7
v -3.4 0.7 0.5
v -3.4 0.7 0.3
v -3.4 0.7 -0.1
v -3.4 0.7 -0.3
v -3.4 0.9 0.3
v -3.4 1.1 0.3
v -3.4 1.1 0.1
v -3.4 1.1 -0.1
v -3.4 1.3 0.5
v -3.4 1.3 0.3
v -3.4 1.3 0.1
v -3.4 1.3 -0.1
v -3.4 1.3 -0.3
v -3.4 1.5 0.3
v -3.4 1.5 0.1
v -3.4 1.5 -0.1
v -3.2 0.3 0.7
v -3.2 0.3 0.5
v -3.2 0.3 0.3
v -3.2 0.3 0.1
v -3.2 0.3 -0.1
v -3.2 0.3 -0.3
v -3.2 0.5 0.7
v -3.2 0.5 0.5
v -3.2 0.5 0.3
v -3.2 0.5 0.1
v -3.2 0.5 -0.1
v -3.2 0.5 -0.3
v -3.2 0.7 0.5
v -3.2 0.7 0.3
v -3.2 0.7 0.1
v -3.2 0.7 -0.1
v -3.2 0.9 0.3
v -3.2 0.9 0.1
v -3.2 1.1 0.3
v -3.2 1.1 0.1
v -3.2 1.1 -0.1
v -3.2 1.3 0.3
v -3.2 1.3 0.1
v -3 0.3 0.5
v -3 0.3 0.3
v -3 0.3 0.1
v -3 0.3 -0.1
v -3 0.5 0.5
v -3 0.5 0.3
v -3 0.5 0.1
v -3 0.5 -0.1
v -4.4 0.3 0.7
v -4.4 0.5 0.7
v -4.2 0.5 0.7
v -4.2 0.7 0.7
v -4.2 0.9 0.7
v -4.2 1.1 0.7
v -4 0.1 0.7
v -4 0.3 0.7
v -4 0.7 0.7
v -4 0.9 0.7
v -4 1.1 0.7
v -4 1.5 0.7
v -3.8 0.7 0.7
v -3.8 0.9 0.7
v -3.8 1.3 0.7
v -3.8 1.5 0.7
v -3.6 0.1 0.7
v -3.6 0.3 0.7
v -3.6 0.5 0.7
v -3.6 0.7 0.7
v -3.6 0.9 0.7
v -3.6 1.3 0.7
v -3.2 0.3 0.7
v -3.2 0.5 0.7
v -4.6 0.5 0.5
v -4.6 0.7 0.5
v -4.4 0.5 0.5
v -4.4 0.7 0.5
v -4.4 1.3 0.5
v -4.2 0.1 0.5
v -4.2 0.3 0.5
v -4.2 0.5 0.5
v -4.2 0.7 0.5
v -4.2 0.9 0.5
v -4.2 1.1 0.5
v -4.2 1.3 0.5
v -4.2 1.5 0.5
v -4 0.1 0.5
v -4 0.3 0.5
v -4 0.7 0.5
v -4 0.9 0.5
v -4 1.1 0.5
v -4 1.5 0.5
v -4 1.7 0.5
v -3.8 0.7 0.5
v -3.8 0.9 0.5
v -3.8 1.3 0.5
v -3.8 1.5 0.5
v -3.8 1.7 0.5
v -3.6 0.5 0.5
v -3.6 0.7 0.5
v -3.6 0.9 0.5
v -3.6 1.3 0.5
v -3.6 1.5 0.5
v -3.4 0.7 0.5
v -3.4 1.3 0.5
v -3.2 0.3 0.5
v -3.2 0.5 0.5
v -3.2 0.7 0.5
v -3 0.3 0.5
v -3 0.5 0.5
v -4.6 0.9 0.3
v -4.6 1.3 0.3
v -4.4 0.9 0.3
v -4.4 1.3 0.3
v -4.4 1.5 0.3
v -4.2 1.3 0.3
v -4.2 1.5 0.3
v -4.2 1.7 0.3
v -4 1.5 0.3
v -4 1.7 0.3
v -4 1.9 0.3
v -3.8 1.5 0.3
v -3.8 1.7 0.3
v -3.8 1.9 0.3
v -3.6 0.1 0.3
v -3.6 0.3 0.3
v -3.6 1.3 0.3
v -3.6 1.5 0.3
v -3.6 1.7 0.3
v -3.4 0.1 0.3
v -3.4 0.3 0.3
v -3.4 0.7 0.3
v -3.4 0.9 0.3
v -3.4 1.1 0.3
v -3.4 1.3 0.3
v -3.4 1.5 0.3
v -3.2 0.7 0.3
v -3.2 0.9 0.3
v -3.2 1.1 0.3
v -3.2 1.3 0.3
v -4.6 0.7 0.1
v -4.6 0.9 0.1
v -4.4 0.7 0.1
v -4.4 0.9 0.1
v -3.2 0.3 0.1
v -3.2 0.5 0.1
v -3 0.3 0.1
v -3 0.5 0.1
v -4.4 0.1 -0.3
v -4.4 0.3 -0.3
v -4.2 0.1 -0.3
v -4.2 0.3 -0.3
v -3.2 0.3 0.3
v -3.2 0.5 0.3
v -3 0.3 0.3
v -3 0.5 0.3
v -4.6 1.1 0.1
v -4.6 1.3 0.1
v -4.4 1.1 0.1
v -4.4 1.3 0.1
v -3.4 1.1 0.1
v -3.4 1.3 0.1
v -3.2 1.1 0.1
v -3.2 1.3 0.1
v -4.6 0.5 -0.1
v -4.6 0.7 -0.1
v -4.6 1.1 -0.1
v -4.4 0.5 -0.1
v -4.4 0.7 -0.1
v -4.4 1.1 -0.1
v -4.4 1.3 -0.1
v -4.4 1.5 -0.1
v -4.2 1.3 -0.1
v -4.2 1.5 -0.1
v -4.2 1.7 -0.1
v -4 1.5 -0.1
v -4 1.7 -0.1
v -4 1.9 -0.1
v -3.8 1.5 -0.1
v -3.8 1.7 -0.1
v -3.8 1.9 -0.1
v -3.6 1.3 -0.1
v -3.6 1.5 -0.1
v -3.6 1.7 -0.1
v -3.4 0.5 -0.1
v -3.4 0.7 -0.1
v -3.4 1.1 -0.1
v -3.4 1.3 -0.1
v -3.4 1.5 -0.1
v -3.2 0.3 -0.1
v -3.2 0.5 -0.1
v -3.2 0.7 -0.1
v -3.2 1.1 -0.1
v -3 0.3 -0.1
v -3 0.5 -0.1
v -4.4 0.5 -0.3
v -4.4 0.7 -0.3
v -4.4 1.3 -0.3
v -4.2 0.1 -0.3
v -4.2 0.3 -0.3
v -4.2 0.5 -0.3
v -4.2 0.7 -0.3
v -4.2 1.1 -0.3
v -4.2 1.3 -0.3
v -4.2 1.5 -0.3
v -4 0.1 -0.3
v -4 0.3 -0.3
v -4 1.1 -0.3
v -4 1.3 -0.3
v -4 1.5 -0.3
v -4 1.7 -0.3
v -3.8 0.1 -0.3
v -3.8 0.3 -0.3
v -3.8 0.7 -0.3
v -3.8 0.9 -0.3
v -3.8 1.3 -0.3
v -3.8 1.5 -0.3
v -3.8 1.7 -0.3
v -3.6 0.5 -0.3
v -3.6 0.7 -0.3
v -3.6 0.9 -0.3
v -3.6 1.3 -0.3
v -3.6 1.5 -0.3
v -3.4 0.1 -0.3
v -3.4 0.3 -0.3
v -3.4 0.5 -0.3
v -3.4 0.7 -0.3
v -3.4 1.3 -0.3
v -3.2 0.3 -0.3
v -3.2 0.5 -0.3
v -4.4 0.1 -0.5
v -4.4 0.5 -0.5
v -4.2 0.1 -0.5
v -4.2 0.3 -0.5
v -4.2 0.5 -0.5
v -4.2 0.7 -0.5
v -4.2 1.1 -0.5
v -4 0.1 -0.5
v -4 0.3 -0.5
v -4 0.5 -0.5
v -4 0.7 -0.5
v -4 1.1 -0.5
v -4 1.3 -0.5
v -3.8 0.1 -0.5
v -3.8 0.3 -0.5
v -3.8 0.7 -0.5
v -3.8 0.9 -0.5
v -3.6 0.3 -0.5
v -3.6 0.5 -0.5
v -3.6 0.7 -0.5
v -3.6 0.9 -0.5
v -3.6 1.3 -0.5
v -4.2 0.3 -0.7
v -4.2 0.5 -0.7
v -4 0.3 -0.7
v -4 0.5 -0.7
v -3.6 0.3 -0.7
v -3.6 0.5 -0.7
v -3.4 0.3 -0.7
v -3.4 0.5 -0.7
v -4 0.1 0.7
v -3.6 0.1 0.7
v -4.2 0.1 0.5
v -4 0.1 0.5
v -3.6 0.1 0.3
v -3.4 0.1 0.3
v -4.4 0.1 -0.3
v -4.2 0.1 -0.3
v -4 0.1 -0.3
v -3.8 0.1 -0.3
v -3.4 0.1 -0.3
v -4.4 0.1 -0.5
v -4.2 0.1 -0.5
v -4 0.1 -0.5
v -3.8 0.1 -0.5
v -4.4 0.3 0.7
v -4 0.3 0.7
v -3.6 0.3 0.7
v -3.2 0.3 0.7
v -4.2 0.3 0.5
v -4 0.3 0.5
v -3.2 0.3 0.5
v -3 0.3 0.5
v -3.6 0.3 0.3
v -3.4 0.3 0.3
v -3.2 0.3 0.3
v -3 0.3 0.3
v -3.2 0.3 0.1
v -3 0.3 0.1
v -3.2 0.3 -0.1
v -3 0.3 -0.1
v -4.4 0.3 -0.3
v -4.2 0.3 -0.3
v -4 0.3 -0.3
v -3.8 0.3 -0.3
v -3.4 0.3 -0.3
v -3.2 0.3 -0.3
v -4.2 0.3 -0.5
v -4 0.3 -0.5
v -3.8 0.3 -0.5
v -3.6 0.3 -0.5
v -4.2 0.3 -0.7
v -4 0.3 -0.7
v -3.6 0.3 -0.7
v -3.4 0.3 -0.7
v -4.6 0.5 0.5
v -4.4 0.5 0.5
v -4.6 0.5 -0.1
v -4.4 0.5 -0.1
v -4.2 0.9 0.7
v -4 0.9 0.7
v -3.8 0.9 0.7
v -3.6 0.9 0.7
v -4.2 0.9 0.5
v -4 0.9 0.5
v -3.8 0.9 0.5
v -3.6 0.9 0.5
v -4.6 0.9 0.3
v -4.4 0.9 0.3
v -4.6 0.9 0.1
v -4.4 0.9 0.1
v -3.8 0.9 -0.3
v -3.6 0.9 -0.3
v -3.8 0.9 -0.5
v -3.6 0.9 -0.5
v -4.4 0.5 0.7
v -4.2 0.5 0.7
v -3.6 0.5 0.7
v -3.2 0.5 0.7
v -4.4 0.5 0.5
v -4.2 0.5 0.5
v -3.6 0.5 0.5
v -3.2 0.5 0.5
v -3 0.5 0.5
v -3.2 0.5 0.3
v -3 0.5 0.3
v -3.2 0.5 0.1
v -3 0.5 0.1
v -3.4 0.5 -0.1
v -3.2 0.5 -0.1
v -3 0.5 -0.1
v -4.4 0.5 -0.3
v -4.2 0.5 -0.3
v -3.6 0.5 -0.3
v -3.4 0.5 -0.3
v -3.2 0.5 -0.3
v -4.4 0.5 -0.5
v -4.2 0.5 -0.5
v -4 0.5 -0.5
v -3.6 0.5 -0.5
v -4.2 0.5 -0.7
v -4 0.5 -0.7
v -3.6 0.5 -0.7
v -3.4 0.5 -0.7
v -4.2 0.7 0.7
v -4 0.7 0.7
v -3.8 0.7 0.7
v -3.6 0.7 0.7
v -4.6 0.7 0.5
v -4.4 0.7 0.5
v -4.2 0.7 0.5
v -4 0.7 0.5
v -3.8 0.7 0.5
v -3.6 0.7 0.5
v -3.4 0.7 0.5
v -3.2 0.7 0.5
v -4.4 0.7 0.3
v -3.4 0.7 0.3
v -3.2 0.7 0.3
v -4.6 0.7 0.1
v -4.4 0.7 0.1
v -3.8 0.7 -0.3
v -3.6 0.7 -0.3
v -3.8 0.7 -0.5
v -3.6 0.7 -0.5
v -4.2 1.1 0.7
v -4 1.1 0.7
v -4.2 1.1 0.5
v -4 1.1 0.5
v -4.6 1.1 0.1
v -4.4 1.1 0.1
v -3.4 1.1 0.1
v -3.2 1.1 0.1
v -4.6 1.1 -0.1
v -4.4 1.1 -0.1
v -3.4 1.1 -0.1
v -3.2 1.1 -0.1
v -4.2 1.1 -0.3
v -4 1.1 -0.3
v -4.2 1.1 -0.5
v -4 1.1 -0.5
v -3.8 1.3 0.7
v -3.6 1.3 0.7
v -4.4 1.3 0.5
v -4.2 1.3 0.5
v -3.8 1.3 0.5
v -3.6 1.3 0.5
v -3.4 1.3 0.5
v -4.6 1.3 0.3
v -4.4 1.3 0.3
v -4.2 1.3 0.3
v -3.6 1.3 0.3
v -3.4 1.3 0.3
v -3.2 1.3 0.3
v -4.6 1.3 0.1
v -4.4 1.3 0.1
v -3.4 1.3 0.1
v -3.2 1.3 0.1
v -4.4 1.3 -0.1
v -4.2 1.3 -0.1
v -3.6 1.3 -0.1
v -3.4 1.3 -0.1
v -4.4 1.3 -0.3
v -4.2 1.3 -0.3
v -4 1.3 -0.3
v -3.8 1.3 -0.3
v -3.6 1.3 -0.3
v -3.4 1.3 -0.3
v -4 1.3 -0.5
v -3.6 1.3 -0.5
v -4 1.5 0.7
v -3.8 1.5 0.7
v -4.2 1.5 0.5
v -4 1.5 0.5
v -3.8 1.5 0.5
v -3.6 1.5 0.5
v -4.4 1.5 0.3
v -4.2 1.5 0.3
v -4 1.5 0.3
v -3.8 1.5 0.3
v -3.6 1.5 0.3
v -3.4 1.5 0.3
v -4.4 1.5 0.1
v -4.2 1.5 0.1
v -3.6 1.5 0.1
v -3.4 1.5 0.1
v -4.4 1.5 -0.1
v -4.2 1.5 -0.1
v -4 1.5 -0.1
v -3.8 1.5 -0.1
v -3.6 1.5 -0.1
v -3.4 1.5 -0.1
v -4.2 1.5 -0.3
v -4 1.5 -0.3
v -3.8 1.5 -0.3
v -3.6 1.5 -0.3
v -4 1.7 0.5
v -3.8 1.7 0.5
v -4.2 1.7 0.3
v -4 1.7 0.3
v -3.8 1.7 0.3
v -3.6 1.7 0.3
v -4 1.7 0.1
v -3.8 1.7 0.1
v -4.2 1.7 -0.1
v -4 1.7 -0.1
v -3.8 1.7 -0.1
v -3.6 1.7 -0.1
v -4 1.7 -0.3
v -3.8 1.7 -0.3
v -4 1.9 0.3
v -3.8 1.9 0.3
v -4 1.9 0.1
v -3.8 1.9 0.1
v -4 1.9 -0.1
v -3.8 1.9 -0.1

# faces
f 3/8/1 2/8/1 1/8/1
f 4/8/1 2/8/1 3/8/1
f 5/8/1 2/8/1 4/8/1
f 7/6/1 5/6/1 4/6/1
f 8/6/1 5/6/1 7/6/1
f 8/6/1 7/6/1 6/6/1
f 9/6/1 5/6/1 8/6/1
f 10/6/1 8/6/1 6/6/1
f 11/6/1 8/6/1 10/6/1
f 15/8/1 13/8/1 12/8/1
f 16/8/1 15/8/1 14/8/1
f 17/8/1 15/8/1 16/8/1
f 18/8/1 15/8/1 17/8/1
f 19/8/1 13/8/1 15/8/1
f 19/8/1 15/8/1 18/8/1
f 20/8/1 13/8/1 19/8/1
f 24/8/1 19/8/1 18/8/1
f 25/8/1 19/8/1 24/8/1
f 26/6/1 23/6/1 22/6/1
f 26/7/1 22/7/1 21/7/1
f 27/6/1 23/6/1 26/6/1
f 29/7/1 25/7/1 24/7/1
f 30/7/1 26/7/1 21/7/1
f 31/7/1 26/7/1 30/7/1
f 32/6/1 29/6/1 28/6/1
f 33/7/1 25/7/1 29/7/1
f 33/6/1 29/6/1 32/6/1
f 34/7/1 25/7/1 33/7/1
f 35/7/1 32/7/1 31/7/1
f 36/6/1 33/6/1 32/6/1
f 36/7/1 32/7/1 35/7/1
f 37/6/1 33/6/1 36/6/1
f 40/8/1 39/8/1 38/8/1
f 41/8/1 39/8/1 40/8/1
f 47/8/1 43/8/1 42/8/1
f 48/8/1 43/8/1 47/8/1
f 49/8/1 45/8/1 44/8/1
f 50/8/1 45/8/1 49/8/1
f 51/8/1 47/8/1 46/8/1
f 52/8/1 47/8/1 51/8/1
f 55/6/1 54/6/1 53/6/1
f 56/6/1 54/6/1 55/6/1
f 57/6/1 52/6/1 51/6/1
f 58/6/1 52/6/1 57/6/1
f 63/6/1 60/6/1 59/6/1
f 64/6/1 60/6/1 63/6/1
f 66/6/1 62/6/1 61/6/1
f 67/6/1 62/6/1 66/6/1
f 68/6/1 65/6/1 64/6/1
f 68/6/1 66/6/1 65/6/1
f 69/6/1 66/6/1 68/6/1
f 74/8/1 71/8/1 70/8/1
f 75/8/1 71/8/1 74/8/1
f 76/8/1 73/8/1 72/8/1
f 77/8/1 73/8/1 76/8/1
f 80/6/1 79/6/1 78/6/1
f 81/6/1 79/6/1 80/6/1
f 86/7/1 85/7/1 84/7/1
f 87/7/1 85/7/1 86/7/1
f 88/6/1 83/6/1 82/6/1
f 89/6/1 83/6/1 88/6/1
f 93/6/1 90/6/1 89/6/1
f 94/6/1 90/6/1 93/6/1
f 96/6/1 92/6/1 91/6/1
f 97/6/1 92/6/1 96/6/1
f 98/6/1 95/6/1 94/6/1
f 99/7/1 96/7/1 95/7/1
f 99/6/1 95/6/1 98/6/1
f 100/7/1 96/7/1 99/7/1
f 103/8/1 102/8/1 101/8/1
f 104/8/1 102/8/1 103/8/1
f 105/8/2 106/8/2 107/8/2
f 107/8/2 106/8/2 108/8/2
f 109/8/2 110/8/2 111/8/2
f 111/8/2 110/8/2 112/8/2
f 113/8/2 114/8/2 115/8/2
f 115/8/2 114/8/2 116/8/2
f 117/6/2 118/6/2 121/6/2
f 121/6/2 118/6/2 122/6/2
f 119/7/2 120/7/2 123/7/2
f 123/7/2 120/7/2 124/7/2
f 125/6/2 126/6/2 127/6/2
f 127/6/2 126/6/2 128/6/2
f 128/6/2 129/6/2 132/6/2
f 132/6/2 129/6/2 133/6/2
f 130/6/2 131/6/2 135/6/2
f 135/6/2 131/6/2 136/6/2
f 133/6/2 134/6/2 137/6/2
f 134/7/2 135/7/2 138/7/2
f 137/6/2 134/6/2 138/6/2
f 138/7/2 135/7/2 139/7/2
f 140/8/2 141/8/2 142/8/2
f 142/8/2 141/8/2 143/8/2
f 144/8/2 145/8/2 148/8/2
f 148/8/2 145/8/2 149/8/2
f 146/8/2 147/8/2 150/8/2
f 150/8/2 147/8/2 151/8/2
f 152/7/2 153/7/2 156/7/2
f 156/7/2 153/7/2 157/7/2
f 154/7/2 155/7/2 160/7/2
f 160/7/2 155/7/2 161/7/2
f 157/7/2 158/7/2 162/7/2
f 162/7/2 158/7/2 163/7/2
f 159/7/2 160/7/2 165/7/2
f 165/7/2 160/7/2 166/7/2
f 163/7/2 164/7/2 167/7/2
f 164/7/2 165/7/2 167/7/2
f 167/7/2 165/7/2 168/7/2
f 169/8/2 170/8/2 171/8/2
f 171/8/2 170/8/2 172/8/2
f 172/8/2 173/8/2 175/8/2
f 175/8/2 173/8/2 176/8/2
f 174/8/2 175/8/2 179/8/2
f 179/8/2 175/8/2 180/8/2
f 177/6/2 178/6/2 181/6/2
f 177/6/2 181/6/2 182/6/2
f 179/6/2 180/6/2 184/6/2
f 177/6/2 182/6/2 185/6/2
f 185/6/2 182/6/2 186/6/2
f 183/6/2 184/6/2 187/6/2
f 184/6/2 180/6/2 188/6/2
f 187/6/2 184/6/2 188/6/2
f 188/6/2 180/6/2 189/6/2
f 186/7/2 187/7/2 190/7/2
f 187/6/2 188/6/2 191/6/2
f 190/7/2 187/7/2 191/7/2
f 191/6/2 188/6/2 192/6/2
f 193/8/2 194/8/2 199/8/2
f 199/8/2 194/8/2 200/8/2
f 195/8/2 196/8/2 201/8/2
f 201/8/2 196/8/2 202/8/2
f 197/8/2 198/8/2 203/8/2
f 203/8/2 198/8/2 204/8/2
f 201/8/2 202/8/2 205/8/2
f 202/8/2 203/8/2 205/8/2
f 200/8/2 201/8/2 205/8/2
f 205/8/2 203/8/2 206/8/2
f 206/8/2 203/8/2 207/8/2
f 207/8/2 203/8/2 208/8/2
f 206/8/2 207/8/2 209/8/2
f 207/7/2 208/7/2 210/7/2
f 209/8/2 207/8/2 210/8/2
f 209/7/2 210/7/2 211/7/2
f 210/7/2 208/7/2 212/7/2
f 211/7/2 210/7/2 212/7/2
f 212/7/2 208/7/2 213/7/2
f 211/6/2 212/6/2 214/6/2
f 214/6/2 212/6/2 215/6/2
f 216/8/2 217/8/2 220/8/2
f 220/8/2 217/8/2 221/8/2
f 218/8/2 219/8/2 222/8/2
f 222/8/2 219/8/2 223/8/2
f 226/8/3 225/8/3 224/8/3
f 231/8/3 226/8/3 224/8/3
f 231/8/3 227/8/3 226/8/3
f 232/8/3 227/8/3 231/8/3
f 233/6/3 229/6/3 228/6/3
f 234/6/3 229/6/3 233/6/3
f 236/8/3 232/8/3 231/8/3
f 236/6/3 235/6/3 234/6/3
f 236/6/3 234/6/3 233/6/3
f 236/6/3 233/6/3 232/6/3
f 236/8/3 231/8/3 230/8/3
f 237/6/3 235/6/3 236/6/3
f 238/6/3 235/6/3 237/6/3
f 239/6/3 235/6/3 238/6/3
f 240/8/3 236/8/3 230/8/3
f 241/8/3 236/8/3 240/8/3
f 242/8/3 236/8/3 241/8/3
f 243/8/3 236/8/3 242/8/3
f 244/7/3 238/7/3 237/7/3
f 245/7/3 238/7/3 244/7/3
f 246/8/3 242/8/3 241/8/3
f 247/8/3 242/8/3 246/8/3
f 250/8/3 249/8/3 248/8/3
f 251/8/3 249/8/3 250/8/3
f 255/7/3 251/7/3 250/7/3
f 255/7/3 252/7/3 251/7/3
f 256/7/3 252/7/3 255/7/3
f 257/7/3 252/7/3 256/7/3
f 258/7/3 252/7/3 257/7/3
f 259/7/3 252/7/3 258/7/3
f 261/8/3 254/8/3 253/8/3
f 262/8/3 254/8/3 261/8/3
f 263/6/3 257/6/3 256/6/3
f 264/6/3 257/6/3 263/6/3
f 265/6/3 260/6/3 259/6/3
f 265/6/3 259/6/3 258/6/3
f 266/6/3 260/6/3 265/6/3
f 271/6/3 267/6/3 266/6/3
f 272/6/3 267/6/3 271/6/3
f 274/6/3 269/6/3 268/6/3
f 275/6/3 269/6/3 274/6/3
f 276/7/3 271/7/3 270/7/3
f 277/7/3 271/7/3 276/7/3
f 278/6/3 275/6/3 274/6/3
f 278/8/3 274/8/3 273/8/3
f 278/6/3 276/6/3 275/6/3
f 279/6/3 276/6/3 278/6/3
f 281/8/3 278/8/3 273/8/3
f 282/8/3 278/8/3 281/8/3
f 283/8/3 281/8/3 280/8/3
f 284/8/3 281/8/3 283/8/3
f 287/6/3 286/6/3 285/6/3
f 288/6/3 286/6/3 287/6/3
f 290/7/3 289/7/3 288/7/3
f 291/7/3 289/7/3 290/7/3
f 293/6/3 292/6/3 291/6/3
f 294/6/3 292/6/3 293/6/3
f 297/6/3 295/6/3 294/6/3
f 298/6/3 295/6/3 297/6/3
f 302/7/3 297/7/3 296/7/3
f 303/7/3 297/7/3 302/7/3
f 304/8/3 300/8/3 299/8/3
f 305/8/3 300/8/3 304/8/3
f 309/7/3 302/7/3 301/7/3
f 310/7/3 302/7/3 309/7/3
f 311/8/3 307/8/3 306/8/3
f 312/7/3 308/7/3 307/7/3
f 312/8/3 307/8/3 311/8/3
f 313/6/3 309/6/3 308/6/3
f 313/7/3 308/7/3 312/7/3
f 314/6/3 309/6/3 313/6/3
f 317/6/3 316/6/3 315/6/3
f 318/6/3 316/6/3 317/6/3
f 321/8/3 320/8/3 319/8/3
f 322/8/3 320/8/3 321/8/3
f 325/8/3 324/8/3 323/8/3
f 326/8/3 324/8/3 325/8/3
f 327/8/4 328/8/4 329/8/4
f 329/8/4 328/8/4 330/8/4
f 331/6/4 332/6/4 333/6/4
f 333/6/4 332/6/4 334/6/4
f 335/6/4 336/6/4 337/6/4
f 337/6/4 336/6/4 338/6/4
f 339/8/4 340/8/4 342/8/4
f 340/6/4 341/6/4 343/6/4
f 342/8/4 340/8/4 343/8/4
f 343/6/4 341/6/4 344/6/4
f 345/6/4 346/6/4 347/6/4
f 347/6/4 346/6/4 348/6/4
f 348/6/4 349/6/4 350/6/4
f 350/6/4 349/6/4 351/6/4
f 351/7/4 352/7/4 354/7/4
f 354/7/4 352/7/4 355/7/4
f 353/7/4 354/7/4 357/7/4
f 357/7/4 354/7/4 358/7/4
f 356/6/4 357/6/4 362/6/4
f 362/6/4 357/6/4 363/6/4
f 359/8/4 360/8/4 365/8/4
f 360/7/4 361/7/4 366/7/4
f 365/8/4 360/8/4 366/8/4
f 366/7/4 361/7/4 367/7/4
f 364/8/4 365/8/4 368/8/4
f 368/8/4 365/8/4 369/8/4
f 370/8/4 371/8/4 375/8/4
f 371/7/4 372/7/4 376/7/4
f 375/8/4 371/8/4 376/8/4
f 376/7/4 372/7/4 377/7/4
f 377/7/4 372/7/4 378/7/4
f 373/8/4 374/8/4 380/8/4
f 380/8/4 374/8/4 381/8/4
f 378/6/4 379/6/4 382/6/4
f 377/6/4 378/6/4 382/6/4
f 382/6/4 379/6/4 383/6/4
f 383/6/4 379/6/4 384/6/4
f 384/6/4 385/6/4 390/6/4
f 383/6/4 384/6/4 390/6/4
f 390/6/4 385/6/4 391/6/4
f 391/6/4 385/6/4 392/6/4
f 388/6/4 389/6/4 394/6/4
f 394/6/4 389/6/4 395/6/4
f 390/7/4 391/7/4 396/7/4
f 396/7/4 391/7/4 397/7/4
f 386/8/4 387/8/4 398/8/4
f 398/8/4 387/8/4 399/8/4
f 393/8/4 394/8/4 400/8/4
f 394/6/4 395/6/4 401/6/4
f 395/6/4 396/6/4 401/6/4
f 400/8/4 394/8/4 401/8/4
f 401/6/4 396/6/4 402/6/4
f 399/8/4 400/8/4 403/8/4
f 403/8/4 400/8/4 404/8/4
f 405/8/4 406/8/4 407/8/4
f 407/8/4 406/8/4 408/8/4
f 408/8/4 406/8/4 409/8/4
f 409/8/4 410/8/4 414/8/4
f 410/6/4 411/6/4 415/6/4
f 414/8/4 410/8/4 415/8/4
f 415/6/4 411/6/4 416/6/4
f 413/8/4 414/8/4 418/8/4
f 412/8/4 413/8/4 418/8/4
f 414/8/4 415/8/4 418/8/4
f 418/8/4 415/8/4 419/8/4
f 416/7/4 417/7/4 420/7/4
f 419/8/4 415/8/4 420/8/4
f 415/7/4 416/7/4 420/7/4
f 420/7/4 417/7/4 421/7/4
f 419/8/4 420/8/4 422/8/4
f 422/8/4 420/8/4 423/8/4
f 423/8/4 420/8/4 424/8/4
f 421/7/4 417/7/4 425/7/4
f 425/7/4 417/7/4 426/7/4
f 427/8/4 428/8/4 429/8/4
f 429/8/4 428/8/4 430/8/4
f 431/8/4 432/8/4 433/8/4
f 433/8/4 432/8/4 434/8/4
f 438/8/5 436/8/5 435/8/5
f 439/8/5 436/8/5 438/8/5
f 439/8/5 438/8/5 437/8/5
f 442/8/5 439/8/5 437/8/5
f 442/8/5 440/8/5 439/8/5
f 443/8/5 440/8/5 442/8/5
f 444/8/5 440/8/5 443/8/5
f 445/8/5 440/8/5 444/8/5
f 446/8/5 442/8/5 441/8/5
f 447/8/5 442/8/5 446/8/5
f 448/8/5 444/8/5 443/8/5
f 449/8/5 444/8/5 448/8/5
f 454/8/5 451/8/5 450/8/5
f 455/8/5 451/8/5 454/8/5
f 456/8/5 453/8/5 452/8/5
f 458/8/5 457/8/5 456/8/5
f 458/8/5 456/8/5 452/8/5
f 459/8/5 457/8/5 458/8/5
f 460/8/5 457/8/5 459/8/5
f 461/8/5 457/8/5 460/8/5
f 462/8/5 460/8/5 459/8/5
f 464/8/5 462/8/5 459/8/5
f 464/8/5 463/8/5 462/8/5
f 465/8/5 463/8/5 464/8/5
f 466/8/5 454/8/5 450/8/5
f 467/8/5 454/8/5 466/8/5
f 470/8/5 464/8/5 459/8/5
f 471/8/5 464/8/5 470/8/5
f 472/8/5 468/8/5 467/8/5
f 473/8/5 468/8/5 472/8/5
f 474/8/5 470/8/5 469/8/5
f 475/8/5 470/8/5 474/8/5
f 476/8/5 473/8/5 472/8/5
f 477/8/5 473/8/5 476/8/5
f 478/8/5 470/8/5 475/8/5
f 479/8/5 470/8/5 478/8/5
f 482/8/5 481/8/5 480/8/5
f 483/8/5 481/8/5 482/8/5
f 488/6/5 485/6/5 484/6/5
f 489/6/5 485/6/5 488/6/5
f 490/7/5 487/7/5 486/7/5
f 491/7/5 487/7/5 490/7/5
f 494/6/5 493/6/5 492/6/5
f 495/6/5 493/6/5 494/6/5
f 498/7/5 497/7/5 496/7/5
f 499/7/5 497/7/5 498/7/5
f 500/8/6 501/8/6 504/8/6
f 504/8/6 501/8/6 505/8/6
f 502/8/6 503/8/6 506/8/6
f 506/8/6 503/8/6 507/8/6
f 507/8/6 508/8/6 509/8/6
f 509/8/6 508/8/6 510/8/6
f 511/8/6 512/8/6 514/8/6
f 514/8/6 512/8/6 515/8/6
f 513/8/6 514/8/6 519/8/6
f 519/8/6 514/8/6 520/8/6
f 516/8/6 517/8/6 521/8/6
f 521/8/6 517/8/6 522/8/6
f 518/8/6 519/8/6 524/8/6
f 522/8/6 523/8/6 525/8/6
f 525/8/6 523/8/6 526/8/6
f 524/8/6 519/8/6 527/8/6
f 527/8/6 519/8/6 528/8/6
f 529/8/6 530/8/6 535/8/6
f 535/8/6 530/8/6 536/8/6
f 531/8/6 532/8/6 537/8/6
f 537/8/6 532/8/6 538/8/6
f 533/8/6 534/8/6 541/8/6
f 539/8/6 540/8/6 542/8/6
f 542/8/6 540/8/6 543/8/6
f 533/8/6 541/8/6 544/8/6
f 544/8/6 541/8/6 545/8/6
f 546/8/6 547/8/6 548/8/6
f 548/8/6 547/8/6 549/8/6
f 550/6/6 551/6/6 552/6/6
f 552/6/6 551/6/6 553/6/6
f 554/6/6 555/6/6 558/6/6
f 558/6/6 555/6/6 559/6/6
f 556/7/6 557/7/6 560/7/6
f 560/7/6 557/7/6 561/7/6
f 562/6/6 563/6/6 564/6/6
f 564/6/6 563/6/6 565/6/6
f 566/7/6 567/7/6 570/7/6
f 570/7/6 567/7/6 571/7/6
f 568/7/6 569/7/6 574/7/6
f 574/7/6 569/7/6 575/7/6
f 571/6/6 572/6/6 576/6/6
f 576/6/6 572/6/6 577/6/6
f 573/6/6 574/6/6 579/6/6
f 579/6/6 574/6/6 580/6/6
f 577/6/6 578/6/6 581/6/6
f 581/6/6 578/6/6 582/6/6
f 583/7/6 584/7/6 587/7/6
f 587/7/6 584/7/6 588/7/6
f 585/6/6 586/6/6 591/6/6
f 591/6/6 586/6/6 592/6/6
f 589/7/6 590/7/6 593/7/6
f 590/7/6 591/7/6 593/7/6
f 593/7/6 591/7/6 594/7/6
f 595/6/6 596/6/6 598/6/6
f 598/6/6 596/6/6 599/6/6
f 597/6/6 598/6/6 602/6/6
f 602/6/6 598/6/6 603/6/6
f 599/7/6 600/7/6 604/7/6
f 604/7/6 600/7/6 605/7/6
f 601/7/6 602/7/6 607/7/6
f 607/7/6 602/7/6 608/7/6
f 605/7/6 606/7/6 609/7/6
f 609/7/6 606/7/6 610/7/6
f 607/6/6 608/6/6 611/6/6
f 611/6/6 608/6/6 612/6/6
f 609/6/6 610/6/6 615/6/6
f 615/6/6 610/6/6 616/6/6
f 612/6/6 613/6/6 617/6/6
f 617/6/6 613/6/6 618/6/6
f 614/7/6 615/7/6 619/7/6
f 619/7/6 615/7/6 620/7/6
f 621/6/6 622/6/6 624/6/6
f 624/6/6 622/6/6 625/6/6
f 623/6/6 624/6/6 627/6/6
f 625/7/6 626/7/6 628/7/6
f 623/6/6 627/6/6 629/6/6
f 629/6/6 627/6/6 630/6/6
f 628/7/6 626/7/6 631/7/6
f 631/7/6 626/7/6 632/7/6
f 630/6/6 631/6/6 633/6/6
f 633/6/6 631/6/6 634/6/6
f 635/6/6 636/6/6 637/6/6
f 637/6/6 636/6/6 638/6/6
f 637/7/6 638/7/6 639/7/6
f 639/7/6 638/7/6 640/7/6
