# MagicaVoxel @ Ephtracy

# group
o 

# material
mtllib ruby.mtl
usemtl palette

# normals
vn -1 0 0
vn 1 0 0
vn 0 0 1
vn 0 0 -1
vn 0 -1 0
vn 0 1 0

# texcoords
vt 0.759766 0.5
vt 0.763672 0.5
vt 0.970703 0.5

# verts
v -1.3 0.4 0.7
v -1.3 0.4 -1.1
v -1.3 0.6 -0.5
v -1.3 0.6 -0.7
v -1.3 0.8 -0.3
v -1.3 0.8 -0.5
v -1.3 0.8 -0.7
v -1.3 1 -0.1
v -1.3 1 -0.3
v -1.3 1 -0.5
v -1.3 1.2 0.1
v -1.3 1.2 -0.1
v -1.3 1.2 -0.3
v -1.3 1.2 -0.9
v -1.3 1.2 -1.1
v -1.3 1.4 0.3
v -1.3 1.4 0.1
v -1.3 1.4 -0.1
v -1.3 1.6 0.3
v -1.3 1.6 0.1
v -1.3 1.8 0.7
v -1.3 1.8 0.5
v -1.3 1.8 -0.7
v -1.3 1.8 -0.9
v -1.3 2 0.5
v -1.3 2 0.3
v -1.3 2 -0.5
v -1.3 2 -0.7
v -1.3 2.2 0.3
v -1.3 2.2 0.1
v -1.3 2.2 -0.3
v -1.3 2.2 -0.5
v -1.3 2.4 0.1
v -1.3 2.4 -0.3
v -1.1 0.2 0.7
v -1.1 0.2 -1.1
v -1.1 0.4 0.9
v -1.1 0.4 0.7
v -1.1 0.4 -1.1
v -1.1 0.4 -1.3
v -1.1 1.2 -0.9
v -1.1 1.2 -1.1
v -1.1 1.4 -1.1
v -1.1 1.4 -1.3
v -1.1 1.6 -0.9
v -1.1 1.6 -1.1
v -1.1 1.8 0.9
v -1.1 1.8 0.7
v -1.1 1.8 0.5
v -1.1 1.8 -0.7
v -1.1 1.8 -0.9
v -1.1 2 0.7
v -1.1 2 0.5
v -1.1 2 0.3
v -1.1 2 -0.5
v -1.1 2 -0.7
v -1.1 2 -0.9
v -1.1 2.2 0.5
v -1.1 2.2 0.3
v -1.1 2.2 0.1
v -1.1 2.2 -0.3
v -1.1 2.2 -0.5
v -1.1 2.2 -0.7
v -1.1 2.4 0.3
v -1.1 2.4 0.1
v -1.1 2.4 -0.3
v -1.1 2.4 -0.5
v -1.1 2.6 0.1
v -1.1 2.6 -0.3
v -0.9 0.2 1.1
v -0.9 0.2 0.7
v -0.9 0.2 -1.1
v -0.9 0.2 -1.5
v -0.9 0.4 0.9
v -0.9 0.4 0.7
v -0.9 0.4 -1.1
v -0.9 0.4 -1.3
v -0.9 0.6 1.1
v -0.9 0.6 0.9
v -0.9 0.8 1.1
v -0.9 0.8 0.9
v -0.9 1.4 -1.1
v -0.9 1.4 -1.3
v -0.9 1.6 1.1
v -0.9 1.6 0.9
v -0.9 1.6 -0.9
v -0.9 1.6 -1.1
v -0.9 1.6 -1.3
v -0.9 1.6 -1.5
v -0.9 1.8 1.1
v -0.9 1.8 0.9
v -0.9 1.8 0.7
v -0.9 1.8 -0.9
v -0.9 1.8 -1.1
v -0.9 1.8 -1.3
v -0.9 2 0.9
v -0.9 2 0.7
v -0.9 2 0.5
v -0.9 2 -0.7
v -0.9 2 -0.9
v -0.9 2 -1.1
v -0.9 2.2 0.7
v -0.9 2.2 0.5
v -0.9 2.2 0.3
v -0.9 2.2 -0.5
v -0.9 2.2 -0.7
v -0.9 2.2 -0.9
v -0.9 2.4 0.5
v -0.9 2.4 0.3
v -0.9 2.4 0.1
v -0.9 2.4 -0.3
v -0.9 2.4 -0.5
v -0.9 2.4 -0.7
v -0.9 2.6 0.3
v -0.9 2.6 0.1
v -0.9 2.6 -0.3
v -0.9 2.6 -0.5
v -0.9 2.8 0.1
v -0.9 2.8 -0.3
v -0.7 0 1.1
v -0.7 0 -1.5
v -0.7 0.2 1.1
v -0.7 0.2 -1.5
v -0.7 0.4 -1.5
v -0.7 0.4 -1.7
v -0.7 1.2 -1.5
v -0.7 1.2 -1.7
v -0.5 0.2 -1.5
v -0.5 0.2 -1.7
v -0.5 0.4 -1.5
v -0.5 0.4 -1.7
v -0.5 1.2 -1.5
v -0.5 1.2 -1.7
v -0.5 1.4 -1.5
v -0.5 1.4 -1.7
v 0.3 0.2 -1.5
v 0.3 0.2 -1.7
v 0.3 0.4 -1.5
v 0.3 0.4 -1.7
v 0.3 1.2 -1.5
v 0.3 1.2 -1.7
v 0.3 1.4 -1.5
v 0.3 1.4 -1.7
v 0.5 0 1.1
v 0.5 0 -1.5
v 0.5 0.2 1.1
v 0.5 0.2 -1.5
v 0.5 0.4 -1.5
v 0.5 0.4 -1.7
v 0.5 0.6 -1.5
v 0.5 0.6 -1.7
v 0.5 1.2 -1.5
v 0.5 1.2 -1.7
v 0.7 0.2 1.1
v 0.7 0.2 0.7
v 0.7 0.2 -1.1
v 0.7 0.2 -1.5
v 0.7 0.4 0.9
v 0.7 0.4 0.7
v 0.7 0.4 -1.1
v 0.7 0.4 -1.3
v 0.7 1.6 1.1
v 0.7 1.6 0.9
v 0.7 1.6 -1.1
v 0.7 1.6 -1.3
v 0.7 1.6 -1.5
v 0.7 1.8 1.1
v 0.7 1.8 0.9
v 0.7 1.8 0.7
v 0.7 1.8 -0.9
v 0.7 1.8 -1.1
v 0.7 1.8 -1.3
v 0.7 2 0.9
v 0.7 2 0.7
v 0.7 2 0.5
v 0.7 2 -0.7
v 0.7 2 -0.9
v 0.7 2 -1.1
v 0.7 2.2 0.7
v 0.7 2.2 0.5
v 0.7 2.2 0.3
v 0.7 2.2 -0.5
v 0.7 2.2 -0.7
v 0.7 2.2 -0.9
v 0.7 2.4 0.5
v 0.7 2.4 0.3
v 0.7 2.4 0.1
v 0.7 2.4 -0.3
v 0.7 2.4 -0.5
v 0.7 2.4 -0.7
v 0.7 2.6 0.3
v 0.7 2.6 0.1
v 0.7 2.6 -0.3
v 0.7 2.6 -0.5
v 0.7 2.8 0.1
v 0.7 2.8 -0.3
v 0.9 0.2 0.7
v 0.9 0.2 -1.1
v 0.9 0.4 0.9
v 0.9 0.4 0.7
v 0.9 0.4 0.5
v 0.9 0.4 -0.9
v 0.9 0.4 -1.1
v 0.9 0.4 -1.3
v 0.9 0.6 0.7
v 0.9 0.6 0.5
v 0.9 0.6 -0.9
v 0.9 0.6 -1.1
v 0.9 1.6 -0.9
v 0.9 1.6 -1.1
v 0.9 1.6 -1.3
v 0.9 1.8 0.9
v 0.9 1.8 0.7
v 0.9 1.8 0.5
v 0.9 1.8 -0.7
v 0.9 1.8 -0.9
v 0.9 1.8 -1.1
v 0.9 2 0.7
v 0.9 2 0.5
v 0.9 2 0.3
v 0.9 2 -0.5
v 0.9 2 -0.7
v 0.9 2 -0.9
v 0.9 2.2 0.5
v 0.9 2.2 0.3
v 0.9 2.2 0.1
v 0.9 2.2 -0.3
v 0.9 2.2 -0.5
v 0.9 2.2 -0.7
v 0.9 2.4 0.3
v 0.9 2.4 0.1
v 0.9 2.4 -0.3
v 0.9 2.4 -0.5
v 0.9 2.6 0.1
v 0.9 2.6 -0.3
v 1.1 0.4 0.5
v 1.1 0.4 -0.9
v 1.1 0.6 0.7
v 1.1 0.6 0.5
v 1.1 0.6 -0.3
v 1.1 0.6 -0.5
v 1.1 0.6 -0.9
v 1.1 0.6 -1.1
v 1.1 0.8 -0.1
v 1.1 0.8 -0.3
v 1.1 0.8 -0.5
v 1.1 1 0.1
v 1.1 1 -0.1
v 1.1 1 -0.3
v 1.1 1.2 0.3
v 1.1 1.2 0.1
v 1.1 1.2 -0.1
v 1.1 1.2 -0.5
v 1.1 1.2 -0.7
v 1.1 1.4 0.5
v 1.1 1.4 0.3
v 1.1 1.4 0.1
v 1.1 1.4 -0.3
v 1.1 1.4 -0.5
v 1.1 1.4 -0.7
v 1.1 1.6 0.5
v 1.1 1.6 0.3
v 1.1 1.6 -0.1
v 1.1 1.6 -0.3
v 1.1 1.6 -0.5
v 1.1 1.6 -0.9
v 1.1 1.6 -1.1
v 1.1 1.8 0.7
v 1.1 1.8 0.5
v 1.1 1.8 -0.1
v 1.1 1.8 -0.3
v 1.1 1.8 -0.7
v 1.1 1.8 -0.9
v 1.1 2 0.5
v 1.1 2 0.3
v 1.1 2 -0.5
v 1.1 2 -0.7
v 1.1 2.2 0.3
v 1.1 2.2 0.1
v 1.1 2.2 -0.3
v 1.1 2.2 -0.5
v 1.1 2.4 0.1
v 1.1 2.4 -0.3
v -0.9 0.2 1.1
v -0.9 0.6 1.1
v -0.9 0.8 1.1
v -0.9 1.6 1.1
v -0.9 1.8 1.1
v -0.7 0 1.1
v -0.7 0.2 1.1
v -0.7 0.4 1.1
v -0.7 0.6 1.1
v -0.7 0.8 1.1
v -0.7 1 1.1
v -0.5 0.2 1.1
v -0.5 0.4 1.1
v -0.5 0.6 1.1
v -0.5 0.8 1.1
v -0.5 1 1.1
v -0.5 1.2 1.1
v -0.3 0.4 1.1
v -0.3 0.6 1.1
v -0.3 0.8 1.1
v -0.3 1 1.1
v -0.3 1.2 1.1
v -0.3 1.4 1.1
v -0.0999999 0.6 1.1
v -0.0999999 0.8 1.1
v -0.0999999 1 1.1
v -0.0999999 1.2 1.1
v -0.0999999 1.4 1.1
v 0.1 0.8 1.1
v 0.1 1 1.1
v 0.1 1.2 1.1
v 0.3 1 1.1
v 0.3 1.2 1.1
v 0.3 1.4 1.1
v 0.5 0 1.1
v 0.5 0.2 1.1
v 0.5 1.2 1.1
v 0.5 1.4 1.1
v 0.7 0.2 1.1
v 0.7 1.6 1.1
v 0.7 1.8 1.1
v -1.1 0.4 0.9
v -1.1 1.8 0.9
v -0.9 0.4 0.9
v -0.9 0.6 0.9
v -0.9 0.8 0.9
v -0.9 1.6 0.9
v -0.9 1.8 0.9
v -0.9 2 0.9
v -0.5 1.8 0.9
v -0.5 2 0.9
v -0.3 1.8 0.9
v -0.3 2 0.9
v 0.7 0.4 0.9
v 0.7 1.6 0.9
v 0.7 1.8 0.9
v 0.7 2 0.9
v 0.9 0.4 0.9
v 0.9 1.8 0.9
v -1.3 0.4 0.7
v -1.3 1.8 0.7
v -1.1 0.2 0.7
v -1.1 0.4 0.7
v -1.1 1.8 0.7
v -1.1 2 0.7
v -0.9 0.2 0.7
v -0.9 0.4 0.7
v -0.9 1.8 0.7
v -0.9 2 0.7
v -0.9 2.2 0.7
v -0.5 2 0.7
v -0.3 2 0.7
v -0.3 2.2 0.7
v -0.0999999 2 0.7
v -0.0999999 2.2 0.7
v 0.7 0.2 0.7
v 0.7 0.4 0.7
v 0.7 1.8 0.7
v 0.7 2 0.7
v 0.7 2.2 0.7
v 0.9 0.2 0.7
v 0.9 0.4 0.7
v 0.9 0.6 0.7
v 0.9 1.8 0.7
v 0.9 2 0.7
v 1.1 0.6 0.7
v 1.1 1.8 0.7
v -1.3 1.8 0.5
v -1.3 2 0.5
v -1.1 1.8 0.5
v -1.1 2 0.5
v -1.1 2.2 0.5
v -0.9 2 0.5
v -0.9 2.2 0.5
v -0.9 2.4 0.5
v -0.3 2.2 0.5
v -0.0999999 2.2 0.5
v -0.0999999 2.4 0.5
v 0.1 2.2 0.5
v 0.1 2.4 0.5
v 0.7 2 0.5
v 0.7 2.2 0.5
v 0.7 2.4 0.5
v 0.9 0.4 0.5
v 0.9 0.6 0.5
v 0.9 1.8 0.5
v 0.9 2 0.5
v 0.9 2.2 0.5
v 1.1 0.4 0.5
v 1.1 0.6 0.5
v 1.1 1.8 0.5
v 1.1 2 0.5
v -1.3 2 0.3
v -1.3 2.2 0.3
v -1.1 2 0.3
v -1.1 2.2 0.3
v -1.1 2.4 0.3
v -0.9 2.2 0.3
v -0.9 2.4 0.3
v -0.9 2.6 0.3
v -0.0999999 2.4 0.3
v 0.1 2.4 0.3
v 0.7 2.2 0.3
v 0.7 2.4 0.3
v 0.7 2.6 0.3
v 0.9 2 0.3
v 0.9 2.2 0.3
v 0.9 2.4 0.3
v 1.1 2 0.3
v 1.1 2.2 0.3
v -1.3 2.2 0.1
v -1.3 2.4 0.1
v -1.1 2.2 0.1
v -1.1 2.4 0.1
v -1.1 2.6 0.1
v -0.9 2.4 0.1
v -0.9 2.6 0.1
v -0.9 2.8 0.1
v 0.7 2.4 0.1
v 0.7 2.6 0.1
v 0.7 2.8 0.1
v 0.9 2.2 0.1
v 0.9 2.4 0.1
v 0.9 2.6 0.1
v 1.1 2.2 0.1
v 1.1 2.4 0.1
v -1.3 2.2 -0.3
v -1.3 2.4 -0.3
v -1.1 2.2 -0.3
v -1.1 2.4 -0.3
v -1.1 2.6 -0.3
v -0.9 2.4 -0.3
v -0.9 2.6 -0.3
v -0.9 2.8 -0.3
v -0.7 2.6 -0.3
v -0.5 2.6 -0.3
v -0.5 2.8 -0.3
v -0.3 2.6 -0.3
v -0.3 2.8 -0.3
v -0.0999999 2.6 -0.3
v 0.7 2.4 -0.3
v 0.7 2.6 -0.3
v 0.7 2.8 -0.3
v 0.9 2.2 -0.3
v 0.9 2.4 -0.3
v 0.9 2.6 -0.3
v 1.1 2.2 -0.3
v 1.1 2.4 -0.3
v -1.3 2 -0.5
v -1.3 2.2 -0.5
v -1.1 2 -0.5
v -1.1 2.2 -0.5
v -1.1 2.4 -0.5
v -0.9 2.2 -0.5
v -0.9 2.4 -0.5
v -0.9 2.6 -0.5
v -0.7 2.4 -0.5
v -0.7 2.6 -0.5
v -0.5 2.4 -0.5
v -0.3 2.4 -0.5
v -0.3 2.6 -0.5
v -0.0999999 2.4 -0.5
v -0.0999999 2.6 -0.5
v 0.1 2.4 -0.5
v 0.7 2.2 -0.5
v 0.7 2.4 -0.5
v 0.7 2.6 -0.5
v 0.9 2 -0.5
v 0.9 2.2 -0.5
v 0.9 2.4 -0.5
v 1.1 2 -0.5
v 1.1 2.2 -0.5
v -1.3 1.8 -0.7
v -1.3 2 -0.7
v -1.1 1.8 -0.7
v -1.1 2 -0.7
v -1.1 2.2 -0.7
v -0.9 2 -0.7
v -0.9 2.2 -0.7
v -0.9 2.4 -0.7
v -0.7 2.2 -0.7
v -0.7 2.4 -0.7
v -0.5 2.2 -0.7
v -0.5 2.4 -0.7
v -0.3 2.2 -0.7
v -0.0999999 2.2 -0.7
v -0.0999999 2.4 -0.7
v 0.1 2.2 -0.7
v 0.1 2.4 -0.7
v 0.3 2.2 -0.7
v 0.7 2 -0.7
v 0.7 2.2 -0.7
v 0.7 2.4 -0.7
v 0.9 1.8 -0.7
v 0.9 2 -0.7
v 0.9 2.2 -0.7
v 1.1 1.8 -0.7
v 1.1 2 -0.7
v -1.3 1.2 -0.9
v -1.3 1.8 -0.9
v -1.1 1.2 -0.9
v -1.1 1.6 -0.9
v -1.1 1.8 -0.9
v -1.1 2 -0.9
v -0.9 1.6 -0.9
v -0.9 1.8 -0.9
v -0.9 2 -0.9
v -0.9 2.2 -0.9
v -0.7 2 -0.9
v -0.5 2 -0.9
v -0.5 2.2 -0.9
v -0.3 2 -0.9
v -0.3 2.2 -0.9
v -0.0999999 2 -0.9
v 0.1 2 -0.9
v 0.1 2.2 -0.9
v 0.3 2 -0.9
v 0.3 2.2 -0.9
v 0.5 2 -0.9
v 0.7 1.8 -0.9
v 0.7 2 -0.9
v 0.7 2.2 -0.9
v 0.9 0.4 -0.9
v 0.9 0.6 -0.9
v 0.9 1.6 -0.9
v 0.9 1.8 -0.9
v 0.9 2 -0.9
v 1.1 0.4 -0.9
v 1.1 0.6 -0.9
v 1.1 1.6 -0.9
v 1.1 1.8 -0.9
v -1.3 0.4 -1.1
v -1.3 1.2 -1.1
v -1.1 0.2 -1.1
v -1.1 0.4 -1.1
v -1.1 1.2 -1.1
v -1.1 1.4 -1.1
v -1.1 1.6 -1.1
v -0.9 0.2 -1.1
v -0.9 0.4 -1.1
v -0.9 1.4 -1.1
v -0.9 1.6 -1.1
v -0.9 1.8 -1.1
v -0.9 2 -1.1
v -0.7 1.8 -1.1
v -0.7 2 -1.1
v -0.3 1.8 -1.1
v -0.3 2 -1.1
v -0.0999999 1.8 -1.1
v -0.0999999 2 -1.1
v 0.3 1.8 -1.1
v 0.3 2 -1.1
v 0.5 1.8 -1.1
v 0.5 2 -1.1
v 0.7 0.2 -1.1
v 0.7 0.4 -1.1
v 0.7 1.6 -1.1
v 0.7 1.8 -1.1
v 0.7 2 -1.1
v 0.9 0.2 -1.1
v 0.9 0.4 -1.1
v 0.9 0.6 -1.1
v 0.9 1.6 -1.1
v 0.9 1.8 -1.1
v 1.1 0.6 -1.1
v 1.1 1.6 -1.1
v -1.1 0.4 -1.3
v -1.1 1.4 -1.3
v -0.9 0.4 -1.3
v -0.9 1.4 -1.3
v -0.9 1.6 -1.3
v -0.9 1.8 -1.3
v 0.7 0.4 -1.3
v 0.7 1.6 -1.3
v 0.7 1.8 -1.3
v 0.9 0.4 -1.3
v 0.9 1.6 -1.3
v -0.9 0.2 -1.5
v -0.9 1.6 -1.5
v -0.7 0 -1.5
v -0.7 0.2 -1.5
v -0.7 0.4 -1.5
v -0.7 1.2 -1.5
v -0.5 0.2 -1.5
v -0.5 0.4 -1.5
v -0.5 1.2 -1.5
v -0.5 1.4 -1.5
v -0.3 1.4 -1.5
v -0.0999999 0.2 -1.5
v 0.1 0.2 -1.5
v 0.3 0.2 -1.5
v 0.3 0.4 -1.5
v 0.3 1.2 -1.5
v 0.3 1.4 -1.5
v 0.5 0 -1.5
v 0.5 0.2 -1.5
v 0.5 0.4 -1.5
v 0.5 0.6 -1.5
v 0.5 1.2 -1.5
v 0.7 0.2 -1.5
v 0.7 1.6 -1.5
v -0.7 0.4 -1.7
v -0.7 1.2 -1.7
v -0.5 0.2 -1.7
v -0.5 0.4 -1.7
v -0.5 0.6 -1.7
v -0.5 0.8 -1.7
v -0.5 1.2 -1.7
v -0.5 1.4 -1.7
v -0.3 0.4 -1.7
v -0.3 0.6 -1.7
v -0.3 0.8 -1.7
v -0.3 1 -1.7
v -0.3 1.2 -1.7
v -0.3 1.4 -1.7
v -0.0999999 0.2 -1.7
v -0.0999999 0.4 -1.7
v -0.0999999 0.6 -1.7
v -0.0999999 0.8 -1.7
v -0.0999999 1 -1.7
v -0.0999999 1.2 -1.7
v 0.1 0.2 -1.7
v 0.1 0.4 -1.7
v 0.1 0.6 -1.7
v 0.1 0.8 -1.7
v 0.1 1 -1.7
v 0.3 0.2 -1.7
v 0.3 0.4 -1.7
v 0.3 0.6 -1.7
v 0.3 0.8 -1.7
v 0.3 1.2 -1.7
v 0.3 1.4 -1.7
v 0.5 0.4 -1.7
v 0.5 0.6 -1.7
v 0.5 1.2 -1.7
v -0.7 0 1.1
v 0.5 0 1.1
v -0.7 0 -1.5
v 0.5 0 -1.5
v -0.9 0.2 1.1
v -0.7 0.2 1.1
v 0.5 0.2 1.1
v 0.7 0.2 1.1
v -1.1 0.2 0.7
v -0.9 0.2 0.7
v 0.7 0.2 0.7
v 0.9 0.2 0.7
v -1.1 0.2 -1.1
v -0.9 0.2 -1.1
v 0.7 0.2 -1.1
v 0.9 0.2 -1.1
v -0.9 0.2 -1.5
v -0.7 0.2 -1.5
v -0.5 0.2 -1.5
v -0.0999999 0.2 -1.5
v 0.1 0.2 -1.5
v 0.3 0.2 -1.5
v 0.5 0.2 -1.5
v 0.7 0.2 -1.5
v -0.5 0.2 -1.7
v -0.0999999 0.2 -1.7
v 0.1 0.2 -1.7
v 0.3 0.2 -1.7
v -1.1 0.4 0.9
v -0.9 0.4 0.9
v 0.7 0.4 0.9
v 0.9 0.4 0.9
v -1.3 0.4 0.7
v -1.1 0.4 0.7
v -0.9 0.4 0.7
v 0.7 0.4 0.7
v 0.9 0.4 0.7
v 0.9 0.4 0.5
v 1.1 0.4 0.5
v 0.9 0.4 -0.9
v 1.1 0.4 -0.9
v -1.3 0.4 -1.1
v -1.1 0.4 -1.1
v -0.9 0.4 -1.1
v 0.7 0.4 -1.1
v 0.9 0.4 -1.1
v -1.1 0.4 -1.3
v -0.9 0.4 -1.3
v 0.7 0.4 -1.3
v 0.9 0.4 -1.3
v -0.7 0.4 -1.5
v -0.5 0.4 -1.5
v 0.3 0.4 -1.5
v 0.5 0.4 -1.5
v -0.7 0.4 -1.7
v -0.5 0.4 -1.7
v 0.3 0.4 -1.7
v 0.5 0.4 -1.7
v 0.9 0.6 0.7
v 1.1 0.6 0.7
v 0.9 0.6 0.5
v 1.1 0.6 0.5
v 0.9 0.6 -0.9
v 1.1 0.6 -0.9
v 0.9 0.6 -1.1
v 1.1 0.6 -1.1
v -1.3 1.2 -0.9
v -1.1 1.2 -0.9
v -1.3 1.2 -1.1
v -1.1 1.2 -1.1
v -0.7 1.2 -1.5
v -0.5 1.2 -1.5
v 0.3 1.2 -1.5
v 0.5 1.2 -1.5
v -0.7 1.2 -1.7
v -0.5 1.2 -1.7
v 0.3 1.2 -1.7
v 0.5 1.2 -1.7
v -1.1 1.4 -1.1
v -0.9 1.4 -1.1
v -1.1 1.4 -1.3
v -0.9 1.4 -1.3
v -0.5 1.4 -1.5
v -0.3 1.4 -1.5
v 0.3 1.4 -1.5
v -0.5 1.4 -1.7
v -0.3 1.4 -1.7
v 0.3 1.4 -1.7
v -1.1 1.6 -0.9
v -0.9 1.6 -0.9
v 0.9 1.6 -0.9
v 1.1 1.6 -0.9
v -1.1 1.6 -1.1
v -0.9 1.6 -1.1
v 0.7 1.6 -1.1
v 0.9 1.6 -1.1
v 1.1 1.6 -1.1
v -0.9 1.6 -1.3
v 0.7 1.6 -1.3
v 0.9 1.6 -1.3
v -0.9 1.6 -1.5
v 0.7 1.6 -1.5
v -0.9 1.8 1.1
v 0.7 1.8 1.1
v -1.1 1.8 0.9
v -0.9 1.8 0.9
v -0.5 1.8 0.9
v -0.3 1.8 0.9
v 0.7 1.8 0.9
v 0.9 1.8 0.9
v -1.3 1.8 0.7
v -1.1 1.8 0.7
v -0.9 1.8 0.7
v 0.7 1.8 0.7
v 0.9 1.8 0.7
v 1.1 1.8 0.7
v -1.3 1.8 0.5
v -1.1 1.8 0.5
v 0.9 1.8 0.5
v 1.1 1.8 0.5
v -1.3 1.8 -0.7
v -1.1 1.8 -0.7
v 0.9 1.8 -0.7
v 1.1 1.8 -0.7
v -1.3 1.8 -0.9
v -1.1 1.8 -0.9
v 0.7 1.8 -0.9
v 0.9 1.8 -0.9
v 1.1 1.8 -0.9
v -0.9 1.8 -1.1
v -0.7 1.8 -1.1
v -0.3 1.8 -1.1
v -0.0999999 1.8 -1.1
v 0.3 1.8 -1.1
v 0.5 1.8 -1.1
v 0.7 1.8 -1.1
v 0.9 1.8 -1.1
v -0.9 1.8 -1.3
v 0.7 1.8 -1.3
v -0.9 2 0.9
v -0.5 2 0.9
v -0.3 2 0.9
v 0.7 2 0.9
v -1.1 2 0.7
v -0.9 2 0.7
v -0.5 2 0.7
v -0.3 2 0.7
v -0.0999999 2 0.7
v 0.7 2 0.7
v 0.9 2 0.7
v -1.3 2 0.5
v -1.1 2 0.5
v -0.9 2 0.5
v 0.7 2 0.5
v 0.9 2 0.5
v 1.1 2 0.5
v -1.3 2 0.3
v -1.1 2 0.3
v 0.9 2 0.3
v 1.1 2 0.3
v -1.3 2 -0.5
v -1.1 2 -0.5
v 0.9 2 -0.5
v 1.1 2 -0.5
v -1.3 2 -0.7
v -1.1 2 -0.7
v -0.9 2 -0.7
v 0.7 2 -0.7
v 0.9 2 -0.7
v 1.1 2 -0.7
v -1.1 2 -0.9
v -0.9 2 -0.9
v -0.7 2 -0.9
v -0.5 2 -0.9
v -0.3 2 -0.9
v -0.0999999 2 -0.9
v 0.1 2 -0.9
v 0.3 2 -0.9
v 0.5 2 -0.9
v 0.7 2 -0.9
v 0.9 2 -0.9
v -0.9 2 -1.1
v -0.7 2 -1.1
v -0.3 2 -1.1
v -0.0999999 2 -1.1
v 0.3 2 -1.1
v 0.5 2 -1.1
v 0.7 2 -1.1
v -0.9 2.2 0.7
v -0.3 2.2 0.7
v -0.0999999 2.2 0.7
v 0.7 2.2 0.7
v -1.1 2.2 0.5
v -0.9 2.2 0.5
v -0.3 2.2 0.5
v -0.0999999 2.2 0.5
v 0.1 2.2 0.5
v 0.7 2.2 0.5
v 0.9 2.2 0.5
v -1.3 2.2 0.3
v -1.1 2.2 0.3
v -0.9 2.2 0.3
v 0.7 2.2 0.3
v 0.9 2.2 0.3
v 1.1 2.2 0.3
v -1.3 2.2 0.1
v -1.1 2.2 0.1
v 0.9 2.2 0.1
v 1.1 2.2 0.1
v -1.3 2.2 -0.3
v -1.1 2.2 -0.3
v 0.9 2.2 -0.3
v 1.1 2.2 -0.3
v -1.3 2.2 -0.5
v -1.1 2.2 -0.5
v -0.9 2.2 -0.5
v 0.7 2.2 -0.5
v 0.9 2.2 -0.5
v 1.1 2.2 -0.5
v -1.1 2.2 -0.7
v -0.9 2.2 -0.7
v -0.7 2.2 -0.7
v -0.5 2.2 -0.7
v -0.3 2.2 -0.7
v -0.0999999 2.2 -0.7
v 0.1 2.2 -0.7
v 0.3 2.2 -0.7
v 0.7 2.2 -0.7
v 0.9 2.2 -0.7
v -0.9 2.2 -0.9
v -0.5 2.2 -0.9
v -0.3 2.2 -0.9
v 0.1 2.2 -0.9
v 0.3 2.2 -0.9
v 0.7 2.2 -0.9
v -0.9 2.4 0.5
v -0.0999999 2.4 0.5
v 0.1 2.4 0.5
v 0.7 2.4 0.5
v -1.1 2.4 0.3
v -0.9 2.4 0.3
v -0.0999999 2.4 0.3
v 0.1 2.4 0.3
v 0.7 2.4 0.3
v 0.9 2.4 0.3
v -1.3 2.4 0.1
v -1.1 2.4 0.1
v -0.9 2.4 0.1
v 0.7 2.4 0.1
v 0.9 2.4 0.1
v 1.1 2.4 0.1
v -1.3 2.4 -0.3
v -1.1 2.4 -0.3
v -0.9 2.4 -0.3
v 0.7 2.4 -0.3
v 0.9 2.4 -0.3
v 1.1 2.4 -0.3
v -1.1 2.4 -0.5
v -0.9 2.4 -0.5
v -0.7 2.4 -0.5
v -0.5 2.4 -0.5
v -0.3 2.4 -0.5
v -0.0999999 2.4 -0.5
v 0.1 2.4 -0.5
v 0.7 2.4 -0.5
v 0.9 2.4 -0.5
v -0.9 2.4 -0.7
v -0.7 2.4 -0.7
v -0.5 2.4 -0.7
v -0.0999999 2.4 -0.7
v 0.1 2.4 -0.7
v 0.7 2.4 -0.7
v -0.9 2.6 0.3
v 0.7 2.6 0.3
v -1.1 2.6 0.1
v -0.9 2.6 0.1
v 0.7 2.6 0.1
v 0.9 2.6 0.1
v -1.1 2.6 -0.3
v -0.9 2.6 -0.3
v -0.7 2.6 -0.3
v -0.5 2.6 -0.3
v -0.3 2.6 -0.3
v -0.0999999 2.6 -0.3
v 0.7 2.6 -0.3
v 0.9 2.6 -0.3
v -0.9 2.6 -0.5
v -0.7 2.6 -0.5
v -0.3 2.6 -0.5
v -0.0999999 2.6 -0.5
v 0.7 2.6 -0.5
v -0.9 2.8 0.1
v 0.7 2.8 0.1
v -0.5 2.8 -0.1
v -0.3 2.8 -0.1
v -0.9 2.8 -0.3
v -0.5 2.8 -0.3
v -0.3 2.8 -0.3
v 0.7 2.8 -0.3

# faces
f 3/2/1 2/2/1 1/2/1
f 4/2/1 2/2/1 3/2/1
f 5/2/1 3/2/1 1/2/1
f 6/3/1 4/3/1 3/3/1
f 6/2/1 3/2/1 5/2/1
f 7/2/1 2/2/1 4/2/1
f 7/3/1 4/3/1 6/3/1
f 8/2/1 5/2/1 1/2/1
f 9/3/1 6/3/1 5/3/1
f 9/2/1 5/2/1 8/2/1
f 10/2/1 7/2/1 6/2/1
f 10/3/1 6/3/1 9/3/1
f 11/2/1 8/2/1 1/2/1
f 12/3/1 9/3/1 8/3/1
f 12/2/1 8/2/1 11/2/1
f 13/2/1 10/2/1 9/2/1
f 13/3/1 9/3/1 12/3/1
f 14/2/1 7/2/1 10/2/1
f 14/2/1 10/2/1 13/2/1
f 14/2/1 2/2/1 7/2/1
f 15/2/1 2/2/1 14/2/1
f 16/2/1 11/2/1 1/2/1
f 17/3/1 12/3/1 11/3/1
f 17/2/1 11/2/1 16/2/1
f 18/2/1 13/2/1 12/2/1
f 18/3/1 12/3/1 17/3/1
f 18/2/1 14/2/1 13/2/1
f 19/3/1 17/3/1 16/3/1
f 19/2/1 16/2/1 1/2/1
f 20/2/1 18/2/1 17/2/1
f 20/3/1 17/3/1 19/3/1
f 21/2/1 19/2/1 1/2/1
f 21/2/1 20/2/1 19/2/1
f 22/2/1 20/2/1 21/2/1
f 23/2/1 14/2/1 18/2/1
f 23/2/1 20/2/1 22/2/1
f 23/2/1 18/2/1 20/2/1
f 24/2/1 14/2/1 23/2/1
f 25/2/1 23/2/1 22/2/1
f 26/2/1 23/2/1 25/2/1
f 27/2/1 23/2/1 26/2/1
f 28/2/1 23/2/1 27/2/1
f 29/2/1 27/2/1 26/2/1
f 30/2/1 27/2/1 29/2/1
f 31/2/1 27/2/1 30/2/1
f 32/2/1 27/2/1 31/2/1
f 33/2/1 31/2/1 30/2/1
f 34/2/1 31/2/1 33/2/1
f 38/1/1 36/1/1 35/1/1
f 39/1/1 36/1/1 38/1/1
f 42/1/1 40/1/1 39/1/1
f 43/1/1 40/1/1 42/1/1
f 43/1/1 42/1/1 41/1/1
f 44/1/1 40/1/1 43/1/1
f 45/1/1 43/1/1 41/1/1
f 46/1/1 43/1/1 45/1/1
f 47/1/1 38/1/1 37/1/1
f 48/1/1 38/1/1 47/1/1
f 52/1/1 49/1/1 48/1/1
f 53/1/1 49/1/1 52/1/1
f 56/1/1 51/1/1 50/1/1
f 57/1/1 51/1/1 56/1/1
f 58/1/1 54/1/1 53/1/1
f 59/1/1 54/1/1 58/1/1
f 62/1/1 56/1/1 55/1/1
f 63/1/1 56/1/1 62/1/1
f 64/1/1 60/1/1 59/1/1
f 65/1/1 60/1/1 64/1/1
f 66/1/1 62/1/1 61/1/1
f 67/1/1 62/1/1 66/1/1
f 68/1/1 66/1/1 65/1/1
f 69/1/1 66/1/1 68/1/1
f 74/2/1 71/2/1 70/2/1
f 75/2/1 71/2/1 74/2/1
f 76/2/1 73/2/1 72/2/1
f 77/2/1 73/2/1 76/2/1
f 78/2/1 74/2/1 70/2/1
f 79/2/1 74/2/1 78/2/1
f 80/3/1 79/3/1 78/3/1
f 81/3/1 79/3/1 80/3/1
f 83/2/1 73/2/1 77/2/1
f 84/2/1 81/2/1 80/2/1
f 85/2/1 81/2/1 84/2/1
f 87/2/1 83/2/1 82/2/1
f 88/2/1 73/2/1 83/2/1
f 88/2/1 83/2/1 87/2/1
f 89/2/1 73/2/1 88/2/1
f 90/1/1 85/1/1 84/1/1
f 91/1/1 85/1/1 90/1/1
f 93/2/1 87/2/1 86/2/1
f 94/1/1 88/1/1 87/1/1
f 94/2/1 87/2/1 93/2/1
f 95/1/1 88/1/1 94/1/1
f 96/2/1 92/2/1 91/2/1
f 97/2/1 92/2/1 96/2/1
f 100/3/1 94/3/1 93/3/1
f 101/3/1 94/3/1 100/3/1
f 102/1/1 98/1/1 97/1/1
f 103/1/1 98/1/1 102/1/1
f 106/1/1 100/1/1 99/1/1
f 107/1/1 100/1/1 106/1/1
f 108/2/1 104/2/1 103/2/1
f 109/2/1 104/2/1 108/2/1
f 112/2/1 106/2/1 105/2/1
f 113/2/1 106/2/1 112/2/1
f 114/1/1 110/1/1 109/1/1
f 115/1/1 110/1/1 114/1/1
f 116/3/1 112/3/1 111/3/1
f 117/3/1 112/3/1 116/3/1
f 118/2/1 116/2/1 115/2/1
f 119/2/1 116/2/1 118/2/1
f 122/2/1 121/2/1 120/2/1
f 123/2/1 121/2/1 122/2/1
f 126/1/1 125/1/1 124/1/1
f 127/1/1 125/1/1 126/1/1
f 130/1/1 129/1/1 128/1/1
f 131/1/1 129/1/1 130/1/1
f 134/3/1 133/3/1 132/3/1
f 135/3/1 133/3/1 134/3/1
f 136/1/2 137/1/2 138/1/2
f 138/1/2 137/1/2 139/1/2
f 140/1/2 141/1/2 142/1/2
f 142/1/2 141/1/2 143/1/2
f 144/2/2 145/2/2 146/2/2
f 146/2/2 145/2/2 147/2/2
f 148/3/2 149/3/2 150/3/2
f 150/3/2 149/3/2 151/3/2
f 150/1/2 151/1/2 152/1/2
f 152/1/2 151/1/2 153/1/2
f 154/2/2 155/2/2 158/2/2
f 158/2/2 155/2/2 159/2/2
f 156/2/2 157/2/2 160/2/2
f 160/2/2 157/2/2 161/2/2
f 154/2/2 158/2/2 162/2/2
f 162/2/2 158/2/2 163/2/2
f 161/2/2 157/2/2 165/2/2
f 165/2/2 157/2/2 166/2/2
f 162/1/2 163/1/2 167/1/2
f 167/1/2 163/1/2 168/1/2
f 164/1/2 165/1/2 171/1/2
f 171/1/2 165/1/2 172/1/2
f 168/2/2 169/2/2 173/2/2
f 173/2/2 169/2/2 174/2/2
f 170/2/2 171/2/2 177/2/2
f 177/2/2 171/2/2 178/2/2
f 174/1/2 175/1/2 179/1/2
f 179/1/2 175/1/2 180/1/2
f 176/1/2 177/1/2 183/1/2
f 183/1/2 177/1/2 184/1/2
f 180/2/2 181/2/2 185/2/2
f 185/2/2 181/2/2 186/2/2
f 182/2/2 183/2/2 189/2/2
f 189/2/2 183/2/2 190/2/2
f 186/1/2 187/1/2 191/1/2
f 191/1/2 187/1/2 192/1/2
f 188/1/2 189/1/2 193/1/2
f 193/1/2 189/1/2 194/1/2
f 192/2/2 193/2/2 195/2/2
f 195/2/2 193/2/2 196/2/2
f 197/1/2 198/1/2 200/1/2
f 200/1/2 198/1/2 201/1/2
f 201/1/2 198/1/2 202/1/2
f 202/1/2 198/1/2 203/1/2
f 199/1/2 200/1/2 205/1/2
f 200/1/2 201/1/2 205/1/2
f 205/1/2 201/1/2 206/1/2
f 203/1/2 204/1/2 207/1/2
f 202/1/2 203/1/2 207/1/2
f 207/1/2 204/1/2 208/1/2
f 208/1/2 204/1/2 210/1/2
f 210/1/2 204/1/2 211/1/2
f 199/1/2 205/1/2 212/1/2
f 212/1/2 205/1/2 213/1/2
f 209/1/2 210/1/2 216/1/2
f 216/1/2 210/1/2 217/1/2
f 213/1/2 214/1/2 218/1/2
f 218/1/2 214/1/2 219/1/2
f 215/1/2 216/1/2 222/1/2
f 222/1/2 216/1/2 223/1/2
f 219/1/2 220/1/2 224/1/2
f 224/1/2 220/1/2 225/1/2
f 221/1/2 222/1/2 228/1/2
f 228/1/2 222/1/2 229/1/2
f 225/1/2 226/1/2 230/1/2
f 230/1/2 226/1/2 231/1/2
f 227/1/2 228/1/2 232/1/2
f 232/1/2 228/1/2 233/1/2
f 231/1/2 232/1/2 234/1/2
f 234/1/2 232/1/2 235/1/2
f 236/2/2 237/2/2 239/2/2
f 239/2/2 237/2/2 240/2/2
f 240/2/2 237/2/2 241/2/2
f 241/2/2 237/2/2 242/2/2
f 238/2/2 239/2/2 244/2/2
f 239/2/2 240/2/2 244/2/2
f 240/3/2 241/3/2 245/3/2
f 244/2/2 240/2/2 245/2/2
f 242/2/2 243/2/2 246/2/2
f 245/3/2 241/3/2 246/3/2
f 241/2/2 242/2/2 246/2/2
f 238/2/2 244/2/2 247/2/2
f 244/3/2 245/3/2 248/3/2
f 247/2/2 244/2/2 248/2/2
f 245/2/2 246/2/2 249/2/2
f 248/3/2 245/3/2 249/3/2
f 238/2/2 247/2/2 250/2/2
f 247/3/2 248/3/2 251/3/2
f 250/2/2 247/2/2 251/2/2
f 248/2/2 249/2/2 252/2/2
f 251/3/2 248/3/2 252/3/2
f 249/2/2 246/2/2 253/2/2
f 252/2/2 249/2/2 253/2/2
f 246/2/2 243/2/2 253/2/2
f 253/2/2 243/2/2 254/2/2
f 238/2/2 250/2/2 255/2/2
f 250/3/2 251/3/2 256/3/2
f 255/2/2 250/2/2 256/2/2
f 251/2/2 252/2/2 257/2/2
f 256/3/2 251/3/2 257/3/2
f 252/2/2 253/2/2 257/2/2
f 257/2/2 253/2/2 258/2/2
f 253/3/2 254/3/2 259/3/2
f 258/2/2 253/2/2 259/2/2
f 254/2/2 243/2/2 260/2/2
f 259/3/2 254/3/2 260/3/2
f 255/3/2 256/3/2 261/3/2
f 238/2/2 255/2/2 261/2/2
f 257/2/2 258/2/2 262/2/2
f 261/3/2 256/3/2 262/3/2
f 256/2/2 257/2/2 262/2/2
f 262/2/2 258/2/2 263/2/2
f 258/3/2 259/3/2 264/3/2
f 263/2/2 258/2/2 264/2/2
f 259/2/2 260/2/2 265/2/2
f 264/3/2 259/3/2 265/3/2
f 260/2/2 243/2/2 266/2/2
f 265/2/2 260/2/2 266/2/2
f 266/2/2 243/2/2 267/2/2
f 262/2/2 263/2/2 268/2/2
f 238/2/2 261/2/2 268/2/2
f 261/2/2 262/2/2 268/2/2
f 268/2/2 263/2/2 269/2/2
f 263/3/2 264/3/2 270/3/2
f 269/2/2 263/2/2 270/2/2
f 264/2/2 265/2/2 271/2/2
f 270/3/2 264/3/2 271/3/2
f 265/2/2 266/2/2 271/2/2
f 271/2/2 266/2/2 272/2/2
f 272/2/2 266/2/2 273/2/2
f 269/2/2 270/2/2 274/2/2
f 271/2/2 272/2/2 274/2/2
f 270/2/2 271/2/2 274/2/2
f 274/2/2 272/2/2 275/2/2
f 275/2/2 272/2/2 276/2/2
f 276/2/2 272/2/2 277/2/2
f 275/2/2 276/2/2 278/2/2
f 278/2/2 276/2/2 279/2/2
f 279/2/2 276/2/2 280/2/2
f 280/2/2 276/2/2 281/2/2
f 279/2/2 280/2/2 282/2/2
f 282/2/2 280/2/2 283/2/2
f 290/2/3 285/2/3 284/2/3
f 291/2/3 285/2/3 290/2/3
f 292/3/3 286/3/3 285/3/3
f 292/2/3 285/2/3 291/2/3
f 293/2/3 287/2/3 286/2/3
f 293/3/3 286/3/3 292/3/3
f 294/2/3 287/2/3 293/2/3
f 295/3/3 291/3/3 290/3/3
f 295/2/3 290/2/3 289/2/3
f 296/2/3 292/2/3 291/2/3
f 296/3/3 291/3/3 295/3/3
f 296/2/3 293/2/3 292/2/3
f 297/2/3 293/2/3 296/2/3
f 298/3/3 294/3/3 293/3/3
f 298/2/3 293/2/3 297/2/3
f 299/2/3 287/2/3 294/2/3
f 299/3/3 294/3/3 298/3/3
f 300/2/3 287/2/3 299/2/3
f 301/3/3 297/3/3 296/3/3
f 301/2/3 296/2/3 295/2/3
f 302/2/3 298/2/3 297/2/3
f 302/3/3 297/3/3 301/3/3
f 302/2/3 299/2/3 298/2/3
f 303/2/3 299/2/3 302/2/3
f 304/3/3 300/3/3 299/3/3
f 304/2/3 299/2/3 303/2/3
f 305/2/3 287/2/3 300/2/3
f 305/3/3 300/3/3 304/3/3
f 306/2/3 287/2/3 305/2/3
f 307/3/3 303/3/3 302/3/3
f 307/2/3 302/2/3 301/2/3
f 308/2/3 304/2/3 303/2/3
f 308/3/3 303/3/3 307/3/3
f 308/2/3 305/2/3 304/2/3
f 309/2/3 305/2/3 308/2/3
f 310/3/3 306/3/3 305/3/3
f 310/2/3 305/2/3 309/2/3
f 311/2/3 287/2/3 306/2/3
f 311/3/3 306/3/3 310/3/3
f 312/3/3 309/3/3 308/3/3
f 312/2/3 308/2/3 307/2/3
f 313/2/3 310/2/3 309/2/3
f 313/3/3 309/3/3 312/3/3
f 313/2/3 311/2/3 310/2/3
f 314/2/3 311/2/3 313/2/3
f 315/2/3 313/2/3 312/2/3
f 315/3/3 314/3/3 313/3/3
f 316/2/3 311/2/3 314/2/3
f 316/3/3 314/3/3 315/3/3
f 317/2/3 287/2/3 311/2/3
f 317/2/3 311/2/3 316/2/3
f 318/2/3 301/2/3 295/2/3
f 318/2/3 295/2/3 289/2/3
f 318/2/3 307/2/3 301/2/3
f 318/2/3 315/2/3 312/2/3
f 318/2/3 316/2/3 315/2/3
f 318/2/3 312/2/3 307/2/3
f 319/2/3 316/2/3 318/2/3
f 320/3/3 317/3/3 316/3/3
f 320/2/3 316/2/3 319/2/3
f 321/2/3 287/2/3 317/2/3
f 321/3/3 317/3/3 320/3/3
f 322/2/3 320/2/3 319/2/3
f 322/2/3 321/2/3 320/2/3
f 323/1/3 288/1/3 287/1/3
f 323/2/3 321/2/3 322/2/3
f 323/2/3 287/2/3 321/2/3
f 324/1/3 288/1/3 323/1/3
f 327/1/3 326/1/3 325/1/3
f 328/1/3 326/1/3 327/1/3
f 329/1/3 326/1/3 328/1/3
f 330/1/3 326/1/3 329/1/3
f 331/1/3 326/1/3 330/1/3
f 333/2/3 332/2/3 331/2/3
f 334/2/3 332/2/3 333/2/3
f 335/3/3 334/3/3 333/3/3
f 336/3/3 334/3/3 335/3/3
f 339/2/3 336/2/3 335/2/3
f 340/2/3 336/2/3 339/2/3
f 341/1/3 338/1/3 337/1/3
f 341/1/3 339/1/3 338/1/3
f 342/1/3 339/1/3 341/1/3
f 346/2/3 344/2/3 343/2/3
f 347/2/3 344/2/3 346/2/3
f 349/1/3 346/1/3 345/1/3
f 350/1/3 346/1/3 349/1/3
f 351/1/3 348/1/3 347/1/3
f 352/1/3 348/1/3 351/1/3
f 354/1/3 353/1/3 352/1/3
f 355/1/3 353/1/3 354/1/3
f 356/1/3 353/1/3 355/1/3
f 357/3/3 356/3/3 355/3/3
f 358/3/3 356/3/3 357/3/3
f 362/1/3 358/1/3 357/1/3
f 363/1/3 358/1/3 362/1/3
f 364/1/3 360/1/3 359/1/3
f 365/1/3 360/1/3 364/1/3
f 367/1/3 362/1/3 361/1/3
f 368/1/3 362/1/3 367/1/3
f 369/2/3 367/2/3 366/2/3
f 370/2/3 367/2/3 369/2/3
f 373/2/3 372/2/3 371/2/3
f 374/2/3 372/2/3 373/2/3
f 376/1/3 375/1/3 374/1/3
f 377/1/3 375/1/3 376/1/3
f 379/2/3 378/2/3 377/2/3
f 380/2/3 378/2/3 379/2/3
f 381/2/3 378/2/3 380/2/3
f 382/3/3 381/3/3 380/3/3
f 383/3/3 381/3/3 382/3/3
f 385/2/3 383/2/3 382/2/3
f 386/2/3 383/2/3 385/2/3
f 390/1/3 385/1/3 384/1/3
f 391/1/3 385/1/3 390/1/3
f 392/2/3 388/2/3 387/2/3
f 393/2/3 388/2/3 392/2/3
f 394/2/3 390/2/3 389/2/3
f 395/2/3 390/2/3 394/2/3
f 398/2/3 397/2/3 396/2/3
f 399/2/3 397/2/3 398/2/3
f 401/1/3 400/1/3 399/1/3
f 402/1/3 400/1/3 401/1/3
f 404/1/3 403/1/3 402/1/3
f 405/1/3 403/1/3 404/1/3
f 407/1/3 403/1/3 405/1/3
f 408/1/3 403/1/3 407/1/3
f 410/1/3 407/1/3 406/1/3
f 411/1/3 407/1/3 410/1/3
f 412/2/3 410/2/3 409/2/3
f 413/2/3 410/2/3 412/2/3
f 416/2/3 415/2/3 414/2/3
f 417/2/3 415/2/3 416/2/3
f 419/1/3 418/1/3 417/1/3
f 420/1/3 418/1/3 419/1/3
f 423/2/3 421/2/3 420/2/3
f 424/2/3 421/2/3 423/2/3
f 426/1/3 423/1/3 422/1/3
f 427/1/3 423/1/3 426/1/3
f 428/2/3 426/2/3 425/2/3
f 429/2/3 426/2/3 428/2/3
f 430/2/4 431/2/4 432/2/4
f 432/2/4 431/2/4 433/2/4
f 433/1/4 434/1/4 435/1/4
f 435/1/4 434/1/4 436/1/4
f 436/2/4 437/2/4 438/2/4
f 438/2/4 437/2/4 439/2/4
f 439/2/4 437/2/4 440/2/4
f 439/3/4 440/3/4 441/3/4
f 441/3/4 440/3/4 442/3/4
f 441/2/4 442/2/4 443/2/4
f 443/2/4 442/2/4 445/2/4
f 445/2/4 442/2/4 446/2/4
f 444/1/4 445/1/4 448/1/4
f 448/1/4 445/1/4 449/1/4
f 447/2/4 448/2/4 450/2/4
f 450/2/4 448/2/4 451/2/4
f 452/2/4 453/2/4 454/2/4
f 454/2/4 453/2/4 455/2/4
f 455/1/4 456/1/4 457/1/4
f 457/1/4 456/1/4 458/1/4
f 458/3/4 459/3/4 460/3/4
f 460/3/4 459/3/4 461/3/4
f 460/1/4 461/1/4 462/1/4
f 462/1/4 461/1/4 463/1/4
f 463/1/4 461/1/4 464/1/4
f 463/3/4 464/3/4 465/3/4
f 465/3/4 464/3/4 466/3/4
f 465/1/4 466/1/4 467/1/4
f 467/1/4 466/1/4 469/1/4
f 469/1/4 466/1/4 470/1/4
f 468/1/4 469/1/4 472/1/4
f 472/1/4 469/1/4 473/1/4
f 471/2/4 472/2/4 474/2/4
f 474/2/4 472/2/4 475/2/4
f 476/2/4 477/2/4 478/2/4
f 478/2/4 477/2/4 479/2/4
f 479/1/4 480/1/4 481/1/4
f 481/1/4 480/1/4 482/1/4
f 482/2/4 483/2/4 484/2/4
f 484/2/4 483/2/4 485/2/4
f 484/3/4 485/3/4 486/3/4
f 486/3/4 485/3/4 487/3/4
f 486/2/4 487/2/4 488/2/4
f 488/2/4 487/2/4 489/2/4
f 489/2/4 487/2/4 490/2/4
f 489/3/4 490/3/4 491/3/4
f 491/3/4 490/3/4 492/3/4
f 491/2/4 492/2/4 493/2/4
f 493/2/4 492/2/4 495/2/4
f 495/2/4 492/2/4 496/2/4
f 494/1/4 495/1/4 498/1/4
f 498/1/4 495/1/4 499/1/4
f 497/2/4 498/2/4 500/2/4
f 500/2/4 498/2/4 501/2/4
f 502/2/4 503/2/4 504/2/4
f 504/2/4 503/2/4 505/2/4
f 505/2/4 503/2/4 506/2/4
f 506/1/4 507/1/4 508/1/4
f 505/1/4 506/1/4 508/1/4
f 508/1/4 507/1/4 509/1/4
f 509/1/4 507/1/4 510/1/4
f 510/1/4 511/1/4 512/1/4
f 512/1/4 511/1/4 513/1/4
f 513/1/4 511/1/4 514/1/4
f 513/3/4 514/3/4 515/3/4
f 515/3/4 514/3/4 516/3/4
f 515/1/4 516/1/4 517/1/4
f 517/1/4 516/1/4 518/1/4
f 518/1/4 516/1/4 519/1/4
f 518/3/4 519/3/4 520/3/4
f 520/3/4 519/3/4 521/3/4
f 520/1/4 521/1/4 522/1/4
f 522/1/4 521/1/4 524/1/4
f 524/1/4 521/1/4 525/1/4
f 523/1/4 524/1/4 529/1/4
f 529/1/4 524/1/4 530/1/4
f 526/2/4 527/2/4 531/2/4
f 531/2/4 527/2/4 532/2/4
f 528/2/4 529/2/4 533/2/4
f 533/2/4 529/2/4 534/2/4
f 535/2/4 536/2/4 538/2/4
f 538/2/4 536/2/4 539/2/4
f 537/1/4 538/1/4 542/1/4
f 542/1/4 538/1/4 543/1/4
f 540/1/4 541/1/4 544/1/4
f 544/1/4 541/1/4 545/1/4
f 546/3/4 547/3/4 548/3/4
f 548/3/4 547/3/4 549/3/4
f 548/2/4 549/2/4 550/2/4
f 550/2/4 549/2/4 551/2/4
f 550/3/4 551/3/4 552/3/4
f 552/3/4 551/3/4 553/3/4
f 552/2/4 553/2/4 554/2/4
f 554/2/4 553/2/4 555/2/4
f 554/3/4 555/3/4 556/3/4
f 556/3/4 555/3/4 557/3/4
f 556/2/4 557/2/4 561/2/4
f 561/2/4 557/2/4 562/2/4
f 558/1/4 559/1/4 563/1/4
f 563/1/4 559/1/4 564/1/4
f 560/1/4 561/1/4 566/1/4
f 566/1/4 561/1/4 567/1/4
f 565/2/4 566/2/4 568/2/4
f 568/2/4 566/2/4 569/2/4
f 570/1/4 571/1/4 572/1/4
f 572/1/4 571/1/4 573/1/4
f 574/1/4 575/1/4 577/1/4
f 577/1/4 575/1/4 578/1/4
f 576/1/4 577/1/4 579/1/4
f 579/1/4 577/1/4 580/1/4
f 581/2/4 582/2/4 584/2/4
f 584/2/4 582/2/4 585/2/4
f 585/2/4 582/2/4 586/2/4
f 583/2/4 584/2/4 587/2/4
f 584/2/4 585/2/4 587/2/4
f 587/2/4 585/2/4 588/2/4
f 586/2/4 582/2/4 589/2/4
f 589/2/4 582/2/4 590/2/4
f 590/2/4 582/2/4 591/2/4
f 583/2/4 587/2/4 592/2/4
f 583/2/4 592/2/4 593/2/4
f 583/2/4 593/2/4 594/2/4
f 591/2/4 582/2/4 597/2/4
f 594/2/4 595/2/4 598/2/4
f 583/2/4 594/2/4 598/2/4
f 598/2/4 595/2/4 599/2/4
f 599/2/4 595/2/4 600/2/4
f 596/2/4 597/2/4 602/2/4
f 600/2/4 601/2/4 603/2/4
f 601/2/4 602/2/4 603/2/4
f 599/2/4 600/2/4 603/2/4
f 602/2/4 597/2/4 604/2/4
f 603/2/4 602/2/4 604/2/4
f 597/2/4 582/2/4 604/2/4
f 605/1/4 606/1/4 608/1/4
f 608/1/4 606/1/4 609/1/4
f 609/1/4 606/1/4 610/1/4
f 610/1/4 606/1/4 611/1/4
f 607/1/4 608/1/4 613/1/4
f 608/1/4 609/1/4 613/1/4
f 609/3/4 610/3/4 614/3/4
f 613/1/4 609/1/4 614/1/4
f 610/1/4 611/1/4 615/1/4
f 614/3/4 610/3/4 615/3/4
f 615/1/4 611/1/4 616/1/4
f 611/3/4 612/3/4 617/3/4
f 616/1/4 611/1/4 617/1/4
f 617/3/4 612/3/4 618/3/4
f 607/1/4 613/1/4 619/1/4
f 613/3/4 614/3/4 620/3/4
f 619/1/4 613/1/4 620/1/4
f 615/1/4 616/1/4 621/1/4
f 620/3/4 614/3/4 621/3/4
f 614/1/4 615/1/4 621/1/4
f 621/1/4 616/1/4 622/1/4
f 616/3/4 617/3/4 623/3/4
f 622/1/4 616/1/4 623/1/4
f 617/1/4 618/1/4 624/1/4
f 623/3/4 617/3/4 624/3/4
f 619/3/4 620/3/4 625/3/4
f 621/1/4 622/1/4 626/1/4
f 625/3/4 620/3/4 626/3/4
f 620/1/4 621/1/4 626/1/4
f 626/1/4 622/1/4 627/1/4
f 622/3/4 623/3/4 628/3/4
f 627/1/4 622/1/4 628/1/4
f 623/1/4 624/1/4 629/1/4
f 628/3/4 623/3/4 629/3/4
f 626/1/4 627/1/4 630/1/4
f 625/1/4 626/1/4 630/1/4
f 630/1/4 627/1/4 631/1/4
f 627/3/4 628/3/4 632/3/4
f 631/1/4 627/1/4 632/1/4
f 628/1/4 629/1/4 633/1/4
f 632/3/4 628/3/4 633/3/4
f 624/1/4 618/1/4 634/1/4
f 633/1/4 629/1/4 634/1/4
f 629/1/4 624/1/4 634/1/4
f 634/1/4 618/1/4 635/1/4
f 631/3/4 632/3/4 636/3/4
f 632/1/4 633/1/4 637/1/4
f 636/3/4 632/3/4 637/3/4
f 633/1/4 634/1/4 637/1/4
f 637/1/4 634/1/4 638/1/4
f 641/2/5 640/2/5 639/2/5
f 642/2/5 640/2/5 641/2/5
f 648/2/5 644/2/5 643/2/5
f 649/2/5 646/2/5 645/2/5
f 651/1/5 648/1/5 647/1/5
f 652/2/5 644/2/5 648/2/5
f 652/1/5 648/1/5 651/1/5
f 653/1/5 650/1/5 649/1/5
f 653/2/5 649/2/5 645/2/5
f 654/1/5 650/1/5 653/1/5
f 655/2/5 644/2/5 652/2/5
f 656/2/5 644/2/5 655/2/5
f 661/2/5 653/2/5 645/2/5
f 662/2/5 653/2/5 661/2/5
f 663/1/5 658/1/5 657/1/5
f 664/3/5 659/3/5 658/3/5
f 664/1/5 658/1/5 663/1/5
f 665/1/5 660/1/5 659/1/5
f 665/3/5 659/3/5 664/3/5
f 666/1/5 660/1/5 665/1/5
f 672/1/5 668/1/5 667/1/5
f 673/1/5 668/1/5 672/1/5
f 674/1/5 670/1/5 669/1/5
f 675/1/5 670/1/5 674/1/5
f 678/2/5 677/2/5 676/2/5
f 679/2/5 677/2/5 678/2/5
f 680/2/5 672/2/5 671/2/5
f 681/2/5 672/2/5 680/2/5
f 685/1/5 682/1/5 681/1/5
f 686/1/5 682/1/5 685/1/5
f 687/1/5 684/1/5 683/1/5
f 688/1/5 684/1/5 687/1/5
f 693/1/5 690/1/5 689/1/5
f 694/1/5 690/1/5 693/1/5
f 695/3/5 692/3/5 691/3/5
f 696/3/5 692/3/5 695/3/5
f 699/2/5 698/2/5 697/2/5
f 700/2/5 698/2/5 699/2/5
f 703/2/5 702/2/5 701/2/5
f 704/2/5 702/2/5 703/2/5
f 705/2/6 706/2/6 707/2/6
f 707/2/6 706/2/6 708/2/6
f 709/1/6 710/1/6 713/1/6
f 713/1/6 710/1/6 714/1/6
f 711/1/6 712/1/6 715/1/6
f 715/1/6 712/1/6 716/1/6
f 717/1/6 718/1/6 719/1/6
f 719/1/6 718/1/6 720/1/6
f 721/3/6 722/3/6 724/3/6
f 722/1/6 723/1/6 725/1/6
f 724/3/6 722/3/6 725/3/6
f 725/1/6 723/1/6 726/1/6
f 727/1/6 728/1/6 731/1/6
f 731/1/6 728/1/6 732/1/6
f 729/2/6 730/2/6 734/2/6
f 734/2/6 730/2/6 735/2/6
f 733/1/6 734/1/6 737/1/6
f 737/1/6 734/1/6 738/1/6
f 736/2/6 737/2/6 739/2/6
f 739/2/6 737/2/6 740/2/6
f 741/1/6 742/1/6 744/1/6
f 744/1/6 742/1/6 745/1/6
f 745/1/6 742/1/6 746/1/6
f 746/1/6 742/1/6 747/1/6
f 743/1/6 744/1/6 750/1/6
f 750/1/6 744/1/6 751/1/6
f 747/1/6 748/1/6 752/1/6
f 752/1/6 748/1/6 753/1/6
f 749/2/6 750/2/6 755/2/6
f 755/2/6 750/2/6 756/2/6
f 753/2/6 754/2/6 757/2/6
f 757/2/6 754/2/6 758/2/6
f 759/2/6 760/2/6 763/2/6
f 763/2/6 760/2/6 764/2/6
f 761/2/6 762/2/6 766/2/6
f 766/2/6 762/2/6 767/2/6
f 765/1/6 766/1/6 774/1/6
f 774/1/6 766/1/6 775/1/6
f 772/1/6 773/1/6 776/1/6
f 768/1/6 769/1/6 776/1/6
f 773/1/6 774/1/6 776/1/6
f 769/1/6 770/1/6 776/1/6
f 771/1/6 772/1/6 776/1/6
f 770/1/6 771/1/6 776/1/6
f 776/1/6 774/1/6 777/1/6
f 778/2/6 779/2/6 783/2/6
f 779/3/6 780/3/6 784/3/6
f 783/2/6 779/2/6 784/2/6
f 780/2/6 781/2/6 785/2/6
f 784/3/6 780/3/6 785/3/6
f 785/2/6 781/2/6 786/2/6
f 786/2/6 781/2/6 787/2/6
f 782/1/6 783/1/6 790/1/6
f 790/1/6 783/1/6 791/1/6
f 787/1/6 788/1/6 792/1/6
f 792/1/6 788/1/6 793/1/6
f 789/2/6 790/2/6 795/2/6
f 795/2/6 790/2/6 796/2/6
f 793/2/6 794/2/6 797/2/6
f 797/2/6 794/2/6 798/2/6
f 799/2/6 800/2/6 803/2/6
f 803/2/6 800/2/6 804/2/6
f 801/2/6 802/2/6 807/2/6
f 807/2/6 802/2/6 808/2/6
f 804/1/6 805/1/6 809/1/6
f 809/1/6 805/1/6 810/1/6
f 806/1/6 807/1/6 818/1/6
f 818/1/6 807/1/6 819/1/6
f 810/3/6 811/3/6 820/3/6
f 811/2/6 812/2/6 821/2/6
f 820/3/6 811/3/6 821/3/6
f 812/2/6 813/2/6 821/2/6
f 813/3/6 814/3/6 822/3/6
f 821/2/6 813/2/6 822/2/6
f 814/2/6 815/2/6 823/2/6
f 822/3/6 814/3/6 823/3/6
f 815/2/6 816/2/6 823/2/6
f 816/3/6 817/3/6 824/3/6
f 823/2/6 816/2/6 824/2/6
f 817/2/6 818/2/6 825/2/6
f 824/3/6 817/3/6 825/3/6
f 825/2/6 818/2/6 826/2/6
f 827/1/6 828/1/6 832/1/6
f 828/3/6 829/3/6 833/3/6
f 832/1/6 828/1/6 833/1/6
f 829/1/6 830/1/6 834/1/6
f 833/3/6 829/3/6 834/3/6
f 834/1/6 830/1/6 835/1/6
f 835/1/6 830/1/6 836/1/6
f 831/1/6 832/1/6 839/1/6
f 839/1/6 832/1/6 840/1/6
f 836/1/6 837/1/6 841/1/6
f 841/1/6 837/1/6 842/1/6
f 838/2/6 839/2/6 844/2/6
f 844/2/6 839/2/6 845/2/6
f 842/2/6 843/2/6 846/2/6
f 846/2/6 843/2/6 847/2/6
f 848/2/6 849/2/6 852/2/6
f 852/2/6 849/2/6 853/2/6
f 850/2/6 851/2/6 856/2/6
f 856/2/6 851/2/6 857/2/6
f 853/1/6 854/1/6 858/1/6
f 858/1/6 854/1/6 859/1/6
f 855/1/6 856/1/6 866/1/6
f 866/1/6 856/1/6 867/1/6
f 859/1/6 860/1/6 868/1/6
f 860/1/6 861/1/6 868/1/6
f 861/3/6 862/3/6 869/3/6
f 868/1/6 861/1/6 869/1/6
f 862/1/6 863/1/6 870/1/6
f 869/3/6 862/3/6 870/3/6
f 863/1/6 864/1/6 870/1/6
f 864/3/6 865/3/6 871/3/6
f 870/1/6 864/1/6 871/1/6
f 865/1/6 866/1/6 872/1/6
f 871/3/6 865/3/6 872/3/6
f 872/1/6 866/1/6 873/1/6
f 874/2/6 875/2/6 879/2/6
f 875/3/6 876/3/6 880/3/6
f 879/2/6 875/2/6 880/2/6
f 876/2/6 877/2/6 881/2/6
f 880/3/6 876/3/6 881/3/6
f 881/2/6 877/2/6 882/2/6
f 878/1/6 879/1/6 885/1/6
f 885/1/6 879/1/6 886/1/6
f 882/1/6 883/1/6 887/1/6
f 887/1/6 883/1/6 888/1/6
f 884/2/6 885/2/6 890/2/6
f 890/2/6 885/2/6 891/2/6
f 888/2/6 889/2/6 894/2/6
f 894/2/6 889/2/6 895/2/6
f 891/1/6 892/1/6 896/1/6
f 896/1/6 892/1/6 897/1/6
f 893/1/6 894/1/6 903/1/6
f 903/1/6 894/1/6 904/1/6
f 897/2/6 898/2/6 905/2/6
f 898/3/6 899/3/6 906/3/6
f 905/2/6 898/2/6 906/2/6
f 899/2/6 900/2/6 907/2/6
f 906/3/6 899/3/6 907/3/6
f 900/2/6 901/2/6 907/2/6
f 901/3/6 902/3/6 908/3/6
f 907/2/6 901/2/6 908/2/6
f 902/2/6 903/2/6 909/2/6
f 908/3/6 902/3/6 909/3/6
f 909/2/6 903/2/6 910/2/6
f 911/1/6 912/1/6 914/1/6
f 914/1/6 912/1/6 915/1/6
f 913/1/6 914/1/6 917/1/6
f 917/1/6 914/1/6 918/1/6
f 915/1/6 916/1/6 923/1/6
f 923/1/6 916/1/6 924/1/6
f 918/3/6 919/3/6 925/3/6
f 919/1/6 920/1/6 926/1/6
f 925/3/6 919/3/6 926/3/6
f 920/1/6 921/1/6 926/1/6
f 921/3/6 922/3/6 927/3/6
f 926/1/6 921/1/6 927/1/6
f 922/1/6 923/1/6 928/1/6
f 927/3/6 922/3/6 928/3/6
f 928/1/6 923/1/6 929/1/6
f 930/2/6 931/2/6 932/2/6
f 932/2/6 931/2/6 933/2/6
f 930/2/6 932/2/6 934/2/6
f 932/3/6 933/3/6 935/3/6
f 934/2/6 932/2/6 935/2/6
f 933/2/6 931/2/6 936/2/6
f 935/3/6 933/3/6 936/3/6
f 936/2/6 931/2/6 937/2/6
