[gd_resource type="Resource" script_class="Constellation" load_steps=2 format=3 uid="uid://dkbbtkxg277q3"]

[ext_resource type="Script" path="res://autoloads/data/classes/constellation.gd" id="1_1n2kk"]

[resource]
script = ExtResource("1_1n2kk")
id = 1
needed_items = Array[int]([4, 2])
needed_connections = Array[Array]([[2, 4]])
island_unlocked = 3
